%YAML 1.1
%TAG !u! tag:unity3d.com,2011:
--- !u!1 &100074
GameObject:
  m_ObjectHideFlags: 1
  m_CorrespondingSourceObject: {fileID: 0}
  m_PrefabInternal: {fileID: 100100000}
  serializedVersion: 6
  m_Component:
  - component: {fileID: 420434}
  m_Layer: 0
  m_Name: VBOT_:RightHandThumb1
  m_TagString: Untagged
  m_Icon: {fileID: 0}
  m_NavMeshLayer: 0
  m_StaticEditorFlags: 0
  m_IsActive: 1
--- !u!1 &100154
GameObject:
  m_ObjectHideFlags: 1
  m_CorrespondingSourceObject: {fileID: 0}
  m_PrefabInternal: {fileID: 100100000}
  serializedVersion: 6
  m_Component:
  - component: {fileID: 464164}
  m_Layer: 0
  m_Name: VBOT_:LeftToe_End
  m_TagString: Untagged
  m_Icon: {fileID: 0}
  m_NavMeshLayer: 0
  m_StaticEditorFlags: 0
  m_IsActive: 1
--- !u!1 &100688
GameObject:
  m_ObjectHideFlags: 1
  m_CorrespondingSourceObject: {fileID: 0}
  m_PrefabInternal: {fileID: 100100000}
  serializedVersion: 6
  m_Component:
  - component: {fileID: 492988}
  m_Layer: 0
  m_Name: VBOT_:LeftHandMiddle4
  m_TagString: Untagged
  m_Icon: {fileID: 0}
  m_NavMeshLayer: 0
  m_StaticEditorFlags: 0
  m_IsActive: 1
--- !u!1 &100990
GameObject:
  m_ObjectHideFlags: 1
  m_CorrespondingSourceObject: {fileID: 0}
  m_PrefabInternal: {fileID: 100100000}
  serializedVersion: 6
  m_Component:
  - component: {fileID: 434626}
  m_Layer: 0
  m_Name: VBOT_:RightHandPinky4
  m_TagString: Untagged
  m_Icon: {fileID: 0}
  m_NavMeshLayer: 0
  m_StaticEditorFlags: 0
  m_IsActive: 1
--- !u!1 &101536
GameObject:
  m_ObjectHideFlags: 1
  m_CorrespondingSourceObject: {fileID: 0}
  m_PrefabInternal: {fileID: 100100000}
  serializedVersion: 6
  m_Component:
  - component: {fileID: 481864}
  m_Layer: 0
  m_Name: VBOT_:LeftHandPinky4
  m_TagString: Untagged
  m_Icon: {fileID: 0}
  m_NavMeshLayer: 0
  m_StaticEditorFlags: 0
  m_IsActive: 1
--- !u!1 &101714
GameObject:
  m_ObjectHideFlags: 1
  m_CorrespondingSourceObject: {fileID: 0}
  m_PrefabInternal: {fileID: 100100000}
  serializedVersion: 6
  m_Component:
  - component: {fileID: 403690}
  m_Layer: 0
  m_Name: VBOT_:RightHandPinky1
  m_TagString: Untagged
  m_Icon: {fileID: 0}
  m_NavMeshLayer: 0
  m_StaticEditorFlags: 0
  m_IsActive: 1
--- !u!1 &102118
GameObject:
  m_ObjectHideFlags: 1
  m_CorrespondingSourceObject: {fileID: 0}
  m_PrefabInternal: {fileID: 100100000}
  serializedVersion: 6
  m_Component:
  - component: {fileID: 474734}
  m_Layer: 0
  m_Name: VBOT_:RightHandThumb2
  m_TagString: Untagged
  m_Icon: {fileID: 0}
  m_NavMeshLayer: 0
  m_StaticEditorFlags: 0
  m_IsActive: 1
--- !u!1 &102512
GameObject:
  m_ObjectHideFlags: 1
  m_CorrespondingSourceObject: {fileID: 0}
  m_PrefabInternal: {fileID: 100100000}
  serializedVersion: 6
  m_Component:
  - component: {fileID: 435236}
  m_Layer: 0
  m_Name: VBOT_:Neck
  m_TagString: Untagged
  m_Icon: {fileID: 0}
  m_NavMeshLayer: 0
  m_StaticEditorFlags: 0
  m_IsActive: 1
--- !u!1 &103238
GameObject:
  m_ObjectHideFlags: 1
  m_CorrespondingSourceObject: {fileID: 0}
  m_PrefabInternal: {fileID: 100100000}
  serializedVersion: 6
  m_Component:
  - component: {fileID: 449324}
  m_Layer: 0
  m_Name: VBOT_:LeftLeg
  m_TagString: Untagged
  m_Icon: {fileID: 0}
  m_NavMeshLayer: 0
  m_StaticEditorFlags: 0
  m_IsActive: 1
--- !u!1 &103790
GameObject:
  m_ObjectHideFlags: 1
  m_CorrespondingSourceObject: {fileID: 0}
  m_PrefabInternal: {fileID: 100100000}
  serializedVersion: 6
  m_Component:
  - component: {fileID: 403640}
  m_Layer: 0
  m_Name: VBOT_:Spine1
  m_TagString: Untagged
  m_Icon: {fileID: 0}
  m_NavMeshLayer: 0
  m_StaticEditorFlags: 0
  m_IsActive: 1
--- !u!1 &104216
GameObject:
  m_ObjectHideFlags: 1
  m_CorrespondingSourceObject: {fileID: 0}
  m_PrefabInternal: {fileID: 100100000}
  serializedVersion: 6
  m_Component:
  - component: {fileID: 420748}
  m_Layer: 0
  m_Name: VBOT_:RightHand
  m_TagString: Untagged
  m_Icon: {fileID: 0}
  m_NavMeshLayer: 0
  m_StaticEditorFlags: 0
  m_IsActive: 1
--- !u!1 &106150
GameObject:
  m_ObjectHideFlags: 1
  m_CorrespondingSourceObject: {fileID: 0}
  m_PrefabInternal: {fileID: 100100000}
  serializedVersion: 6
  m_Component:
  - component: {fileID: 486282}
  m_Layer: 0
  m_Name: VBOT_:RightToeBase
  m_TagString: Untagged
  m_Icon: {fileID: 0}
  m_NavMeshLayer: 0
  m_StaticEditorFlags: 0
  m_IsActive: 1
--- !u!1 &106594
GameObject:
  m_ObjectHideFlags: 1
  m_CorrespondingSourceObject: {fileID: 0}
  m_PrefabInternal: {fileID: 100100000}
  serializedVersion: 6
  m_Component:
  - component: {fileID: 438974}
  m_Layer: 0
  m_Name: VBOT_:LeftHandMiddle4_end
  m_TagString: Untagged
  m_Icon: {fileID: 0}
  m_NavMeshLayer: 0
  m_StaticEditorFlags: 0
  m_IsActive: 1
--- !u!1 &107150
GameObject:
  m_ObjectHideFlags: 1
  m_CorrespondingSourceObject: {fileID: 0}
  m_PrefabInternal: {fileID: 100100000}
  serializedVersion: 6
  m_Component:
  - component: {fileID: 449926}
  m_Layer: 0
  m_Name: VBOT_:RightHandRing1
  m_TagString: Untagged
  m_Icon: {fileID: 0}
  m_NavMeshLayer: 0
  m_StaticEditorFlags: 0
  m_IsActive: 1
--- !u!1 &108298
GameObject:
  m_ObjectHideFlags: 1
  m_CorrespondingSourceObject: {fileID: 0}
  m_PrefabInternal: {fileID: 100100000}
  serializedVersion: 6
  m_Component:
  - component: {fileID: 487558}
  m_Layer: 0
  m_Name: VBOT_:LeftToe_End_end
  m_TagString: Untagged
  m_Icon: {fileID: 0}
  m_NavMeshLayer: 0
  m_StaticEditorFlags: 0
  m_IsActive: 1
--- !u!1 &108436
GameObject:
  m_ObjectHideFlags: 1
  m_CorrespondingSourceObject: {fileID: 0}
  m_PrefabInternal: {fileID: 100100000}
  serializedVersion: 6
  m_Component:
  - component: {fileID: 485998}
  m_Layer: 0
  m_Name: VBOT_:RightToe_End_end
  m_TagString: Untagged
  m_Icon: {fileID: 0}
  m_NavMeshLayer: 0
  m_StaticEditorFlags: 0
  m_IsActive: 1
--- !u!1 &109020
GameObject:
  m_ObjectHideFlags: 1
  m_CorrespondingSourceObject: {fileID: 0}
  m_PrefabInternal: {fileID: 100100000}
  serializedVersion: 6
  m_Component:
  - component: {fileID: 458010}
  m_Layer: 0
  m_Name: VBOT_:LeftArm
  m_TagString: Untagged
  m_Icon: {fileID: 0}
  m_NavMeshLayer: 0
  m_StaticEditorFlags: 0
  m_IsActive: 1
--- !u!1 &110316
GameObject:
  m_ObjectHideFlags: 1
  m_CorrespondingSourceObject: {fileID: 0}
  m_PrefabInternal: {fileID: 100100000}
  serializedVersion: 6
  m_Component:
  - component: {fileID: 476046}
  m_Layer: 0
  m_Name: VBOT_:RightUpLeg
  m_TagString: Untagged
  m_Icon: {fileID: 0}
  m_NavMeshLayer: 0
  m_StaticEditorFlags: 0
  m_IsActive: 1
--- !u!1 &114094
GameObject:
  m_ObjectHideFlags: 1
  m_CorrespondingSourceObject: {fileID: 0}
  m_PrefabInternal: {fileID: 100100000}
  serializedVersion: 6
  m_Component:
  - component: {fileID: 433620}
  m_Layer: 0
  m_Name: VBOT_:LeftHandRing3
  m_TagString: Untagged
  m_Icon: {fileID: 0}
  m_NavMeshLayer: 0
  m_StaticEditorFlags: 0
  m_IsActive: 1
--- !u!1 &115358
GameObject:
  m_ObjectHideFlags: 1
  m_CorrespondingSourceObject: {fileID: 0}
  m_PrefabInternal: {fileID: 100100000}
  serializedVersion: 6
  m_Component:
  - component: {fileID: 409634}
  m_Layer: 0
  m_Name: VBOT_:RightHandMiddle4
  m_TagString: Untagged
  m_Icon: {fileID: 0}
  m_NavMeshLayer: 0
  m_StaticEditorFlags: 0
  m_IsActive: 1
--- !u!1 &117398
GameObject:
  m_ObjectHideFlags: 1
  m_CorrespondingSourceObject: {fileID: 0}
  m_PrefabInternal: {fileID: 100100000}
  serializedVersion: 6
  m_Component:
  - component: {fileID: 462046}
  - component: {fileID: 13720864}
  m_Layer: 0
  m_Name: VBOT_:VBOT_LOD3
  m_TagString: Untagged
  m_Icon: {fileID: 0}
  m_NavMeshLayer: 0
  m_StaticEditorFlags: 0
  m_IsActive: 1
--- !u!1 &117668
GameObject:
  m_ObjectHideFlags: 1
  m_CorrespondingSourceObject: {fileID: 0}
  m_PrefabInternal: {fileID: 100100000}
  serializedVersion: 6
  m_Component:
  - component: {fileID: 499776}
  m_Layer: 0
  m_Name: VBOT_:LeftHandThumb4
  m_TagString: Untagged
  m_Icon: {fileID: 0}
  m_NavMeshLayer: 0
  m_StaticEditorFlags: 0
  m_IsActive: 1
--- !u!1 &119016
GameObject:
  m_ObjectHideFlags: 1
  m_CorrespondingSourceObject: {fileID: 0}
  m_PrefabInternal: {fileID: 100100000}
  serializedVersion: 6
  m_Component:
  - component: {fileID: 468238}
  m_Layer: 0
  m_Name: VBOT_:LeftHandThumb2
  m_TagString: Untagged
  m_Icon: {fileID: 0}
  m_NavMeshLayer: 0
  m_StaticEditorFlags: 0
  m_IsActive: 1
--- !u!1 &119206
GameObject:
  m_ObjectHideFlags: 1
  m_CorrespondingSourceObject: {fileID: 0}
  m_PrefabInternal: {fileID: 100100000}
  serializedVersion: 6
  m_Component:
  - component: {fileID: 492206}
  m_Layer: 0
  m_Name: VBOT_:LeftShoulder
  m_TagString: Untagged
  m_Icon: {fileID: 0}
  m_NavMeshLayer: 0
  m_StaticEditorFlags: 0
  m_IsActive: 1
--- !u!1 &119362
GameObject:
  m_ObjectHideFlags: 1
  m_CorrespondingSourceObject: {fileID: 0}
  m_PrefabInternal: {fileID: 100100000}
  serializedVersion: 6
  m_Component:
  - component: {fileID: 480584}
  m_Layer: 0
  m_Name: VBOT_:RightHandIndex4
  m_TagString: Untagged
  m_Icon: {fileID: 0}
  m_NavMeshLayer: 0
  m_StaticEditorFlags: 0
  m_IsActive: 1
--- !u!1 &123654
GameObject:
  m_ObjectHideFlags: 1
  m_CorrespondingSourceObject: {fileID: 0}
  m_PrefabInternal: {fileID: 100100000}
  serializedVersion: 6
  m_Component:
  - component: {fileID: 425326}
  m_Layer: 0
  m_Name: VBOT_:RightHandPinky3
  m_TagString: Untagged
  m_Icon: {fileID: 0}
  m_NavMeshLayer: 0
  m_StaticEditorFlags: 0
  m_IsActive: 1
--- !u!1 &123898
GameObject:
  m_ObjectHideFlags: 1
  m_CorrespondingSourceObject: {fileID: 0}
  m_PrefabInternal: {fileID: 100100000}
  serializedVersion: 6
  m_Component:
  - component: {fileID: 464202}
  m_Layer: 0
  m_Name: VBOT_:LeftHandIndex2
  m_TagString: Untagged
  m_Icon: {fileID: 0}
  m_NavMeshLayer: 0
  m_StaticEditorFlags: 0
  m_IsActive: 1
--- !u!1 &124146
GameObject:
  m_ObjectHideFlags: 1
  m_CorrespondingSourceObject: {fileID: 0}
  m_PrefabInternal: {fileID: 100100000}
  serializedVersion: 6
  m_Component:
  - component: {fileID: 461528}
  m_Layer: 0
  m_Name: VBOT_:LeftHandPinky4_end
  m_TagString: Untagged
  m_Icon: {fileID: 0}
  m_NavMeshLayer: 0
  m_StaticEditorFlags: 0
  m_IsActive: 1
--- !u!1 &124840
GameObject:
  m_ObjectHideFlags: 1
  m_CorrespondingSourceObject: {fileID: 0}
  m_PrefabInternal: {fileID: 100100000}
  serializedVersion: 6
  m_Component:
  - component: {fileID: 479900}
  m_Layer: 0
  m_Name: VBOT_:LeftHandThumb1
  m_TagString: Untagged
  m_Icon: {fileID: 0}
  m_NavMeshLayer: 0
  m_StaticEditorFlags: 0
  m_IsActive: 1
--- !u!1 &125384
GameObject:
  m_ObjectHideFlags: 1
  m_CorrespondingSourceObject: {fileID: 0}
  m_PrefabInternal: {fileID: 100100000}
  serializedVersion: 6
  m_Component:
  - component: {fileID: 439224}
  m_Layer: 0
  m_Name: VBOT_:LeftHandIndex1
  m_TagString: Untagged
  m_Icon: {fileID: 0}
  m_NavMeshLayer: 0
  m_StaticEditorFlags: 0
  m_IsActive: 1
--- !u!1 &126116
GameObject:
  m_ObjectHideFlags: 1
  m_CorrespondingSourceObject: {fileID: 0}
  m_PrefabInternal: {fileID: 100100000}
  serializedVersion: 6
  m_Component:
  - component: {fileID: 475844}
  m_Layer: 0
  m_Name: VBOT_:LeftHandIndex4_end
  m_TagString: Untagged
  m_Icon: {fileID: 0}
  m_NavMeshLayer: 0
  m_StaticEditorFlags: 0
  m_IsActive: 1
--- !u!1 &128840
GameObject:
  m_ObjectHideFlags: 1
  m_CorrespondingSourceObject: {fileID: 0}
  m_PrefabInternal: {fileID: 100100000}
  serializedVersion: 6
  m_Component:
  - component: {fileID: 424958}
  m_Layer: 0
  m_Name: VBOT_:RightHandRing2
  m_TagString: Untagged
  m_Icon: {fileID: 0}
  m_NavMeshLayer: 0
  m_StaticEditorFlags: 0
  m_IsActive: 1
--- !u!1 &129422
GameObject:
  m_ObjectHideFlags: 1
  m_CorrespondingSourceObject: {fileID: 0}
  m_PrefabInternal: {fileID: 100100000}
  serializedVersion: 6
  m_Component:
  - component: {fileID: 496508}
  - component: {fileID: 13743524}
  m_Layer: 0
  m_Name: VBOT_:VBOT_LOD1
  m_TagString: Untagged
  m_Icon: {fileID: 0}
  m_NavMeshLayer: 0
  m_StaticEditorFlags: 0
  m_IsActive: 1
--- !u!1 &131146
GameObject:
  m_ObjectHideFlags: 1
  m_CorrespondingSourceObject: {fileID: 0}
  m_PrefabInternal: {fileID: 100100000}
  serializedVersion: 6
  m_Component:
  - component: {fileID: 418356}
  m_Layer: 0
  m_Name: VBOT_:LeftForeArm
  m_TagString: Untagged
  m_Icon: {fileID: 0}
  m_NavMeshLayer: 0
  m_StaticEditorFlags: 0
  m_IsActive: 1
--- !u!1 &131456
GameObject:
  m_ObjectHideFlags: 1
  m_CorrespondingSourceObject: {fileID: 0}
  m_PrefabInternal: {fileID: 100100000}
  serializedVersion: 6
  m_Component:
  - component: {fileID: 497004}
  m_Layer: 0
  m_Name: VBOT_:LeftHand
  m_TagString: Untagged
  m_Icon: {fileID: 0}
  m_NavMeshLayer: 0
  m_StaticEditorFlags: 0
  m_IsActive: 1
--- !u!1 &131690
GameObject:
  m_ObjectHideFlags: 1
  m_CorrespondingSourceObject: {fileID: 0}
  m_PrefabInternal: {fileID: 100100000}
  serializedVersion: 6
  m_Component:
  - component: {fileID: 473742}
  m_Layer: 0
  m_Name: VBOT_:RightLeg
  m_TagString: Untagged
  m_Icon: {fileID: 0}
  m_NavMeshLayer: 0
  m_StaticEditorFlags: 0
  m_IsActive: 1
--- !u!1 &131756
GameObject:
  m_ObjectHideFlags: 1
  m_CorrespondingSourceObject: {fileID: 0}
  m_PrefabInternal: {fileID: 100100000}
  serializedVersion: 6
  m_Component:
  - component: {fileID: 465550}
  m_Layer: 0
  m_Name: VBOT_:RightHandRing4
  m_TagString: Untagged
  m_Icon: {fileID: 0}
  m_NavMeshLayer: 0
  m_StaticEditorFlags: 0
  m_IsActive: 1
--- !u!1 &132832
GameObject:
  m_ObjectHideFlags: 1
  m_CorrespondingSourceObject: {fileID: 0}
  m_PrefabInternal: {fileID: 100100000}
  serializedVersion: 6
  m_Component:
  - component: {fileID: 491940}
  m_Layer: 0
  m_Name: VBOT_:RightHandThumb3
  m_TagString: Untagged
  m_Icon: {fileID: 0}
  m_NavMeshLayer: 0
  m_StaticEditorFlags: 0
  m_IsActive: 1
--- !u!1 &136154
GameObject:
  m_ObjectHideFlags: 1
  m_CorrespondingSourceObject: {fileID: 0}
  m_PrefabInternal: {fileID: 100100000}
  serializedVersion: 6
  m_Component:
  - component: {fileID: 425378}
  m_Layer: 0
  m_Name: VBOT_:LeftHandThumb3
  m_TagString: Untagged
  m_Icon: {fileID: 0}
  m_NavMeshLayer: 0
  m_StaticEditorFlags: 0
  m_IsActive: 1
--- !u!1 &136284
GameObject:
  m_ObjectHideFlags: 0
  m_CorrespondingSourceObject: {fileID: 0}
  m_PrefabInternal: {fileID: 100100000}
  serializedVersion: 6
  m_Component:
  - component: {fileID: 499892}
  - component: {fileID: 9571484}
  m_Layer: 0
  m_Name: VBOT2.0_RedSkin
  m_TagString: Untagged
  m_Icon: {fileID: 0}
  m_NavMeshLayer: 0
  m_StaticEditorFlags: 0
  m_IsActive: 1
--- !u!1 &139178
GameObject:
  m_ObjectHideFlags: 1
  m_CorrespondingSourceObject: {fileID: 0}
  m_PrefabInternal: {fileID: 100100000}
  serializedVersion: 6
  m_Component:
  - component: {fileID: 444366}
  m_Layer: 0
  m_Name: VBOT_:RightHandMiddle3
  m_TagString: Untagged
  m_Icon: {fileID: 0}
  m_NavMeshLayer: 0
  m_StaticEditorFlags: 0
  m_IsActive: 1
--- !u!1 &140228
GameObject:
  m_ObjectHideFlags: 1
  m_CorrespondingSourceObject: {fileID: 0}
  m_PrefabInternal: {fileID: 100100000}
  serializedVersion: 6
  m_Component:
  - component: {fileID: 422706}
  m_Layer: 0
  m_Name: VBOT_:RightHandMiddle1
  m_TagString: Untagged
  m_Icon: {fileID: 0}
  m_NavMeshLayer: 0
  m_StaticEditorFlags: 0
  m_IsActive: 1
--- !u!1 &141518
GameObject:
  m_ObjectHideFlags: 1
  m_CorrespondingSourceObject: {fileID: 0}
  m_PrefabInternal: {fileID: 100100000}
  serializedVersion: 6
  m_Component:
  - component: {fileID: 442684}
  m_Layer: 0
  m_Name: VBOT_:RightHandPinky4_end
  m_TagString: Untagged
  m_Icon: {fileID: 0}
  m_NavMeshLayer: 0
  m_StaticEditorFlags: 0
  m_IsActive: 1
--- !u!1 &142704
GameObject:
  m_ObjectHideFlags: 1
  m_CorrespondingSourceObject: {fileID: 0}
  m_PrefabInternal: {fileID: 100100000}
  serializedVersion: 6
  m_Component:
  - component: {fileID: 417284}
  m_Layer: 0
  m_Name: VBOT_:RightFoot
  m_TagString: Untagged
  m_Icon: {fileID: 0}
  m_NavMeshLayer: 0
  m_StaticEditorFlags: 0
  m_IsActive: 1
--- !u!1 &143170
GameObject:
  m_ObjectHideFlags: 1
  m_CorrespondingSourceObject: {fileID: 0}
  m_PrefabInternal: {fileID: 100100000}
  serializedVersion: 6
  m_Component:
  - component: {fileID: 499524}
  m_Layer: 0
  m_Name: VBOT_:RightShoulder
  m_TagString: Untagged
  m_Icon: {fileID: 0}
  m_NavMeshLayer: 0
  m_StaticEditorFlags: 0
  m_IsActive: 1
--- !u!1 &143256
GameObject:
  m_ObjectHideFlags: 1
  m_CorrespondingSourceObject: {fileID: 0}
  m_PrefabInternal: {fileID: 100100000}
  serializedVersion: 6
  m_Component:
  - component: {fileID: 453342}
  m_Layer: 0
  m_Name: VBOT_:RightHandIndex1
  m_TagString: Untagged
  m_Icon: {fileID: 0}
  m_NavMeshLayer: 0
  m_StaticEditorFlags: 0
  m_IsActive: 1
--- !u!1 &145014
GameObject:
  m_ObjectHideFlags: 1
  m_CorrespondingSourceObject: {fileID: 0}
  m_PrefabInternal: {fileID: 100100000}
  serializedVersion: 6
  m_Component:
  - component: {fileID: 405536}
  m_Layer: 0
  m_Name: VBOT_:RightHandIndex3
  m_TagString: Untagged
  m_Icon: {fileID: 0}
  m_NavMeshLayer: 0
  m_StaticEditorFlags: 0
  m_IsActive: 1
--- !u!1 &145836
GameObject:
  m_ObjectHideFlags: 0
  m_CorrespondingSourceObject: {fileID: 0}
  m_PrefabInternal: {fileID: 100100000}
  serializedVersion: 6
  m_Component:
  - component: {fileID: 496924}
  m_Layer: 0
  m_Name: Armature
  m_TagString: Untagged
  m_Icon: {fileID: 0}
  m_NavMeshLayer: 0
  m_StaticEditorFlags: 0
  m_IsActive: 1
--- !u!1 &148802
GameObject:
  m_ObjectHideFlags: 1
  m_CorrespondingSourceObject: {fileID: 0}
  m_PrefabInternal: {fileID: 100100000}
  serializedVersion: 6
  m_Component:
  - component: {fileID: 489184}
  m_Layer: 0
  m_Name: VBOT_:RightHandMiddle4_end
  m_TagString: Untagged
  m_Icon: {fileID: 0}
  m_NavMeshLayer: 0
  m_StaticEditorFlags: 0
  m_IsActive: 1
--- !u!1 &150586
GameObject:
  m_ObjectHideFlags: 1
  m_CorrespondingSourceObject: {fileID: 0}
  m_PrefabInternal: {fileID: 100100000}
  serializedVersion: 6
  m_Component:
  - component: {fileID: 423632}
  m_Layer: 0
  m_Name: VBOT_:RightHandRing3
  m_TagString: Untagged
  m_Icon: {fileID: 0}
  m_NavMeshLayer: 0
  m_StaticEditorFlags: 0
  m_IsActive: 1
--- !u!1 &150798
GameObject:
  m_ObjectHideFlags: 1
  m_CorrespondingSourceObject: {fileID: 0}
  m_PrefabInternal: {fileID: 100100000}
  serializedVersion: 6
  m_Component:
  - component: {fileID: 480222}
  m_Layer: 0
  m_Name: VBOT_:LeftHandRing1
  m_TagString: Untagged
  m_Icon: {fileID: 0}
  m_NavMeshLayer: 0
  m_StaticEditorFlags: 0
  m_IsActive: 1
--- !u!1 &151088
GameObject:
  m_ObjectHideFlags: 1
  m_CorrespondingSourceObject: {fileID: 0}
  m_PrefabInternal: {fileID: 100100000}
  serializedVersion: 6
  m_Component:
  - component: {fileID: 477538}
  m_Layer: 0
  m_Name: VBOT_:Spine2
  m_TagString: Untagged
  m_Icon: {fileID: 0}
  m_NavMeshLayer: 0
  m_StaticEditorFlags: 0
  m_IsActive: 1
--- !u!1 &151362
GameObject:
  m_ObjectHideFlags: 1
  m_CorrespondingSourceObject: {fileID: 0}
  m_PrefabInternal: {fileID: 100100000}
  serializedVersion: 6
  m_Component:
  - component: {fileID: 432888}
  m_Layer: 0
  m_Name: VBOT_:RightHandRing4_end
  m_TagString: Untagged
  m_Icon: {fileID: 0}
  m_NavMeshLayer: 0
  m_StaticEditorFlags: 0
  m_IsActive: 1
--- !u!1 &151656
GameObject:
  m_ObjectHideFlags: 1
  m_CorrespondingSourceObject: {fileID: 0}
  m_PrefabInternal: {fileID: 100100000}
  serializedVersion: 6
  m_Component:
  - component: {fileID: 469834}
  m_Layer: 0
  m_Name: VBOT_:LeftHandPinky1
  m_TagString: Untagged
  m_Icon: {fileID: 0}
  m_NavMeshLayer: 0
  m_StaticEditorFlags: 0
  m_IsActive: 1
--- !u!1 &152448
GameObject:
  m_ObjectHideFlags: 1
  m_CorrespondingSourceObject: {fileID: 0}
  m_PrefabInternal: {fileID: 100100000}
  serializedVersion: 6
  m_Component:
  - component: {fileID: 429214}
  m_Layer: 0
  m_Name: VBOT_:LeftFoot
  m_TagString: Untagged
  m_Icon: {fileID: 0}
  m_NavMeshLayer: 0
  m_StaticEditorFlags: 0
  m_IsActive: 1
--- !u!1 &157336
GameObject:
  m_ObjectHideFlags: 1
  m_CorrespondingSourceObject: {fileID: 0}
  m_PrefabInternal: {fileID: 100100000}
  serializedVersion: 6
  m_Component:
  - component: {fileID: 401212}
  m_Layer: 0
  m_Name: VBOT_:HeadTop_End
  m_TagString: Untagged
  m_Icon: {fileID: 0}
  m_NavMeshLayer: 0
  m_StaticEditorFlags: 0
  m_IsActive: 1
--- !u!1 &159566
GameObject:
  m_ObjectHideFlags: 1
  m_CorrespondingSourceObject: {fileID: 0}
  m_PrefabInternal: {fileID: 100100000}
  serializedVersion: 6
  m_Component:
  - component: {fileID: 427560}
  m_Layer: 0
  m_Name: VBOT_:LeftHandIndex3
  m_TagString: Untagged
  m_Icon: {fileID: 0}
  m_NavMeshLayer: 0
  m_StaticEditorFlags: 0
  m_IsActive: 1
--- !u!1 &160306
GameObject:
  m_ObjectHideFlags: 1
  m_CorrespondingSourceObject: {fileID: 0}
  m_PrefabInternal: {fileID: 100100000}
  serializedVersion: 6
  m_Component:
  - component: {fileID: 426692}
  m_Layer: 0
  m_Name: VBOT_:LeftHandMiddle3
  m_TagString: Untagged
  m_Icon: {fileID: 0}
  m_NavMeshLayer: 0
  m_StaticEditorFlags: 0
  m_IsActive: 1
--- !u!1 &161400
GameObject:
  m_ObjectHideFlags: 1
  m_CorrespondingSourceObject: {fileID: 0}
  m_PrefabInternal: {fileID: 100100000}
  serializedVersion: 6
  m_Component:
  - component: {fileID: 468518}
  m_Layer: 0
  m_Name: VBOT_:RightHandPinky2
  m_TagString: Untagged
  m_Icon: {fileID: 0}
  m_NavMeshLayer: 0
  m_StaticEditorFlags: 0
  m_IsActive: 1
--- !u!1 &162210
GameObject:
  m_ObjectHideFlags: 1
  m_CorrespondingSourceObject: {fileID: 0}
  m_PrefabInternal: {fileID: 100100000}
  serializedVersion: 6
  m_Component:
  - component: {fileID: 490594}
  m_Layer: 0
  m_Name: VBOT_:RightHandThumb4
  m_TagString: Untagged
  m_Icon: {fileID: 0}
  m_NavMeshLayer: 0
  m_StaticEditorFlags: 0
  m_IsActive: 1
--- !u!1 &165922
GameObject:
  m_ObjectHideFlags: 1
  m_CorrespondingSourceObject: {fileID: 0}
  m_PrefabInternal: {fileID: 100100000}
  serializedVersion: 6
  m_Component:
  - component: {fileID: 442484}
  m_Layer: 0
  m_Name: VBOT_:Head
  m_TagString: Untagged
  m_Icon: {fileID: 0}
  m_NavMeshLayer: 0
  m_StaticEditorFlags: 0
  m_IsActive: 1
--- !u!1 &167142
GameObject:
  m_ObjectHideFlags: 1
  m_CorrespondingSourceObject: {fileID: 0}
  m_PrefabInternal: {fileID: 100100000}
  serializedVersion: 6
  m_Component:
  - component: {fileID: 494240}
  m_Layer: 0
  m_Name: VBOT_:LeftHandThumb4_end
  m_TagString: Untagged
  m_Icon: {fileID: 0}
  m_NavMeshLayer: 0
  m_StaticEditorFlags: 0
  m_IsActive: 1
--- !u!1 &167200
GameObject:
  m_ObjectHideFlags: 1
  m_CorrespondingSourceObject: {fileID: 0}
  m_PrefabInternal: {fileID: 100100000}
  serializedVersion: 6
  m_Component:
  - component: {fileID: 444174}
  m_Layer: 0
  m_Name: VBOT_:LeftHandRing4
  m_TagString: Untagged
  m_Icon: {fileID: 0}
  m_NavMeshLayer: 0
  m_StaticEditorFlags: 0
  m_IsActive: 1
--- !u!1 &168700
GameObject:
  m_ObjectHideFlags: 1
  m_CorrespondingSourceObject: {fileID: 0}
  m_PrefabInternal: {fileID: 100100000}
  serializedVersion: 6
  m_Component:
  - component: {fileID: 423074}
  m_Layer: 0
  m_Name: VBOT_:LeftHandRing4_end
  m_TagString: Untagged
  m_Icon: {fileID: 0}
  m_NavMeshLayer: 0
  m_StaticEditorFlags: 0
  m_IsActive: 1
--- !u!1 &170206
GameObject:
  m_ObjectHideFlags: 1
  m_CorrespondingSourceObject: {fileID: 0}
  m_PrefabInternal: {fileID: 100100000}
  serializedVersion: 6
  m_Component:
  - component: {fileID: 401306}
  m_Layer: 0
  m_Name: VBOT_:LeftHandRing2
  m_TagString: Untagged
  m_Icon: {fileID: 0}
  m_NavMeshLayer: 0
  m_StaticEditorFlags: 0
  m_IsActive: 1
--- !u!1 &171950
GameObject:
  m_ObjectHideFlags: 1
  m_CorrespondingSourceObject: {fileID: 0}
  m_PrefabInternal: {fileID: 100100000}
  serializedVersion: 6
  m_Component:
  - component: {fileID: 437878}
  m_Layer: 0
  m_Name: VBOT_:HeadTop_End_end
  m_TagString: Untagged
  m_Icon: {fileID: 0}
  m_NavMeshLayer: 0
  m_StaticEditorFlags: 0
  m_IsActive: 1
--- !u!1 &175364
GameObject:
  m_ObjectHideFlags: 1
  m_CorrespondingSourceObject: {fileID: 0}
  m_PrefabInternal: {fileID: 100100000}
  serializedVersion: 6
  m_Component:
  - component: {fileID: 463042}
  m_Layer: 0
  m_Name: VBOT_:RightArm
  m_TagString: Untagged
  m_Icon: {fileID: 0}
  m_NavMeshLayer: 0
  m_StaticEditorFlags: 0
  m_IsActive: 1
--- !u!1 &176394
GameObject:
  m_ObjectHideFlags: 1
  m_CorrespondingSourceObject: {fileID: 0}
  m_PrefabInternal: {fileID: 100100000}
  serializedVersion: 6
  m_Component:
  - component: {fileID: 490414}
  m_Layer: 0
  m_Name: VBOT_:LeftHandPinky2
  m_TagString: Untagged
  m_Icon: {fileID: 0}
  m_NavMeshLayer: 0
  m_StaticEditorFlags: 0
  m_IsActive: 1
--- !u!1 &180242
GameObject:
  m_ObjectHideFlags: 1
  m_CorrespondingSourceObject: {fileID: 0}
  m_PrefabInternal: {fileID: 100100000}
  serializedVersion: 6
  m_Component:
  - component: {fileID: 479010}
  m_Layer: 0
  m_Name: VBOT_:LeftToeBase
  m_TagString: Untagged
  m_Icon: {fileID: 0}
  m_NavMeshLayer: 0
  m_StaticEditorFlags: 0
  m_IsActive: 1
--- !u!1 &180332
GameObject:
  m_ObjectHideFlags: 1
  m_CorrespondingSourceObject: {fileID: 0}
  m_PrefabInternal: {fileID: 100100000}
  serializedVersion: 6
  m_Component:
  - component: {fileID: 483872}
  m_Layer: 0
  m_Name: VBOT_:LeftHandPinky3
  m_TagString: Untagged
  m_Icon: {fileID: 0}
  m_NavMeshLayer: 0
  m_StaticEditorFlags: 0
  m_IsActive: 1
--- !u!1 &182232
GameObject:
  m_ObjectHideFlags: 1
  m_CorrespondingSourceObject: {fileID: 0}
  m_PrefabInternal: {fileID: 100100000}
  serializedVersion: 6
  m_Component:
  - component: {fileID: 486170}
  m_Layer: 0
  m_Name: VBOT_:Spine
  m_TagString: Untagged
  m_Icon: {fileID: 0}
  m_NavMeshLayer: 0
  m_StaticEditorFlags: 0
  m_IsActive: 1
--- !u!1 &182552
GameObject:
  m_ObjectHideFlags: 1
  m_CorrespondingSourceObject: {fileID: 0}
  m_PrefabInternal: {fileID: 100100000}
  serializedVersion: 6
  m_Component:
  - component: {fileID: 438768}
  m_Layer: 0
  m_Name: VBOT_:RightHandThumb4_end
  m_TagString: Untagged
  m_Icon: {fileID: 0}
  m_NavMeshLayer: 0
  m_StaticEditorFlags: 0
  m_IsActive: 1
--- !u!1 &182818
GameObject:
  m_ObjectHideFlags: 1
  m_CorrespondingSourceObject: {fileID: 0}
  m_PrefabInternal: {fileID: 100100000}
  serializedVersion: 6
  m_Component:
  - component: {fileID: 445754}
  m_Layer: 0
  m_Name: VBOT_:LeftHandMiddle1
  m_TagString: Untagged
  m_Icon: {fileID: 0}
  m_NavMeshLayer: 0
  m_StaticEditorFlags: 0
  m_IsActive: 1
--- !u!1 &185074
GameObject:
  m_ObjectHideFlags: 1
  m_CorrespondingSourceObject: {fileID: 0}
  m_PrefabInternal: {fileID: 100100000}
  serializedVersion: 6
  m_Component:
  - component: {fileID: 427552}
  m_Layer: 0
  m_Name: VBOT_:RightHandMiddle2
  m_TagString: Untagged
  m_Icon: {fileID: 0}
  m_NavMeshLayer: 0
  m_StaticEditorFlags: 0
  m_IsActive: 1
--- !u!1 &185188
GameObject:
  m_ObjectHideFlags: 1
  m_CorrespondingSourceObject: {fileID: 0}
  m_PrefabInternal: {fileID: 100100000}
  serializedVersion: 6
  m_Component:
  - component: {fileID: 492414}
  m_Layer: 0
  m_Name: VBOT_:Hips
  m_TagString: Untagged
  m_Icon: {fileID: 0}
  m_NavMeshLayer: 0
  m_StaticEditorFlags: 0
  m_IsActive: 1
--- !u!1 &187042
GameObject:
  m_ObjectHideFlags: 1
  m_CorrespondingSourceObject: {fileID: 0}
  m_PrefabInternal: {fileID: 100100000}
  serializedVersion: 6
  m_Component:
  - component: {fileID: 446590}
  m_Layer: 0
  m_Name: VBOT_:RightToe_End
  m_TagString: Untagged
  m_Icon: {fileID: 0}
  m_NavMeshLayer: 0
  m_StaticEditorFlags: 0
  m_IsActive: 1
--- !u!1 &187130
GameObject:
  m_ObjectHideFlags: 1
  m_CorrespondingSourceObject: {fileID: 0}
  m_PrefabInternal: {fileID: 100100000}
  serializedVersion: 6
  m_Component:
  - component: {fileID: 466804}
  - component: {fileID: 13724184}
  m_Layer: 0
  m_Name: VBOT_:VBOT_LOD0
  m_TagString: Untagged
  m_Icon: {fileID: 0}
  m_NavMeshLayer: 0
  m_StaticEditorFlags: 0
  m_IsActive: 1
--- !u!1 &189922
GameObject:
  m_ObjectHideFlags: 1
  m_CorrespondingSourceObject: {fileID: 0}
  m_PrefabInternal: {fileID: 100100000}
  serializedVersion: 6
  m_Component:
  - component: {fileID: 451734}
  m_Layer: 0
  m_Name: VBOT_:LeftHandMiddle2
  m_TagString: Untagged
  m_Icon: {fileID: 0}
  m_NavMeshLayer: 0
  m_StaticEditorFlags: 0
  m_IsActive: 1
--- !u!1 &192690
GameObject:
  m_ObjectHideFlags: 0
  m_CorrespondingSourceObject: {fileID: 0}
  m_PrefabInternal: {fileID: 100100000}
  serializedVersion: 6
  m_Component:
  - component: {fileID: 469588}
  - component: {fileID: 20582802}
  m_Layer: 0
  m_Name: Mesh_LOD
  m_TagString: Untagged
  m_Icon: {fileID: 0}
  m_NavMeshLayer: 0
  m_StaticEditorFlags: 0
  m_IsActive: 1
--- !u!1 &192856
GameObject:
  m_ObjectHideFlags: 1
  m_CorrespondingSourceObject: {fileID: 0}
  m_PrefabInternal: {fileID: 100100000}
  serializedVersion: 6
  m_Component:
  - component: {fileID: 455420}
  m_Layer: 0
  m_Name: VBOT_:LeftHandIndex4
  m_TagString: Untagged
  m_Icon: {fileID: 0}
  m_NavMeshLayer: 0
  m_StaticEditorFlags: 0
  m_IsActive: 1
--- !u!1 &193462
GameObject:
  m_ObjectHideFlags: 1
  m_CorrespondingSourceObject: {fileID: 0}
  m_PrefabInternal: {fileID: 100100000}
  serializedVersion: 6
  m_Component:
  - component: {fileID: 442780}
  m_Layer: 0
  m_Name: VBOT_:RightForeArm
  m_TagString: Untagged
  m_Icon: {fileID: 0}
  m_NavMeshLayer: 0
  m_StaticEditorFlags: 0
  m_IsActive: 1
--- !u!1 &195118
GameObject:
  m_ObjectHideFlags: 1
  m_CorrespondingSourceObject: {fileID: 0}
  m_PrefabInternal: {fileID: 100100000}
  serializedVersion: 6
  m_Component:
  - component: {fileID: 434702}
  m_Layer: 0
  m_Name: VBOT_:RightHandIndex2
  m_TagString: Untagged
  m_Icon: {fileID: 0}
  m_NavMeshLayer: 0
  m_StaticEditorFlags: 0
  m_IsActive: 1
--- !u!1 &196986
GameObject:
  m_ObjectHideFlags: 1
  m_CorrespondingSourceObject: {fileID: 0}
  m_PrefabInternal: {fileID: 100100000}
  serializedVersion: 6
  m_Component:
  - component: {fileID: 446314}
  - component: {fileID: 13793642}
  m_Layer: 0
  m_Name: VBOT_:VBOT_LOD2
  m_TagString: Untagged
  m_Icon: {fileID: 0}
  m_NavMeshLayer: 0
  m_StaticEditorFlags: 0
  m_IsActive: 1
--- !u!1 &197582
GameObject:
  m_ObjectHideFlags: 1
  m_CorrespondingSourceObject: {fileID: 0}
  m_PrefabInternal: {fileID: 100100000}
  serializedVersion: 6
  m_Component:
  - component: {fileID: 489888}
  m_Layer: 0
  m_Name: VBOT_:RightHandIndex4_end
  m_TagString: Untagged
  m_Icon: {fileID: 0}
  m_NavMeshLayer: 0
  m_StaticEditorFlags: 0
  m_IsActive: 1
--- !u!1 &197736
GameObject:
  m_ObjectHideFlags: 1
  m_CorrespondingSourceObject: {fileID: 0}
  m_PrefabInternal: {fileID: 100100000}
  serializedVersion: 6
  m_Component:
  - component: {fileID: 494234}
  m_Layer: 0
  m_Name: VBOT_:LeftUpLeg
  m_TagString: Untagged
  m_Icon: {fileID: 0}
  m_NavMeshLayer: 0
  m_StaticEditorFlags: 0
  m_IsActive: 1
--- !u!4 &401212
Transform:
  m_ObjectHideFlags: 1
  m_CorrespondingSourceObject: {fileID: 0}
  m_PrefabInternal: {fileID: 100100000}
  m_GameObject: {fileID: 157336}
  m_LocalRotation: {x: 1.6653348e-16, y: 4.387005e-19, z: 9.1814114e-20, w: 1}
  m_LocalPosition: {x: -1.5957928e-11, y: 20.432783, z: 8.657652}
  m_LocalScale: {x: 1, y: 1, z: 1}
  m_Children:
  - {fileID: 437878}
  m_Father: {fileID: 442484}
  m_RootOrder: 0
  m_LocalEulerAnglesHint: {x: 0, y: 0, z: 0}
--- !u!4 &401306
Transform:
  m_ObjectHideFlags: 1
  m_CorrespondingSourceObject: {fileID: 0}
  m_PrefabInternal: {fileID: 100100000}
  m_GameObject: {fileID: 170206}
  m_LocalRotation: {x: -0.0000003780744, y: -0.0000008826013, z: -0.00012194871, w: 1}
  m_LocalPosition: {x: 0.00056505756, y: 3.2887826, z: -0.00001606815}
  m_LocalScale: {x: 1, y: 0.9999999, z: 1.0000002}
  m_Children:
  - {fileID: 433620}
  m_Father: {fileID: 480222}
  m_RootOrder: 0
  m_LocalEulerAnglesHint: {x: 0, y: -0.0001, z: -0.0139999995}
--- !u!4 &403640
Transform:
  m_ObjectHideFlags: 1
  m_CorrespondingSourceObject: {fileID: 0}
  m_PrefabInternal: {fileID: 100100000}
  m_GameObject: {fileID: 103790}
  m_LocalRotation: {x: 0.0000000046566133, y: -5.333572e-14, z: 6.8136756e-13, w: 1}
  m_LocalPosition: {x: 1.02090515e-11, y: 11.321213, z: -0.0000001788139}
  m_LocalScale: {x: 1, y: 0.99999994, z: 0.99999994}
  m_Children:
  - {fileID: 477538}
  m_Father: {fileID: 486170}
  m_RootOrder: 0
  m_LocalEulerAnglesHint: {x: 0, y: 0, z: 0}
--- !u!4 &403690
Transform:
  m_ObjectHideFlags: 1
  m_CorrespondingSourceObject: {fileID: 0}
  m_PrefabInternal: {fileID: 100100000}
  m_GameObject: {fileID: 101714}
  m_LocalRotation: {x: -0.0067263856, y: 0.007935547, z: 0.052596204, w: 0.9985617}
  m_LocalPosition: {x: 3.229885, y: 8.635466, z: 0.26456282}
  m_LocalScale: {x: 0.999999, y: 0.99999946, z: 1.0000002}
  m_Children:
  - {fileID: 468518}
  m_Father: {fileID: 420748}
  m_RootOrder: 2
  m_LocalEulerAnglesHint: {x: -0.81759995, y: 0.86759996, z: 6.0239997}
--- !u!4 &405536
Transform:
  m_ObjectHideFlags: 1
  m_CorrespondingSourceObject: {fileID: 0}
  m_PrefabInternal: {fileID: 100100000}
  m_GameObject: {fileID: 145014}
  m_LocalRotation: {x: -0.00000062817367, y: 0.000036295332, z: 0.002351098, w: 0.99999726}
  m_LocalPosition: {x: -0.006155073, y: 3.336971, z: 0.0000052740793}
  m_LocalScale: {x: 0.99999994, y: 1.0000004, z: 1}
  m_Children:
  - {fileID: 480584}
  m_Father: {fileID: 434702}
  m_RootOrder: 0
  m_LocalEulerAnglesHint: {x: -0.0001, y: 0.0042, z: 0.2694}
--- !u!4 &409634
Transform:
  m_ObjectHideFlags: 1
  m_CorrespondingSourceObject: {fileID: 0}
  m_PrefabInternal: {fileID: 100100000}
  m_GameObject: {fileID: 115358}
  m_LocalRotation: {x: -0.00000003355308, y: -7.557048e-10, z: -0.000000006678988,
    w: 1}
  m_LocalPosition: {x: -0.010218023, y: 3.6506317, z: -0.000012870877}
  m_LocalScale: {x: 1, y: 1, z: 1}
  m_Children:
  - {fileID: 489184}
  m_Father: {fileID: 444366}
  m_RootOrder: 0
  m_LocalEulerAnglesHint: {x: 0, y: 0, z: 0}
--- !u!4 &417284
Transform:
  m_ObjectHideFlags: 1
  m_CorrespondingSourceObject: {fileID: 0}
  m_PrefabInternal: {fileID: 100100000}
  m_GameObject: {fileID: 142704}
  m_LocalRotation: {x: 0.48199156, y: 0.0065317303, z: 0.004921196, w: 0.8761377}
  m_LocalPosition: {x: 0.0000007188318, y: 42.515278, z: -0.0000045327465}
  m_LocalScale: {x: 1.0000006, y: 1.0000002, z: 0.9999993}
  m_Children:
  - {fileID: 486282}
  m_Father: {fileID: 473742}
  m_RootOrder: 0
  m_LocalEulerAnglesHint: {x: 57.6203, y: 1.7322999, z: 1.5964999}
--- !u!4 &418356
Transform:
  m_ObjectHideFlags: 1
  m_CorrespondingSourceObject: {fileID: 0}
  m_PrefabInternal: {fileID: 100100000}
  m_GameObject: {fileID: 131146}
  m_LocalRotation: {x: 0.0000014798451, y: 0.00010023918, z: 0.00000030412875, w: 1}
  m_LocalPosition: {x: -0.00000024976904, y: 28.782936, z: 0.000004796884}
  m_LocalScale: {x: 1.0000001, y: 0.99999964, z: 0.9999999}
  m_Children:
  - {fileID: 497004}
  m_Father: {fileID: 458010}
  m_RootOrder: 0
  m_LocalEulerAnglesHint: {x: 0.0002, y: 0.0115, z: 0}
--- !u!4 &420434
Transform:
  m_ObjectHideFlags: 1
  m_CorrespondingSourceObject: {fileID: 0}
  m_PrefabInternal: {fileID: 100100000}
  m_GameObject: {fileID: 100074}
  m_LocalRotation: {x: 0.20649847, y: 0.08570003, z: 0.37565327, w: 0.89938784}
  m_LocalPosition: {x: -2.1773484, y: 2.860778, z: 1.5000123}
  m_LocalScale: {x: 1.0000001, y: 0.9999995, z: 0.9999996}
  m_Children:
  - {fileID: 474734}
  m_Father: {fileID: 420748}
  m_RootOrder: 4
  m_LocalEulerAnglesHint: {x: 17.882, y: 18.9655, z: 48.349}
--- !u!4 &420748
Transform:
  m_ObjectHideFlags: 1
  m_CorrespondingSourceObject: {fileID: 0}
  m_PrefabInternal: {fileID: 100100000}
  m_GameObject: {fileID: 104216}
  m_LocalRotation: {x: 0.0051883897, y: 0.021200966, z: -0.052770805, w: 0.9983681}
  m_LocalPosition: {x: 0.00000020841252, y: 29.88406, z: 0.000014346092}
  m_LocalScale: {x: 1.0000007, y: 1, z: 1}
  m_Children:
  - {fileID: 453342}
  - {fileID: 422706}
  - {fileID: 403690}
  - {fileID: 449926}
  - {fileID: 420434}
  m_Father: {fileID: 442780}
  m_RootOrder: 0
  m_LocalEulerAnglesHint: {x: 0.72179997, y: 2.395, z: -6.0362997}
--- !u!4 &422706
Transform:
  m_ObjectHideFlags: 1
  m_CorrespondingSourceObject: {fileID: 0}
  m_PrefabInternal: {fileID: 100100000}
  m_GameObject: {fileID: 140228}
  m_LocalRotation: {x: -0.006425467, y: 0.002276494, z: 0.053364556, w: 0.99855185}
  m_LocalPosition: {x: -1.0459455, y: 9.890944, z: -0.12528582}
  m_LocalScale: {x: 0.99999934, y: 0.9999995, z: 0.9999997}
  m_Children:
  - {fileID: 427552}
  m_Father: {fileID: 420748}
  m_RootOrder: 1
  m_LocalEulerAnglesHint: {x: -0.7492, y: 0.22119999, z: 6.1166997}
--- !u!4 &423074
Transform:
  m_ObjectHideFlags: 1
  m_CorrespondingSourceObject: {fileID: 0}
  m_PrefabInternal: {fileID: 100100000}
  m_GameObject: {fileID: 168700}
  m_LocalRotation: {x: 0, y: 0, z: 0, w: 1}
  m_LocalPosition: {x: -0, y: 2.966476, z: 0}
  m_LocalScale: {x: 1, y: 1, z: 1}
  m_Children: []
  m_Father: {fileID: 444174}
  m_RootOrder: 0
  m_LocalEulerAnglesHint: {x: 0, y: 0, z: 0}
--- !u!4 &423632
Transform:
  m_ObjectHideFlags: 1
  m_CorrespondingSourceObject: {fileID: 0}
  m_PrefabInternal: {fileID: 100100000}
  m_GameObject: {fileID: 150586}
  m_LocalRotation: {x: 0.0000003853574, y: -0.0000024102292, z: 0.000116190175, w: 1}
  m_LocalPosition: {x: -0.00084478216, y: 3.4413192, z: 0.000004537403}
  m_LocalScale: {x: 0.99999994, y: 1, z: 0.9999997}
  m_Children:
  - {fileID: 465550}
  m_Father: {fileID: 424958}
  m_RootOrder: 0
  m_LocalEulerAnglesHint: {x: 0, y: -0.00029999999, z: 0.0133}
--- !u!4 &424958
Transform:
  m_ObjectHideFlags: 1
  m_CorrespondingSourceObject: {fileID: 0}
  m_PrefabInternal: {fileID: 100100000}
  m_GameObject: {fileID: 128840}
  m_LocalRotation: {x: -0.0000007118655, y: -0.00000040345734, z: -0.00024250762,
    w: 1}
  m_LocalPosition: {x: 0.000864461, y: 3.5615304, z: -0.000015171244}
  m_LocalScale: {x: 1, y: 0.99999994, z: 1}
  m_Children:
  - {fileID: 423632}
  m_Father: {fileID: 449926}
  m_RootOrder: 0
  m_LocalEulerAnglesHint: {x: -0.0001, y: 0, z: -0.0278}
--- !u!4 &425326
Transform:
  m_ObjectHideFlags: 1
  m_CorrespondingSourceObject: {fileID: 0}
  m_PrefabInternal: {fileID: 100100000}
  m_GameObject: {fileID: 123654}
  m_LocalRotation: {x: 0.0000013946006, y: 0.00000016396328, z: -0.000073763025, w: 1}
  m_LocalPosition: {x: 0.00017850239, y: 2.8926263, z: -0.0000014435499}
  m_LocalScale: {x: 1.0000001, y: 1.0000004, z: 1.0000002}
  m_Children:
  - {fileID: 434626}
  m_Father: {fileID: 468518}
  m_RootOrder: 0
  m_LocalEulerAnglesHint: {x: 0.0002, y: 0, z: -0.0084}
--- !u!4 &425378
Transform:
  m_ObjectHideFlags: 1
  m_CorrespondingSourceObject: {fileID: 0}
  m_PrefabInternal: {fileID: 100100000}
  m_GameObject: {fileID: 136154}
  m_LocalRotation: {x: -0.00010924415, y: -0.0015527824, z: -0.035468064, w: 0.9993696}
  m_LocalPosition: {x: 0.37320492, y: 3.4936538, z: 0.00000017881392}
  m_LocalScale: {x: 1, y: 0.9999999, z: 0.99999946}
  m_Children:
  - {fileID: 499776}
  m_Father: {fileID: 468238}
  m_RootOrder: 0
  m_LocalEulerAnglesHint: {x: -0.0188, y: -0.1774, z: -4.0652}
--- !u!4 &426692
Transform:
  m_ObjectHideFlags: 1
  m_CorrespondingSourceObject: {fileID: 0}
  m_PrefabInternal: {fileID: 100100000}
  m_GameObject: {fileID: 160306}
  m_LocalRotation: {x: 0.0000016969184, y: -0.000004723498, z: 0.0005666729, w: 0.9999999}
  m_LocalPosition: {x: -0.0018412619, y: 3.8137584, z: 0.0000071693207}
  m_LocalScale: {x: 0.99999994, y: 1.0000006, z: 0.99999976}
  m_Children:
  - {fileID: 492988}
  m_Father: {fileID: 451734}
  m_RootOrder: 0
  m_LocalEulerAnglesHint: {x: 0.0002, y: -0.00049999997, z: 0.064899996}
--- !u!4 &427552
Transform:
  m_ObjectHideFlags: 1
  m_CorrespondingSourceObject: {fileID: 0}
  m_PrefabInternal: {fileID: 100100000}
  m_GameObject: {fileID: 185074}
  m_LocalRotation: {x: -0.0000010921335, y: -0.000014545862, z: -0.00018764834, w: 1}
  m_LocalPosition: {x: 0.006039291, y: 4.100815, z: 0.000013880431}
  m_LocalScale: {x: 1, y: 0.9999995, z: 0.9999998}
  m_Children:
  - {fileID: 444366}
  m_Father: {fileID: 422706}
  m_RootOrder: 0
  m_LocalEulerAnglesHint: {x: -0.0001, y: -0.0016999999, z: -0.021499999}
--- !u!4 &427560
Transform:
  m_ObjectHideFlags: 1
  m_CorrespondingSourceObject: {fileID: 0}
  m_PrefabInternal: {fileID: 100100000}
  m_GameObject: {fileID: 159566}
  m_LocalRotation: {x: 0.00000029828897, y: -0.0000003028567, z: 0.00006260211, w: 1}
  m_LocalPosition: {x: 0.0010102539, y: 3.357671, z: 0.0000006369955}
  m_LocalScale: {x: 1, y: 0.99999976, z: 1}
  m_Children:
  - {fileID: 455420}
  m_Father: {fileID: 464202}
  m_RootOrder: 0
  m_LocalEulerAnglesHint: {x: 0, y: 0, z: 0.0072}
--- !u!4 &429214
Transform:
  m_ObjectHideFlags: 1
  m_CorrespondingSourceObject: {fileID: 0}
  m_PrefabInternal: {fileID: 100100000}
  m_GameObject: {fileID: 152448}
  m_LocalRotation: {x: 0.48034218, y: -0.0065366975, z: -0.0049221627, w: 0.877043}
  m_LocalPosition: {x: 0.00000043968427, y: 42.52575, z: 0.0000009657814}
  m_LocalScale: {x: 1.0000001, y: 1, z: 1.0000004}
  m_Children:
  - {fileID: 479010}
  m_Father: {fileID: 449324}
  m_RootOrder: 0
  m_LocalEulerAnglesHint: {x: 57.4048, y: -1.7227, z: -1.5863999}
--- !u!4 &432888
Transform:
  m_ObjectHideFlags: 1
  m_CorrespondingSourceObject: {fileID: 0}
  m_PrefabInternal: {fileID: 100100000}
  m_GameObject: {fileID: 151362}
  m_LocalRotation: {x: 0, y: 0, z: 0, w: 1}
  m_LocalPosition: {x: -0, y: 3.1309974, z: 0}
  m_LocalScale: {x: 1, y: 1, z: 1}
  m_Children: []
  m_Father: {fileID: 465550}
  m_RootOrder: 0
  m_LocalEulerAnglesHint: {x: 0, y: 0, z: 0}
--- !u!4 &433620
Transform:
  m_ObjectHideFlags: 1
  m_CorrespondingSourceObject: {fileID: 0}
  m_PrefabInternal: {fileID: 100100000}
  m_GameObject: {fileID: 114094}
  m_LocalRotation: {x: 0.0000019568083, y: -0.000005436704, z: -0.00003674567, w: 1}
  m_LocalPosition: {x: -0.00015043419, y: 3.256652, z: 0.000012098185}
  m_LocalScale: {x: 1.0000001, y: 0.99999994, z: 0.9999996}
  m_Children:
  - {fileID: 444174}
  m_Father: {fileID: 401306}
  m_RootOrder: 0
  m_LocalEulerAnglesHint: {x: 0.0002, y: -0.00059999997, z: -0.0042}
--- !u!4 &434626
Transform:
  m_ObjectHideFlags: 1
  m_CorrespondingSourceObject: {fileID: 0}
  m_PrefabInternal: {fileID: 100100000}
  m_GameObject: {fileID: 100990}
  m_LocalRotation: {x: 0.00000000583043, y: -0.0000000037147578, z: 0.000000024821702,
    w: 1}
  m_LocalPosition: {x: -0.00018684844, y: 2.5621476, z: 0.0000047087665}
  m_LocalScale: {x: 1, y: 1, z: 0.99999994}
  m_Children:
  - {fileID: 442684}
  m_Father: {fileID: 425326}
  m_RootOrder: 0
  m_LocalEulerAnglesHint: {x: 0, y: 0, z: 0}
--- !u!4 &434702
Transform:
  m_ObjectHideFlags: 1
  m_CorrespondingSourceObject: {fileID: 0}
  m_PrefabInternal: {fileID: 100100000}
  m_GameObject: {fileID: 195118}
  m_LocalRotation: {x: -0.00000036630905, y: 0.00003379532, z: -0.00061720755, w: 0.9999998}
  m_LocalPosition: {x: -0.002191752, y: 3.5275145, z: -0.0000073621045}
  m_LocalScale: {x: 0.99999994, y: 0.99999964, z: 1.0000005}
  m_Children:
  - {fileID: 405536}
  m_Father: {fileID: 453342}
  m_RootOrder: 0
  m_LocalEulerAnglesHint: {x: 0, y: 0.0039, z: -0.0707}
--- !u!4 &435236
Transform:
  m_ObjectHideFlags: 1
  m_CorrespondingSourceObject: {fileID: 0}
  m_PrefabInternal: {fileID: 100100000}
  m_GameObject: {fileID: 102512}
  m_LocalRotation: {x: 0.00785081, y: 4.084771e-14, z: 2.2770148e-13, w: 0.9999692}
  m_LocalPosition: {x: -1.8170866e-11, y: 14.5558195, z: -0.0000001788139}
  m_LocalScale: {x: 1, y: 0.9999996, z: 0.99999964}
  m_Children:
  - {fileID: 442484}
  m_Father: {fileID: 477538}
  m_RootOrder: 1
  m_LocalEulerAnglesHint: {x: 0.89959997, y: 0, z: 0}
--- !u!4 &437878
Transform:
  m_ObjectHideFlags: 1
  m_CorrespondingSourceObject: {fileID: 0}
  m_PrefabInternal: {fileID: 100100000}
  m_GameObject: {fileID: 171950}
  m_LocalRotation: {x: 0, y: 0, z: 0, w: 1}
  m_LocalPosition: {x: -0, y: 22.191282, z: 0}
  m_LocalScale: {x: 1, y: 1, z: 1}
  m_Children: []
  m_Father: {fileID: 401212}
  m_RootOrder: 0
  m_LocalEulerAnglesHint: {x: 0, y: 0, z: 0}
--- !u!4 &438768
Transform:
  m_ObjectHideFlags: 1
  m_CorrespondingSourceObject: {fileID: 0}
  m_PrefabInternal: {fileID: 100100000}
  m_GameObject: {fileID: 182552}
  m_LocalRotation: {x: 0, y: 0, z: 0, w: 1}
  m_LocalPosition: {x: -0, y: 3.4625075, z: 0}
  m_LocalScale: {x: 1, y: 1, z: 1}
  m_Children: []
  m_Father: {fileID: 490594}
  m_RootOrder: 0
  m_LocalEulerAnglesHint: {x: 0, y: 0, z: 0}
--- !u!4 &438974
Transform:
  m_ObjectHideFlags: 1
  m_CorrespondingSourceObject: {fileID: 0}
  m_PrefabInternal: {fileID: 100100000}
  m_GameObject: {fileID: 106594}
  m_LocalRotation: {x: 0, y: 0, z: 0, w: 1}
  m_LocalPosition: {x: -0, y: 3.6274853, z: 0}
  m_LocalScale: {x: 1, y: 1, z: 1}
  m_Children: []
  m_Father: {fileID: 492988}
  m_RootOrder: 0
  m_LocalEulerAnglesHint: {x: 0, y: 0, z: 0}
--- !u!4 &439224
Transform:
  m_ObjectHideFlags: 1
  m_CorrespondingSourceObject: {fileID: 0}
  m_PrefabInternal: {fileID: 100100000}
  m_GameObject: {fileID: 125384}
  m_LocalRotation: {x: -0.00057633274, y: -0.00008826893, z: -0.057947285, w: 0.9983195}
  m_LocalPosition: {x: 3.306355, y: 10.214577, z: 0.16185996}
  m_LocalScale: {x: 0.9999994, y: 1.0000005, z: 0.99999946}
  m_Children:
  - {fileID: 464202}
  m_Father: {fileID: 497004}
  m_RootOrder: 0
  m_LocalEulerAnglesHint: {x: -0.0665, y: -0.0063, z: -6.644}
--- !u!4 &442484
Transform:
  m_ObjectHideFlags: 1
  m_CorrespondingSourceObject: {fileID: 0}
  m_PrefabInternal: {fileID: 100100000}
  m_GameObject: {fileID: 165922}
  m_LocalRotation: {x: 1.6653348e-16, y: 4.387005e-19, z: 9.1814114e-20, w: 1}
  m_LocalPosition: {x: -7.3683655e-12, y: 5.6972804, z: 2.4140098}
  m_LocalScale: {x: 1, y: 1, z: 1}
  m_Children:
  - {fileID: 401212}
  m_Father: {fileID: 435236}
  m_RootOrder: 0
  m_LocalEulerAnglesHint: {x: 0, y: 0, z: 0}
--- !u!4 &442684
Transform:
  m_ObjectHideFlags: 1
  m_CorrespondingSourceObject: {fileID: 0}
  m_PrefabInternal: {fileID: 100100000}
  m_GameObject: {fileID: 141518}
  m_LocalRotation: {x: 0, y: 0, z: 0, w: 1}
  m_LocalPosition: {x: -0, y: 2.562149, z: 0}
  m_LocalScale: {x: 1, y: 1, z: 1}
  m_Children: []
  m_Father: {fileID: 434626}
  m_RootOrder: 0
  m_LocalEulerAnglesHint: {x: 0, y: 0, z: 0}
--- !u!4 &442780
Transform:
  m_ObjectHideFlags: 1
  m_CorrespondingSourceObject: {fileID: 0}
  m_PrefabInternal: {fileID: 100100000}
  m_GameObject: {fileID: 193462}
  m_LocalRotation: {x: 0.00000016583917, y: -0.0000813696, z: -0.0000003511705, w: 1}
  m_LocalPosition: {x: 0.0000005218607, y: 28.777094, z: -0.00000024959442}
  m_LocalScale: {x: 0.9999995, y: 1.0000006, z: 1.0000001}
  m_Children:
  - {fileID: 420748}
  m_Father: {fileID: 463042}
  m_RootOrder: 0
  m_LocalEulerAnglesHint: {x: 0, y: -0.0093, z: 0}
--- !u!4 &444174
Transform:
  m_ObjectHideFlags: 1
  m_CorrespondingSourceObject: {fileID: 0}
  m_PrefabInternal: {fileID: 100100000}
  m_GameObject: {fileID: 167200}
  m_LocalRotation: {x: 0.00000003154195, y: 0.0000000055908194, z: 0.0000000044438986,
    w: 1}
  m_LocalPosition: {x: -0.00041358636, y: 2.9665046, z: 0.000024707986}
  m_LocalScale: {x: 1, y: 1, z: 1}
  m_Children:
  - {fileID: 423074}
  m_Father: {fileID: 433620}
  m_RootOrder: 0
  m_LocalEulerAnglesHint: {x: 0, y: 0, z: 0}
--- !u!4 &444366
Transform:
  m_ObjectHideFlags: 1
  m_CorrespondingSourceObject: {fileID: 0}
  m_PrefabInternal: {fileID: 100100000}
  m_GameObject: {fileID: 139178}
  m_LocalRotation: {x: -0.0000004923334, y: 0.000086348875, z: -0.001940938, w: 0.99999815}
  m_LocalPosition: {x: 0.0041791643, y: 3.861288, z: -0.000013139098}
  m_LocalScale: {x: 1, y: 1.0000007, z: 0.99999994}
  m_Children:
  - {fileID: 409634}
  m_Father: {fileID: 427552}
  m_RootOrder: 0
  m_LocalEulerAnglesHint: {x: 0, y: 0.0099, z: -0.2224}
--- !u!4 &445754
Transform:
  m_ObjectHideFlags: 1
  m_CorrespondingSourceObject: {fileID: 0}
  m_PrefabInternal: {fileID: 100100000}
  m_GameObject: {fileID: 182818}
  m_LocalRotation: {x: -0.0007780783, y: -0.0035744617, z: -0.057712052, w: 0.9983266}
  m_LocalPosition: {x: 1.1613122, y: 10.023253, z: -0.011463714}
  m_LocalScale: {x: 1, y: 1.0000005, z: 0.9999997}
  m_Children:
  - {fileID: 451734}
  m_Father: {fileID: 497004}
  m_RootOrder: 1
  m_LocalEulerAnglesHint: {x: -0.1127, y: -0.40379998, z: -6.6166997}
--- !u!4 &446314
Transform:
  m_ObjectHideFlags: 1
  m_CorrespondingSourceObject: {fileID: 0}
  m_PrefabInternal: {fileID: 100100000}
  m_GameObject: {fileID: 196986}
  m_LocalRotation: {x: 0.00000008122751, y: -0.0000000018335409, z: 1.1508664e-24,
    w: 1}
  m_LocalPosition: {x: 0, y: 0, z: 0}
  m_LocalScale: {x: 0.01, y: 0.009999999, z: 0.01}
  m_Children: []
  m_Father: {fileID: 469588}
  m_RootOrder: 2
  m_LocalEulerAnglesHint: {x: 0, y: 0, z: 0}
--- !u!4 &446590
Transform:
  m_ObjectHideFlags: 1
  m_CorrespondingSourceObject: {fileID: 0}
  m_PrefabInternal: {fileID: 100100000}
  m_GameObject: {fileID: 187042}
  m_LocalRotation: {x: -0.000000027357602, y: 0.000034474506, z: -0.0000000888831,
    w: 1}
  m_LocalPosition: {x: 0.000000996515, y: 6.241361, z: -0.00000017881392}
  m_LocalScale: {x: 1, y: 1, z: 0.99999994}
  m_Children:
  - {fileID: 485998}
  m_Father: {fileID: 486282}
  m_RootOrder: 0
  m_LocalEulerAnglesHint: {x: 0, y: 0.0039999997, z: 0}
--- !u!4 &449324
Transform:
  m_ObjectHideFlags: 1
  m_CorrespondingSourceObject: {fileID: 0}
  m_PrefabInternal: {fileID: 100100000}
  m_GameObject: {fileID: 103238}
  m_LocalRotation: {x: -0.045484938, y: -0.0005017409, z: 0.01265651, w: 0.99888474}
  m_LocalPosition: {x: 0.0000013736861, y: 46.4423, z: -0.00000012147937}
  m_LocalScale: {x: 0.9999995, y: 0.9999993, z: 0.99999976}
  m_Children:
  - {fileID: 429214}
  m_Father: {fileID: 494234}
  m_RootOrder: 0
  m_LocalEulerAnglesHint: {x: -5.2128, y: -0.1239, z: 1.4575}
--- !u!4 &449926
Transform:
  m_ObjectHideFlags: 1
  m_CorrespondingSourceObject: {fileID: 0}
  m_PrefabInternal: {fileID: 100100000}
  m_GameObject: {fileID: 107150}
  m_LocalRotation: {x: -0.0064634937, y: 0.0029677008, z: 0.052755825, w: 0.9985821}
  m_LocalPosition: {x: 1.0770532, y: 9.615877, z: -0.04499008}
  m_LocalScale: {x: 0.9999992, y: 0.99999964, z: 1}
  m_Children:
  - {fileID: 424958}
  m_Father: {fileID: 420748}
  m_RootOrder: 3
  m_LocalEulerAnglesHint: {x: -0.7576, y: 0.3005, z: 6.0463}
--- !u!4 &451734
Transform:
  m_ObjectHideFlags: 1
  m_CorrespondingSourceObject: {fileID: 0}
  m_PrefabInternal: {fileID: 100100000}
  m_GameObject: {fileID: 189922}
  m_LocalRotation: {x: 0.00000047429356, y: -0.0000044267067, z: -0.00016212398, w: 1}
  m_LocalPosition: {x: -0.00060562877, y: 4.0604153, z: 0.000001076325}
  m_LocalScale: {x: 1, y: 0.9999993, z: 1.0000004}
  m_Children:
  - {fileID: 426692}
  m_Father: {fileID: 445754}
  m_RootOrder: 0
  m_LocalEulerAnglesHint: {x: 0.0001, y: -0.00049999997, z: -0.0186}
--- !u!4 &453342
Transform:
  m_ObjectHideFlags: 1
  m_CorrespondingSourceObject: {fileID: 0}
  m_PrefabInternal: {fileID: 100100000}
  m_GameObject: {fileID: 143256}
  m_LocalRotation: {x: -0.006308148, y: 0.000009262221, z: 0.052337017, w: 0.9986096}
  m_LocalPosition: {x: -3.2609918, y: 10.302796, z: 0.20424767}
  m_LocalScale: {x: 1, y: 0.9999997, z: 0.99999976}
  m_Children:
  - {fileID: 434702}
  m_Father: {fileID: 420748}
  m_RootOrder: 0
  m_LocalEulerAnglesHint: {x: -0.7219, y: -0.0367, z: 6.0004997}
--- !u!4 &455420
Transform:
  m_ObjectHideFlags: 1
  m_CorrespondingSourceObject: {fileID: 0}
  m_PrefabInternal: {fileID: 100100000}
  m_GameObject: {fileID: 192856}
  m_LocalRotation: {x: -0.00000008045498, y: 2.508182e-10, z: -5.8730437e-10, w: 1}
  m_LocalPosition: {x: 0.0012805796, y: 3.0745363, z: -0.000006300746}
  m_LocalScale: {x: 1, y: 1, z: 1}
  m_Children:
  - {fileID: 475844}
  m_Father: {fileID: 427560}
  m_RootOrder: 0
  m_LocalEulerAnglesHint: {x: 0, y: 0, z: 0}
--- !u!4 &458010
Transform:
  m_ObjectHideFlags: 1
  m_CorrespondingSourceObject: {fileID: 0}
  m_PrefabInternal: {fileID: 100100000}
  m_GameObject: {fileID: 109020}
  m_LocalRotation: {x: -0.1476417, y: 0.007941283, z: -0.00621769, w: 0.9889895}
  m_LocalPosition: {x: -0.00000041723249, y: 12.885075, z: 0.000009480863}
  m_LocalScale: {x: 0.9999999, y: 1.0000001, z: 1.0000001}
  m_Children:
  - {fileID: 418356}
  m_Father: {fileID: 492206}
  m_RootOrder: 0
  m_LocalEulerAnglesHint: {x: -16.973799, y: 1.051, z: -0.87729996}
--- !u!4 &461528
Transform:
  m_ObjectHideFlags: 1
  m_CorrespondingSourceObject: {fileID: 0}
  m_PrefabInternal: {fileID: 100100000}
  m_GameObject: {fileID: 124146}
  m_LocalRotation: {x: 0, y: 0, z: 0, w: 1}
  m_LocalPosition: {x: -0, y: 2.2874296, z: 0}
  m_LocalScale: {x: 1, y: 1, z: 1}
  m_Children: []
  m_Father: {fileID: 481864}
  m_RootOrder: 0
  m_LocalEulerAnglesHint: {x: 0, y: 0, z: 0}
--- !u!4 &462046
Transform:
  m_ObjectHideFlags: 1
  m_CorrespondingSourceObject: {fileID: 0}
  m_PrefabInternal: {fileID: 100100000}
  m_GameObject: {fileID: 117398}
  m_LocalRotation: {x: 0.00000008122751, y: -0.0000000018335409, z: 1.1508664e-24,
    w: 1}
  m_LocalPosition: {x: 0, y: 0, z: 0}
  m_LocalScale: {x: 0.01, y: 0.009999999, z: 0.01}
  m_Children: []
  m_Father: {fileID: 469588}
  m_RootOrder: 3
  m_LocalEulerAnglesHint: {x: 0, y: 0, z: 0}
--- !u!4 &463042
Transform:
  m_ObjectHideFlags: 1
  m_CorrespondingSourceObject: {fileID: 0}
  m_PrefabInternal: {fileID: 100100000}
  m_GameObject: {fileID: 175364}
  m_LocalRotation: {x: -0.14777023, y: -0.0063015977, z: 0.00074138155, w: 0.9890014}
  m_LocalPosition: {x: -0.0000004218891, y: 12.885061, z: -0.0000033304093}
  m_LocalScale: {x: 0.99999994, y: 0.99999934, z: 0.9999998}
  m_Children:
  - {fileID: 442780}
  m_Father: {fileID: 499524}
  m_RootOrder: 0
  m_LocalEulerAnglesHint: {x: -16.9946, y: -0.7599, z: 0.1994}
--- !u!4 &464164
Transform:
  m_ObjectHideFlags: 1
  m_CorrespondingSourceObject: {fileID: 0}
  m_PrefabInternal: {fileID: 100100000}
  m_GameObject: {fileID: 100154}
  m_LocalRotation: {x: -0.000000012223608, y: -0.000004991947, z: 0.00000046117927,
    w: 1}
  m_LocalPosition: {x: -0.000001521781, y: 6.2084913, z: 0.00000005960464}
  m_LocalScale: {x: 1, y: 1.0000001, z: 1}
  m_Children:
  - {fileID: 487558}
  m_Father: {fileID: 479010}
  m_RootOrder: 0
  m_LocalEulerAnglesHint: {x: 0, y: 0, z: 0}
--- !u!4 &464202
Transform:
  m_ObjectHideFlags: 1
  m_CorrespondingSourceObject: {fileID: 0}
  m_PrefabInternal: {fileID: 100100000}
  m_GameObject: {fileID: 123898}
  m_LocalRotation: {x: 0.00000022857085, y: 0.000003505723, z: 0.0004560625, w: 0.99999994}
  m_LocalPosition: {x: -0.0022915674, y: 3.742948, z: -0.0000026019695}
  m_LocalScale: {x: 0.99999994, y: 0.99999964, z: 1.0000001}
  m_Children:
  - {fileID: 427560}
  m_Father: {fileID: 439224}
  m_RootOrder: 0
  m_LocalEulerAnglesHint: {x: 0, y: 0.0004, z: 0.0523}
--- !u!4 &465550
Transform:
  m_ObjectHideFlags: 1
  m_CorrespondingSourceObject: {fileID: 0}
  m_PrefabInternal: {fileID: 100100000}
  m_GameObject: {fileID: 131756}
  m_LocalRotation: {x: -0.000000040627246, y: -0.000000007421774, z: 0.0000000014611032,
    w: 1}
  m_LocalPosition: {x: -0.000018931923, y: 3.1309967, z: -0.000009484588}
  m_LocalScale: {x: 1, y: 1, z: 0.99999994}
  m_Children:
  - {fileID: 432888}
  m_Father: {fileID: 423632}
  m_RootOrder: 0
  m_LocalEulerAnglesHint: {x: 0, y: 0, z: 0}
--- !u!4 &466804
Transform:
  m_ObjectHideFlags: 1
  m_CorrespondingSourceObject: {fileID: 0}
  m_PrefabInternal: {fileID: 100100000}
  m_GameObject: {fileID: 187130}
  m_LocalRotation: {x: 0.00000008122751, y: -0.0000000018335409, z: 1.1508664e-24,
    w: 1}
  m_LocalPosition: {x: 0, y: 0, z: 0}
  m_LocalScale: {x: 0.01, y: 0.009999999, z: 0.01}
  m_Children: []
  m_Father: {fileID: 469588}
  m_RootOrder: 0
  m_LocalEulerAnglesHint: {x: 0, y: 0, z: 0}
--- !u!4 &468238
Transform:
  m_ObjectHideFlags: 1
  m_CorrespondingSourceObject: {fileID: 0}
  m_PrefabInternal: {fileID: 100100000}
  m_GameObject: {fileID: 119016}
  m_LocalRotation: {x: 0.00008349873, y: -0.003154348, z: 0.13292927, w: 0.9911205}
  m_LocalPosition: {x: -0.4968084, y: 3.0740163, z: 0.000013850628}
  m_LocalScale: {x: 1, y: 1, z: 1.0000001}
  m_Children:
  - {fileID: 425378}
  m_Father: {fileID: 479900}
  m_RootOrder: 0
  m_LocalEulerAnglesHint: {x: 0.057499997, y: -0.357, z: 15.277699}
--- !u!4 &468518
Transform:
  m_ObjectHideFlags: 1
  m_CorrespondingSourceObject: {fileID: 0}
  m_PrefabInternal: {fileID: 100100000}
  m_GameObject: {fileID: 161400}
  m_LocalRotation: {x: -0.00000052158674, y: 0.0000013498303, z: 0.000034841643, w: 1}
  m_LocalPosition: {x: 0.000006397138, y: 3.5136409, z: 0.0000012964009}
  m_LocalScale: {x: 1, y: 0.9999999, z: 0.999999}
  m_Children:
  - {fileID: 425326}
  m_Father: {fileID: 403690}
  m_RootOrder: 0
  m_LocalEulerAnglesHint: {x: -0.0001, y: 0.0002, z: 0.0039999997}
--- !u!4 &469588
Transform:
  m_ObjectHideFlags: 1
  m_CorrespondingSourceObject: {fileID: 0}
  m_PrefabInternal: {fileID: 100100000}
  m_GameObject: {fileID: 192690}
  m_LocalRotation: {x: 0, y: 0, z: 0, w: 1}
  m_LocalPosition: {x: 0, y: 0, z: 0}
  m_LocalScale: {x: 1, y: 1, z: 1}
  m_Children:
  - {fileID: 466804}
  - {fileID: 496508}
  - {fileID: 446314}
  - {fileID: 462046}
  m_Father: {fileID: 499892}
  m_RootOrder: 1
  m_LocalEulerAnglesHint: {x: 0, y: 0, z: 0}
--- !u!4 &469834
Transform:
  m_ObjectHideFlags: 1
  m_CorrespondingSourceObject: {fileID: 0}
  m_PrefabInternal: {fileID: 100100000}
  m_GameObject: {fileID: 151656}
  m_LocalRotation: {x: -0.0004632812, y: 0.0018745903, z: -0.05825882, w: 0.99829966}
  m_LocalPosition: {x: -3.1376708, y: 9.433374, z: 0.09271452}
  m_LocalScale: {x: 0.99999994, y: 0.9999999, z: 0.99999994}
  m_Children:
  - {fileID: 490414}
  m_Father: {fileID: 497004}
  m_RootOrder: 2
  m_LocalEulerAnglesHint: {x: -0.0405, y: 0.2175, z: -6.6798}
--- !u!4 &473742
Transform:
  m_ObjectHideFlags: 1
  m_CorrespondingSourceObject: {fileID: 0}
  m_PrefabInternal: {fileID: 100100000}
  m_GameObject: {fileID: 131690}
  m_LocalRotation: {x: -0.045270246, y: 0.00038048133, z: -0.012654801, w: 0.9988946}
  m_LocalPosition: {x: 0.00000036699382, y: 46.442978, z: 0.00000006676418}
  m_LocalScale: {x: 0.99999946, y: 1.0000006, z: 0.99999976}
  m_Children:
  - {fileID: 417284}
  m_Father: {fileID: 476046}
  m_RootOrder: 0
  m_LocalEulerAnglesHint: {x: -5.1884, y: 0.1096, z: -1.4567}
--- !u!4 &474734
Transform:
  m_ObjectHideFlags: 1
  m_CorrespondingSourceObject: {fileID: 0}
  m_PrefabInternal: {fileID: 100100000}
  m_GameObject: {fileID: 102118}
  m_LocalRotation: {x: 0.00010331243, y: 0.003032002, z: -0.10960612, w: 0.9939705}
  m_LocalPosition: {x: 0.4479191, y: 3.0840445, z: 0.0000027716158}
  m_LocalScale: {x: 1, y: 1, z: 1}
  m_Children:
  - {fileID: 491940}
  m_Father: {fileID: 420434}
  m_RootOrder: 0
  m_LocalEulerAnglesHint: {x: 0.0499, y: 0.3441, z: -12.585099}
--- !u!4 &475844
Transform:
  m_ObjectHideFlags: 1
  m_CorrespondingSourceObject: {fileID: 0}
  m_PrefabInternal: {fileID: 100100000}
  m_GameObject: {fileID: 126116}
  m_LocalRotation: {x: 0, y: 0, z: 0, w: 1}
  m_LocalPosition: {x: -0, y: 3.07454, z: 0}
  m_LocalScale: {x: 1, y: 1, z: 1}
  m_Children: []
  m_Father: {fileID: 455420}
  m_RootOrder: 0
  m_LocalEulerAnglesHint: {x: 0, y: 0, z: 0}
--- !u!4 &476046
Transform:
  m_ObjectHideFlags: 1
  m_CorrespondingSourceObject: {fileID: 0}
  m_PrefabInternal: {fileID: 100100000}
  m_GameObject: {fileID: 110316}
  m_LocalRotation: {x: 0.00000074489566, y: 0.006958819, z: 0.99995744, w: -0.006058274}
  m_LocalPosition: {x: 10.920648, y: -5.3976483, z: 1.6830438}
  m_LocalScale: {x: 1.0005851, y: 0.99999964, z: 1.0000213}
  m_Children:
  - {fileID: 473742}
  m_Father: {fileID: 492414}
  m_RootOrder: 1
  m_LocalEulerAnglesHint: {x: -0.7974, y: -0.0047, z: -179.3057}
--- !u!4 &477538
Transform:
  m_ObjectHideFlags: 1
  m_CorrespondingSourceObject: {fileID: 0}
  m_PrefabInternal: {fileID: 100100000}
  m_GameObject: {fileID: 151088}
  m_LocalRotation: {x: -0.000000011175873, y: 1.3353475e-18, z: -8.1315156e-20, w: 1}
  m_LocalPosition: {x: -4.7400968e-12, y: 12.938553, z: 0.00000017881393}
  m_LocalScale: {x: 1, y: 0.99999994, z: 0.99999994}
  m_Children:
  - {fileID: 492206}
  - {fileID: 435236}
  - {fileID: 499524}
  m_Father: {fileID: 403640}
  m_RootOrder: 0
  m_LocalEulerAnglesHint: {x: 0, y: 0, z: 0}
--- !u!4 &479010
Transform:
  m_ObjectHideFlags: 1
  m_CorrespondingSourceObject: {fileID: 0}
  m_PrefabInternal: {fileID: 100100000}
  m_GameObject: {fileID: 180242}
  m_LocalRotation: {x: 0.30737466, y: 0.05506234, z: -0.01781606, w: 0.94982713}
  m_LocalPosition: {x: -0.00000046880447, y: 16.945314, z: -0.00000080466265}
  m_LocalScale: {x: 0.99999976, y: 0.9999996, z: 0.9999995}
  m_Children:
  - {fileID: 464164}
  m_Father: {fileID: 429214}
  m_RootOrder: 0
  m_LocalEulerAnglesHint: {x: 35.8643, y: 6.6356997, z: 0.0004}
--- !u!4 &479900
Transform:
  m_ObjectHideFlags: 1
  m_CorrespondingSourceObject: {fileID: 0}
  m_PrefabInternal: {fileID: 100100000}
  m_GameObject: {fileID: 124840}
  m_LocalRotation: {x: 0.21708518, y: -0.08679054, z: -0.38361028, w: 0.89341176}
  m_LocalPosition: {x: 2.207032, y: 2.8915968, z: 1.3849902}
  m_LocalScale: {x: 1, y: 1.0000002, z: 0.99999964}
  m_Children:
  - {fileID: 468238}
  m_Father: {fileID: 497004}
  m_RootOrder: 4
  m_LocalEulerAnglesHint: {x: 18.7419, y: -19.855, z: -49.784}
--- !u!4 &480222
Transform:
  m_ObjectHideFlags: 1
  m_CorrespondingSourceObject: {fileID: 0}
  m_PrefabInternal: {fileID: 100100000}
  m_GameObject: {fileID: 150798}
  m_LocalRotation: {x: -0.0007830648, y: -0.003655989, z: -0.05754699, w: 0.99833584}
  m_LocalPosition: {x: -1.3299953, y: 10.050946, z: -0.0104290685}
  m_LocalScale: {x: 0.9999994, y: 1.0000001, z: 0.99999976}
  m_Children:
  - {fileID: 401306}
  m_Father: {fileID: 497004}
  m_RootOrder: 3
  m_LocalEulerAnglesHint: {x: -0.1136, y: -0.4131, z: -6.5976996}
--- !u!4 &480584
Transform:
  m_ObjectHideFlags: 1
  m_CorrespondingSourceObject: {fileID: 0}
  m_PrefabInternal: {fileID: 100100000}
  m_GameObject: {fileID: 119362}
  m_LocalRotation: {x: 0.00000000842556, y: 0.000000092695934, z: 0.00000008829295,
    w: 1}
  m_LocalPosition: {x: 0.008346348, y: 2.918003, z: -0.0000014519318}
  m_LocalScale: {x: 1, y: 0.99999994, z: 0.99999994}
  m_Children:
  - {fileID: 489888}
  m_Father: {fileID: 405536}
  m_RootOrder: 0
  m_LocalEulerAnglesHint: {x: 0, y: 0, z: 0}
--- !u!4 &481864
Transform:
  m_ObjectHideFlags: 1
  m_CorrespondingSourceObject: {fileID: 0}
  m_PrefabInternal: {fileID: 100100000}
  m_GameObject: {fileID: 101536}
  m_LocalRotation: {x: 0.0000000027521878, y: -9.31788e-10, z: -0.000000019734088,
    w: 1}
  m_LocalPosition: {x: 0.004042044, y: 2.2874355, z: 0.0000013776297}
  m_LocalScale: {x: 1, y: 1, z: 1}
  m_Children:
  - {fileID: 461528}
  m_Father: {fileID: 483872}
  m_RootOrder: 0
  m_LocalEulerAnglesHint: {x: 0, y: 0, z: 0}
--- !u!4 &483872
Transform:
  m_ObjectHideFlags: 1
  m_CorrespondingSourceObject: {fileID: 0}
  m_PrefabInternal: {fileID: 100100000}
  m_GameObject: {fileID: 180332}
  m_LocalRotation: {x: -0.00000036671616, y: 0.00006196149, z: 0.00089296716, w: 0.99999964}
  m_LocalPosition: {x: -0.00007703411, y: 2.6718638, z: 0.000018784818}
  m_LocalScale: {x: 0.9999999, y: 1.0000007, z: 1.0000002}
  m_Children:
  - {fileID: 481864}
  m_Father: {fileID: 490414}
  m_RootOrder: 0
  m_LocalEulerAnglesHint: {x: 0, y: 0.0071, z: 0.102299996}
--- !u!4 &485998
Transform:
  m_ObjectHideFlags: 1
  m_CorrespondingSourceObject: {fileID: 0}
  m_PrefabInternal: {fileID: 100100000}
  m_GameObject: {fileID: 108436}
  m_LocalRotation: {x: 0, y: 0, z: 0, w: 1}
  m_LocalPosition: {x: -0, y: 6.2414274, z: 0}
  m_LocalScale: {x: 1, y: 1, z: 1}
  m_Children: []
  m_Father: {fileID: 446590}
  m_RootOrder: 0
  m_LocalEulerAnglesHint: {x: 0, y: 0, z: 0}
--- !u!4 &486170
Transform:
  m_ObjectHideFlags: 1
  m_CorrespondingSourceObject: {fileID: 0}
  m_PrefabInternal: {fileID: 100100000}
  m_GameObject: {fileID: 182232}
  m_LocalRotation: {x: -0.007850627, y: -0.0000005901344, z: 0.000014438815, w: 0.9999692}
  m_LocalPosition: {x: -1.6871125e-10, y: 9.702705, z: -0.15236208}
  m_LocalScale: {x: 1, y: 1.0000002, z: 1.0000002}
  m_Children:
  - {fileID: 403640}
  m_Father: {fileID: 492414}
  m_RootOrder: 2
  m_LocalEulerAnglesHint: {x: -0.8997, y: -0.0001, z: 0.0016}
--- !u!4 &486282
Transform:
  m_ObjectHideFlags: 1
  m_CorrespondingSourceObject: {fileID: 0}
  m_PrefabInternal: {fileID: 100100000}
  m_GameObject: {fileID: 106150}
  m_LocalRotation: {x: 0.30412865, y: -0.055317834, z: 0.017672166, w: 0.9508593}
  m_LocalPosition: {x: 0.000000012107193, y: 17.102888, z: 0.0000004842877}
  m_LocalScale: {x: 0.9999993, y: 1.0000002, z: 0.9999997}
  m_Children:
  - {fileID: 446590}
  m_Father: {fileID: 417284}
  m_RootOrder: 0
  m_LocalEulerAnglesHint: {x: 35.473198, y: -6.66, z: -0.0028}
--- !u!4 &487558
Transform:
  m_ObjectHideFlags: 1
  m_CorrespondingSourceObject: {fileID: 0}
  m_PrefabInternal: {fileID: 100100000}
  m_GameObject: {fileID: 108298}
  m_LocalRotation: {x: 0, y: 0, z: 0, w: 1}
  m_LocalPosition: {x: -0, y: 6.20849, z: 0}
  m_LocalScale: {x: 1, y: 1, z: 1}
  m_Children: []
  m_Father: {fileID: 464164}
  m_RootOrder: 0
  m_LocalEulerAnglesHint: {x: 0, y: 0, z: 0}
--- !u!4 &489184
Transform:
  m_ObjectHideFlags: 1
  m_CorrespondingSourceObject: {fileID: 0}
  m_PrefabInternal: {fileID: 100100000}
  m_GameObject: {fileID: 148802}
  m_LocalRotation: {x: 0, y: 0, z: 0, w: 1}
  m_LocalPosition: {x: -0, y: 3.6506531, z: 0}
  m_LocalScale: {x: 1, y: 1, z: 1}
  m_Children: []
  m_Father: {fileID: 409634}
  m_RootOrder: 0
  m_LocalEulerAnglesHint: {x: 0, y: 0, z: 0}
--- !u!4 &489888
Transform:
  m_ObjectHideFlags: 1
  m_CorrespondingSourceObject: {fileID: 0}
  m_PrefabInternal: {fileID: 100100000}
  m_GameObject: {fileID: 197582}
  m_LocalRotation: {x: 0, y: 0, z: 0, w: 1}
  m_LocalPosition: {x: -0, y: 2.9180162, z: 0}
  m_LocalScale: {x: 1, y: 1, z: 1}
  m_Children: []
  m_Father: {fileID: 480584}
  m_RootOrder: 0
  m_LocalEulerAnglesHint: {x: 0, y: 0, z: 0}
--- !u!4 &490414
Transform:
  m_ObjectHideFlags: 1
  m_CorrespondingSourceObject: {fileID: 0}
  m_PrefabInternal: {fileID: 100100000}
  m_GameObject: {fileID: 176394}
  m_LocalRotation: {x: -0.0000011046868, y: 0.000015655518, z: 0.0005995122, w: 0.9999998}
  m_LocalPosition: {x: -0.0039647813, y: 3.2343886, z: -0.000012723379}
  m_LocalScale: {x: 1.0000001, y: 0.9999998, z: 0.9999997}
  m_Children:
  - {fileID: 483872}
  m_Father: {fileID: 469834}
  m_RootOrder: 0
  m_LocalEulerAnglesHint: {x: -0.0001, y: 0.0018, z: 0.0687}
--- !u!4 &490594
Transform:
  m_ObjectHideFlags: 1
  m_CorrespondingSourceObject: {fileID: 0}
  m_PrefabInternal: {fileID: 100100000}
  m_GameObject: {fileID: 162210}
  m_LocalRotation: {x: -0.000000001862645, y: -0.0000000037252899, z: 0.000000028870998,
    w: 1}
  m_LocalPosition: {x: -0.18034028, y: 3.4578032, z: -0.00000989437}
  m_LocalScale: {x: 1.0000001, y: 1, z: 1}
  m_Children:
  - {fileID: 438768}
  m_Father: {fileID: 491940}
  m_RootOrder: 0
  m_LocalEulerAnglesHint: {x: 0, y: 0, z: 0}
--- !u!4 &491940
Transform:
  m_ObjectHideFlags: 1
  m_CorrespondingSourceObject: {fileID: 0}
  m_PrefabInternal: {fileID: 100100000}
  m_GameObject: {fileID: 132832}
  m_LocalRotation: {x: 0.000032287433, y: -0.00049903296, z: 0.011669388, w: 0.9999318}
  m_LocalPosition: {x: -0.26757833, y: 3.5406926, z: 0.000021934507}
  m_LocalScale: {x: 1, y: 0.9999996, z: 1.0000001}
  m_Children:
  - {fileID: 490594}
  m_Father: {fileID: 474734}
  m_RootOrder: 0
  m_LocalEulerAnglesHint: {x: 0.0044, y: -0.057099998, z: 1.3371999}
--- !u!4 &492206
Transform:
  m_ObjectHideFlags: 1
  m_CorrespondingSourceObject: {fileID: 0}
  m_PrefabInternal: {fileID: 100100000}
  m_GameObject: {fileID: 119206}
  m_LocalRotation: {x: 0.56555074, y: -0.42279127, z: 0.5711599, w: 0.41854063}
  m_LocalPosition: {x: -6.233017, y: 12.723451, z: -0.060752567}
  m_LocalScale: {x: 0.99999946, y: 0.9999997, z: 0.9999995}
  m_Children:
  - {fileID: 458010}
  m_Father: {fileID: 477538}
  m_RootOrder: 0
  m_LocalEulerAnglesHint: {x: 73.013695, y: 89.4509, z: -179.97789}
--- !u!4 &492414
Transform:
  m_ObjectHideFlags: 1
  m_CorrespondingSourceObject: {fileID: 0}
  m_PrefabInternal: {fileID: 100100000}
  m_GameObject: {fileID: 185188}
  m_LocalRotation: {x: -0.00000017530357, y: 0.00000047677122, z: -0.000014443002,
    w: 1}
  m_LocalPosition: {x: 0.00019899552, y: 104.913734, z: -1.9585699}
  m_LocalScale: {x: 1, y: 1, z: 1}
  m_Children:
  - {fileID: 494234}
  - {fileID: 476046}
  - {fileID: 486170}
  m_Father: {fileID: 496924}
  m_RootOrder: 0
  m_LocalEulerAnglesHint: {x: 0, y: 0.0001, z: -0.0016}
--- !u!4 &492988
Transform:
  m_ObjectHideFlags: 1
  m_CorrespondingSourceObject: {fileID: 0}
  m_PrefabInternal: {fileID: 100100000}
  m_GameObject: {fileID: 100688}
  m_LocalRotation: {x: 0.00000005096203, y: -1.3542201e-10, z: -0.0000000016708129,
    w: 1}
  m_LocalPosition: {x: 0.0024477316, y: 3.6274889, z: -0.0000036316922}
  m_LocalScale: {x: 1, y: 1.0000001, z: 1}
  m_Children:
  - {fileID: 438974}
  m_Father: {fileID: 426692}
  m_RootOrder: 0
  m_LocalEulerAnglesHint: {x: 0, y: 0, z: 0}
--- !u!4 &494234
Transform:
  m_ObjectHideFlags: 1
  m_CorrespondingSourceObject: {fileID: 0}
  m_PrefabInternal: {fileID: 100100000}
  m_GameObject: {fileID: 197736}
  m_LocalRotation: {x: -0.000032394124, y: 0.0055751884, z: 0.99996626, w: 0.0060344283}
  m_LocalPosition: {x: -10.920647, y: -5.3976464, z: 1.9481007}
  m_LocalScale: {x: 1.0000803, y: 1.0000002, z: 1.0000001}
  m_Children:
  - {fileID: 449324}
  m_Father: {fileID: 492414}
  m_RootOrder: 0
  m_LocalEulerAnglesHint: {x: -0.6389, y: 0.0001, z: 179.3085}
--- !u!4 &494240
Transform:
  m_ObjectHideFlags: 1
  m_CorrespondingSourceObject: {fileID: 0}
  m_PrefabInternal: {fileID: 100100000}
  m_GameObject: {fileID: 167142}
  m_LocalRotation: {x: 0, y: 0, z: 0, w: 1}
  m_LocalPosition: {x: -0, y: 3.4855406, z: 0}
  m_LocalScale: {x: 1, y: 1, z: 1}
  m_Children: []
  m_Father: {fileID: 499776}
  m_RootOrder: 0
  m_LocalEulerAnglesHint: {x: 0, y: 0, z: 0}
--- !u!4 &496508
Transform:
  m_ObjectHideFlags: 1
  m_CorrespondingSourceObject: {fileID: 0}
  m_PrefabInternal: {fileID: 100100000}
  m_GameObject: {fileID: 129422}
  m_LocalRotation: {x: 0.00000008122751, y: -0.0000000018335409, z: 1.1508664e-24,
    w: 1}
  m_LocalPosition: {x: 0, y: 0, z: 0}
  m_LocalScale: {x: 0.01, y: 0.009999999, z: 0.01}
  m_Children: []
  m_Father: {fileID: 469588}
  m_RootOrder: 1
  m_LocalEulerAnglesHint: {x: 0, y: 0, z: 0}
--- !u!4 &496924
Transform:
  m_ObjectHideFlags: 1
  m_CorrespondingSourceObject: {fileID: 0}
  m_PrefabInternal: {fileID: 100100000}
  m_GameObject: {fileID: 145836}
  m_LocalRotation: {x: 0.000000081460335, y: -0, z: 0, w: 1}
  m_LocalPosition: {x: 0, y: 0, z: 0}
  m_LocalScale: {x: 0.01, y: 0.01, z: 0.01}
  m_Children:
  - {fileID: 492414}
  m_Father: {fileID: 499892}
  m_RootOrder: 0
  m_LocalEulerAnglesHint: {x: 0, y: 0, z: 0}
--- !u!4 &497004
Transform:
  m_ObjectHideFlags: 1
  m_CorrespondingSourceObject: {fileID: 0}
  m_PrefabInternal: {fileID: 100100000}
  m_GameObject: {fileID: 131456}
  m_LocalRotation: {x: -0.000122516, y: -0.012010347, z: 0.057643548, w: 0.99826497}
  m_LocalPosition: {x: -0.00000031946908, y: 29.885254, z: -0.0000056620333}
  m_LocalScale: {x: 1.0000005, y: 1, z: 1.0000001}
  m_Children:
  - {fileID: 439224}
  - {fileID: 445754}
  - {fileID: 469834}
  - {fileID: 480222}
  - {fileID: 479900}
  m_Father: {fileID: 418356}
  m_RootOrder: 0
  m_LocalEulerAnglesHint: {x: 0.065299995, y: -1.3749, z: 6.6088}
--- !u!4 &499524
Transform:
  m_ObjectHideFlags: 1
  m_CorrespondingSourceObject: {fileID: 0}
  m_PrefabInternal: {fileID: 100100000}
  m_GameObject: {fileID: 143170}
  m_LocalRotation: {x: 0.56846106, y: 0.42061523, z: -0.5682299, w: 0.42077276}
  m_LocalPosition: {x: 6.2330184, y: 12.722447, z: 0.0031886697}
  m_LocalScale: {x: 0.9999998, y: 1.0000004, z: 0.9999994}
  m_Children:
  - {fileID: 463042}
  m_Father: {fileID: 477538}
  m_RootOrder: 2
  m_LocalEulerAnglesHint: {x: 73.018295, y: -90.0255, z: 179.997}
--- !u!4 &499776
Transform:
  m_ObjectHideFlags: 1
  m_CorrespondingSourceObject: {fileID: 0}
  m_PrefabInternal: {fileID: 100100000}
  m_GameObject: {fileID: 117668}
  m_LocalRotation: {x: 0.000000011175872, y: 0.000000011175872, z: 0.000000056810677,
    w: 1}
  m_LocalPosition: {x: 0.12360834, y: 3.4833553, z: -0.0000096559515}
  m_LocalScale: {x: 1, y: 1, z: 0.99999994}
  m_Children:
  - {fileID: 494240}
  m_Father: {fileID: 425378}
  m_RootOrder: 0
  m_LocalEulerAnglesHint: {x: 0, y: 0, z: 0}
--- !u!4 &499892
Transform:
  m_ObjectHideFlags: 1
  m_CorrespondingSourceObject: {fileID: 0}
  m_PrefabInternal: {fileID: 100100000}
  m_GameObject: {fileID: 136284}
  m_LocalRotation: {x: 0, y: 0, z: 0, w: 1}
  m_LocalPosition: {x: 0, y: 0, z: 0}
  m_LocalScale: {x: 1, y: 1, z: 1}
  m_Children:
  - {fileID: 496924}
  - {fileID: 469588}
  m_Father: {fileID: 0}
  m_RootOrder: 0
  m_LocalEulerAnglesHint: {x: 0, y: 0, z: 0}
--- !u!95 &9571484
Animator:
  serializedVersion: 3
  m_ObjectHideFlags: 1
  m_CorrespondingSourceObject: {fileID: 0}
  m_PrefabInternal: {fileID: 100100000}
  m_GameObject: {fileID: 136284}
  m_Enabled: 1
  m_Avatar: {fileID: 9000000, guid: 340f99b8334a14c4a8a01dce6e1e5348, type: 3}
  m_Controller: {fileID: 0}
  m_CullingMode: 1
  m_UpdateMode: 0
  m_ApplyRootMotion: 1
  m_LinearVelocityBlending: 0
  m_WarningMessage: 
  m_HasTransformHierarchy: 1
  m_AllowConstantClipSamplingOptimization: 1
  m_KeepAnimatorControllerStateOnDisable: 0
--- !u!137 &13720864
SkinnedMeshRenderer:
  m_ObjectHideFlags: 1
  m_CorrespondingSourceObject: {fileID: 0}
  m_PrefabInternal: {fileID: 100100000}
  m_GameObject: {fileID: 117398}
  m_Enabled: 1
  m_CastShadows: 1
  m_ReceiveShadows: 1
  m_DynamicOccludee: 1
  m_MotionVectors: 1
  m_LightProbeUsage: 1
  m_ReflectionProbeUsage: 1
  m_RenderingLayerMask: 4294967295
  m_Materials:
  - {fileID: 2100000, guid: 76472b3f03f2031429d4ec2c27522365, type: 2}
  - {fileID: 2100000, guid: 80f854b76f8cb6d43831cae77094f8cb, type: 2}
  - {fileID: 2100000, guid: 076fcba5cec6b974cb19deb5ec63afc3, type: 2}
  - {fileID: 2100000, guid: cdf26595ea6ebf343aed139afe2a795f, type: 2}
  - {fileID: 2100000, guid: 30fd92f09dd2bec4daf8f4fe199b0d5a, type: 2}
  - {fileID: 2100000, guid: 4a21793ba9156ba44ac0ab1065feb819, type: 2}
  - {fileID: 2100000, guid: bc6688d1d01ee2d4d821c5e704b58113, type: 2}
  m_StaticBatchInfo:
    firstSubMesh: 0
    subMeshCount: 0
  m_StaticBatchRoot: {fileID: 0}
  m_ProbeAnchor: {fileID: 0}
  m_LightProbeVolumeOverride: {fileID: 0}
  m_ScaleInLightmap: 1
  m_PreserveUVs: 0
  m_IgnoreNormalsForChartDetection: 0
  m_ImportantGI: 0
  m_StitchLightmapSeams: 0
  m_SelectedEditorRenderState: 3
  m_MinimumChartSize: 4
  m_AutoUVMaxDistance: 0.5
  m_AutoUVMaxAngle: 89
  m_LightmapParameters: {fileID: 0}
  m_SortingLayerID: 0
  m_SortingLayer: 0
  m_SortingOrder: 0
  serializedVersion: 2
  m_Quality: 0
  m_UpdateWhenOffscreen: 0
  m_SkinnedMotionVectors: 1
  m_Mesh: {fileID: 4300000, guid: 340f99b8334a14c4a8a01dce6e1e5348, type: 3}
  m_Bones:
  - {fileID: 492414}
  - {fileID: 486170}
  - {fileID: 403640}
  - {fileID: 477538}
  - {fileID: 435236}
  - {fileID: 442484}
  - {fileID: 401212}
  - {fileID: 492206}
  - {fileID: 458010}
  - {fileID: 418356}
  - {fileID: 497004}
  - {fileID: 479900}
  - {fileID: 468238}
  - {fileID: 425378}
  - {fileID: 499776}
  - {fileID: 439224}
  - {fileID: 464202}
  - {fileID: 427560}
  - {fileID: 455420}
  - {fileID: 445754}
  - {fileID: 451734}
  - {fileID: 426692}
  - {fileID: 492988}
  - {fileID: 480222}
  - {fileID: 401306}
  - {fileID: 433620}
  - {fileID: 444174}
  - {fileID: 469834}
  - {fileID: 490414}
  - {fileID: 483872}
  - {fileID: 481864}
  - {fileID: 499524}
  - {fileID: 463042}
  - {fileID: 442780}
  - {fileID: 420748}
  - {fileID: 420434}
  - {fileID: 474734}
  - {fileID: 491940}
  - {fileID: 490594}
  - {fileID: 453342}
  - {fileID: 434702}
  - {fileID: 405536}
  - {fileID: 480584}
  - {fileID: 422706}
  - {fileID: 427552}
  - {fileID: 444366}
  - {fileID: 409634}
  - {fileID: 449926}
  - {fileID: 424958}
  - {fileID: 423632}
  - {fileID: 465550}
  - {fileID: 403690}
  - {fileID: 468518}
  - {fileID: 425326}
  - {fileID: 434626}
  - {fileID: 494234}
  - {fileID: 449324}
  - {fileID: 429214}
  - {fileID: 479010}
  - {fileID: 464164}
  - {fileID: 476046}
  - {fileID: 473742}
  - {fileID: 417284}
  - {fileID: 486282}
  - {fileID: 446590}
  m_BlendShapeWeights: []
  m_RootBone: {fileID: 492414}
  m_AABB:
    m_Center: {x: 0.008682251, y: -20.565422, z: 5.931921}
    m_Extent: {x: 98.9809, y: 96.17707, z: 28.504267}
  m_DirtyAABB: 0
--- !u!137 &13724184
SkinnedMeshRenderer:
  m_ObjectHideFlags: 1
  m_CorrespondingSourceObject: {fileID: 0}
  m_PrefabInternal: {fileID: 100100000}
  m_GameObject: {fileID: 187130}
  m_Enabled: 1
  m_CastShadows: 1
  m_ReceiveShadows: 1
  m_DynamicOccludee: 1
  m_MotionVectors: 1
  m_LightProbeUsage: 1
  m_ReflectionProbeUsage: 1
  m_RenderingLayerMask: 4294967295
  m_Materials:
  - {fileID: 2100000, guid: 76472b3f03f2031429d4ec2c27522365, type: 2}
  - {fileID: 2100000, guid: bc6688d1d01ee2d4d821c5e704b58113, type: 2}
  - {fileID: 2100000, guid: 80f854b76f8cb6d43831cae77094f8cb, type: 2}
  - {fileID: 2100000, guid: cdf26595ea6ebf343aed139afe2a795f, type: 2}
  - {fileID: 2100000, guid: 076fcba5cec6b974cb19deb5ec63afc3, type: 2}
  - {fileID: 2100000, guid: 30fd92f09dd2bec4daf8f4fe199b0d5a, type: 2}
  - {fileID: 2100000, guid: 4a21793ba9156ba44ac0ab1065feb819, type: 2}
  m_StaticBatchInfo:
    firstSubMesh: 0
    subMeshCount: 0
  m_StaticBatchRoot: {fileID: 0}
  m_ProbeAnchor: {fileID: 0}
  m_LightProbeVolumeOverride: {fileID: 0}
  m_ScaleInLightmap: 1
  m_PreserveUVs: 0
  m_IgnoreNormalsForChartDetection: 0
  m_ImportantGI: 0
  m_StitchLightmapSeams: 0
  m_SelectedEditorRenderState: 3
  m_MinimumChartSize: 4
  m_AutoUVMaxDistance: 0.5
  m_AutoUVMaxAngle: 89
  m_LightmapParameters: {fileID: 0}
  m_SortingLayerID: 0
  m_SortingLayer: 0
  m_SortingOrder: 0
  serializedVersion: 2
  m_Quality: 0
  m_UpdateWhenOffscreen: 0
  m_SkinnedMotionVectors: 1
  m_Mesh: {fileID: 4300006, guid: 340f99b8334a14c4a8a01dce6e1e5348, type: 3}
  m_Bones:
  - {fileID: 492414}
  - {fileID: 486170}
  - {fileID: 403640}
  - {fileID: 477538}
  - {fileID: 435236}
  - {fileID: 442484}
  - {fileID: 401212}
  - {fileID: 492206}
  - {fileID: 458010}
  - {fileID: 418356}
  - {fileID: 497004}
  - {fileID: 479900}
  - {fileID: 468238}
  - {fileID: 425378}
  - {fileID: 499776}
  - {fileID: 439224}
  - {fileID: 464202}
  - {fileID: 427560}
  - {fileID: 455420}
  - {fileID: 445754}
  - {fileID: 451734}
  - {fileID: 426692}
  - {fileID: 492988}
  - {fileID: 480222}
  - {fileID: 401306}
  - {fileID: 433620}
  - {fileID: 444174}
  - {fileID: 469834}
  - {fileID: 490414}
  - {fileID: 483872}
  - {fileID: 481864}
  - {fileID: 499524}
  - {fileID: 463042}
  - {fileID: 442780}
  - {fileID: 420748}
  - {fileID: 420434}
  - {fileID: 474734}
  - {fileID: 491940}
  - {fileID: 490594}
  - {fileID: 453342}
  - {fileID: 434702}
  - {fileID: 405536}
  - {fileID: 480584}
  - {fileID: 422706}
  - {fileID: 427552}
  - {fileID: 444366}
  - {fileID: 409634}
  - {fileID: 449926}
  - {fileID: 424958}
  - {fileID: 423632}
  - {fileID: 465550}
  - {fileID: 403690}
  - {fileID: 468518}
  - {fileID: 425326}
  - {fileID: 434626}
  - {fileID: 494234}
  - {fileID: 449324}
  - {fileID: 429214}
  - {fileID: 479010}
  - {fileID: 464164}
  - {fileID: 476046}
  - {fileID: 473742}
  - {fileID: 417284}
  - {fileID: 486282}
  - {fileID: 446590}
  m_BlendShapeWeights: []
  m_RootBone: {fileID: 492414}
  m_AABB:
    m_Center: {x: 0.004688263, y: -20.591595, z: 4.8472834}
    m_Extent: {x: 98.8893, y: 96.17589, z: 27.315811}
  m_DirtyAABB: 0
--- !u!137 &13743524
SkinnedMeshRenderer:
  m_ObjectHideFlags: 1
  m_CorrespondingSourceObject: {fileID: 0}
  m_PrefabInternal: {fileID: 100100000}
  m_GameObject: {fileID: 129422}
  m_Enabled: 1
  m_CastShadows: 1
  m_ReceiveShadows: 1
  m_DynamicOccludee: 1
  m_MotionVectors: 1
  m_LightProbeUsage: 1
  m_ReflectionProbeUsage: 1
  m_RenderingLayerMask: 4294967295
  m_Materials:
  - {fileID: 2100000, guid: 76472b3f03f2031429d4ec2c27522365, type: 2}
  - {fileID: 2100000, guid: bc6688d1d01ee2d4d821c5e704b58113, type: 2}
  - {fileID: 2100000, guid: 80f854b76f8cb6d43831cae77094f8cb, type: 2}
  - {fileID: 2100000, guid: cdf26595ea6ebf343aed139afe2a795f, type: 2}
  - {fileID: 2100000, guid: 076fcba5cec6b974cb19deb5ec63afc3, type: 2}
  - {fileID: 2100000, guid: 30fd92f09dd2bec4daf8f4fe199b0d5a, type: 2}
  - {fileID: 2100000, guid: 4a21793ba9156ba44ac0ab1065feb819, type: 2}
  m_StaticBatchInfo:
    firstSubMesh: 0
    subMeshCount: 0
  m_StaticBatchRoot: {fileID: 0}
  m_ProbeAnchor: {fileID: 0}
  m_LightProbeVolumeOverride: {fileID: 0}
  m_ScaleInLightmap: 1
  m_PreserveUVs: 0
  m_IgnoreNormalsForChartDetection: 0
  m_ImportantGI: 0
  m_StitchLightmapSeams: 0
  m_SelectedEditorRenderState: 3
  m_MinimumChartSize: 4
  m_AutoUVMaxDistance: 0.5
  m_AutoUVMaxAngle: 89
  m_LightmapParameters: {fileID: 0}
  m_SortingLayerID: 0
  m_SortingLayer: 0
  m_SortingOrder: 0
  serializedVersion: 2
  m_Quality: 0
  m_UpdateWhenOffscreen: 0
  m_SkinnedMotionVectors: 1
  m_Mesh: {fileID: 4300004, guid: 340f99b8334a14c4a8a01dce6e1e5348, type: 3}
  m_Bones:
  - {fileID: 492414}
  - {fileID: 486170}
  - {fileID: 403640}
  - {fileID: 477538}
  - {fileID: 435236}
  - {fileID: 442484}
  - {fileID: 401212}
  - {fileID: 492206}
  - {fileID: 458010}
  - {fileID: 418356}
  - {fileID: 497004}
  - {fileID: 479900}
  - {fileID: 468238}
  - {fileID: 425378}
  - {fileID: 499776}
  - {fileID: 439224}
  - {fileID: 464202}
  - {fileID: 427560}
  - {fileID: 455420}
  - {fileID: 445754}
  - {fileID: 451734}
  - {fileID: 426692}
  - {fileID: 492988}
  - {fileID: 480222}
  - {fileID: 401306}
  - {fileID: 433620}
  - {fileID: 444174}
  - {fileID: 469834}
  - {fileID: 490414}
  - {fileID: 483872}
  - {fileID: 481864}
  - {fileID: 499524}
  - {fileID: 463042}
  - {fileID: 442780}
  - {fileID: 420748}
  - {fileID: 420434}
  - {fileID: 474734}
  - {fileID: 491940}
  - {fileID: 490594}
  - {fileID: 453342}
  - {fileID: 434702}
  - {fileID: 405536}
  - {fileID: 480584}
  - {fileID: 422706}
  - {fileID: 427552}
  - {fileID: 444366}
  - {fileID: 409634}
  - {fileID: 449926}
  - {fileID: 424958}
  - {fileID: 423632}
  - {fileID: 465550}
  - {fileID: 403690}
  - {fileID: 468518}
  - {fileID: 425326}
  - {fileID: 434626}
  - {fileID: 494234}
  - {fileID: 449324}
  - {fileID: 429214}
  - {fileID: 479010}
  - {fileID: 464164}
  - {fileID: 476046}
  - {fileID: 473742}
  - {fileID: 417284}
  - {fileID: 486282}
  - {fileID: 446590}
  m_BlendShapeWeights: []
  m_RootBone: {fileID: 492414}
  m_AABB:
    m_Center: {x: 0.0058937073, y: -20.591595, z: 4.5108624}
    m_Extent: {x: 98.883606, y: 96.17589, z: 26.979374}
  m_DirtyAABB: 0
--- !u!137 &13793642
SkinnedMeshRenderer:
  m_ObjectHideFlags: 1
  m_CorrespondingSourceObject: {fileID: 0}
  m_PrefabInternal: {fileID: 100100000}
  m_GameObject: {fileID: 196986}
  m_Enabled: 1
  m_CastShadows: 1
  m_ReceiveShadows: 1
  m_DynamicOccludee: 1
  m_MotionVectors: 1
  m_LightProbeUsage: 1
  m_ReflectionProbeUsage: 1
  m_RenderingLayerMask: 4294967295
  m_Materials:
  - {fileID: 2100000, guid: 76472b3f03f2031429d4ec2c27522365, type: 2}
  - {fileID: 2100000, guid: bc6688d1d01ee2d4d821c5e704b58113, type: 2}
  - {fileID: 2100000, guid: 80f854b76f8cb6d43831cae77094f8cb, type: 2}
  - {fileID: 2100000, guid: cdf26595ea6ebf343aed139afe2a795f, type: 2}
  - {fileID: 2100000, guid: 076fcba5cec6b974cb19deb5ec63afc3, type: 2}
  - {fileID: 2100000, guid: 30fd92f09dd2bec4daf8f4fe199b0d5a, type: 2}
  - {fileID: 2100000, guid: 4a21793ba9156ba44ac0ab1065feb819, type: 2}
  m_StaticBatchInfo:
    firstSubMesh: 0
    subMeshCount: 0
  m_StaticBatchRoot: {fileID: 0}
  m_ProbeAnchor: {fileID: 0}
  m_LightProbeVolumeOverride: {fileID: 0}
  m_ScaleInLightmap: 1
  m_PreserveUVs: 0
  m_IgnoreNormalsForChartDetection: 0
  m_ImportantGI: 0
  m_StitchLightmapSeams: 0
  m_SelectedEditorRenderState: 3
  m_MinimumChartSize: 4
  m_AutoUVMaxDistance: 0.5
  m_AutoUVMaxAngle: 89
  m_LightmapParameters: {fileID: 0}
  m_SortingLayerID: 0
  m_SortingLayer: 0
  m_SortingOrder: 0
  serializedVersion: 2
  m_Quality: 0
  m_UpdateWhenOffscreen: 0
  m_SkinnedMotionVectors: 1
  m_Mesh: {fileID: 4300002, guid: 340f99b8334a14c4a8a01dce6e1e5348, type: 3}
  m_Bones:
  - {fileID: 492414}
  - {fileID: 486170}
  - {fileID: 403640}
  - {fileID: 477538}
  - {fileID: 435236}
  - {fileID: 442484}
  - {fileID: 401212}
  - {fileID: 492206}
  - {fileID: 458010}
  - {fileID: 418356}
  - {fileID: 497004}
  - {fileID: 479900}
  - {fileID: 468238}
  - {fileID: 425378}
  - {fileID: 499776}
  - {fileID: 439224}
  - {fileID: 464202}
  - {fileID: 427560}
  - {fileID: 455420}
  - {fileID: 445754}
  - {fileID: 451734}
  - {fileID: 426692}
  - {fileID: 492988}
  - {fileID: 480222}
  - {fileID: 401306}
  - {fileID: 433620}
  - {fileID: 444174}
  - {fileID: 469834}
  - {fileID: 490414}
  - {fileID: 483872}
  - {fileID: 481864}
  - {fileID: 499524}
  - {fileID: 463042}
  - {fileID: 442780}
  - {fileID: 420748}
  - {fileID: 420434}
  - {fileID: 474734}
  - {fileID: 491940}
  - {fileID: 490594}
  - {fileID: 453342}
  - {fileID: 434702}
  - {fileID: 405536}
  - {fileID: 480584}
  - {fileID: 422706}
  - {fileID: 427552}
  - {fileID: 444366}
  - {fileID: 409634}
  - {fileID: 449926}
  - {fileID: 424958}
  - {fileID: 423632}
  - {fileID: 465550}
  - {fileID: 403690}
  - {fileID: 468518}
  - {fileID: 425326}
  - {fileID: 434626}
  - {fileID: 494234}
  - {fileID: 449324}
  - {fileID: 429214}
  - {fileID: 479010}
  - {fileID: 464164}
  - {fileID: 476046}
  - {fileID: 473742}
  - {fileID: 417284}
  - {fileID: 486282}
  - {fileID: 446590}
  m_BlendShapeWeights: []
  m_RootBone: {fileID: 492414}
  m_AABB:
    m_Center: {x: 0.0052452087, y: -20.604187, z: 4.9330816}
    m_Extent: {x: 98.921906, y: 96.18498, z: 27.401543}
  m_DirtyAABB: 0
--- !u!205 &20582802
LODGroup:
  m_ObjectHideFlags: 1
  m_CorrespondingSourceObject: {fileID: 0}
  m_PrefabInternal: {fileID: 100100000}
  m_GameObject: {fileID: 192690}
  serializedVersion: 2
  m_LocalReferencePoint: {x: 0.000082969666, y: 0.8432497, z: 0.039733708}
  m_Size: 1.9796741
  m_FadeMode: 0
  m_AnimateCrossFading: 0
  m_LODs:
  - screenRelativeHeight: 0.69752145
    fadeTransitionWidth: 0
    renderers:
    - renderer: {fileID: 13724184}
  - screenRelativeHeight: 0.39740333
    fadeTransitionWidth: 0
    renderers:
    - renderer: {fileID: 13743524}
  - screenRelativeHeight: 0.1990043
    fadeTransitionWidth: 0
    renderers:
    - renderer: {fileID: 13793642}
  - screenRelativeHeight: 0.050290737
    fadeTransitionWidth: 0
    renderers:
    - renderer: {fileID: 13720864}
  m_Enabled: 1
--- !u!1001 &100100000
Prefab:
  m_ObjectHideFlags: 1
  serializedVersion: 2
  m_Modification:
    m_TransformParent: {fileID: 0}
    m_Modifications: []
    m_RemovedComponents: []
  m_SourcePrefab: {fileID: 0}
  m_RootGameObject: {fileID: 136284}
  m_IsPrefabAsset: 1
