%YAML 1.1
%TAG !u! tag:unity3d.com,2011:
--- !u!1 &103946
GameObject:
  m_ObjectHideFlags: 1
  m_CorrespondingSourceObject: {fileID: 0}
  m_PrefabInternal: {fileID: 100100000}
  serializedVersion: 6
  m_Component:
  - component: {fileID: 432244}
  m_Layer: 0
  m_Name: VBOT_:LeftToe_End_end
  m_TagString: Untagged
  m_Icon: {fileID: 0}
  m_NavMeshLayer: 0
  m_StaticEditorFlags: 0
  m_IsActive: 1
--- !u!1 &104366
GameObject:
  m_ObjectHideFlags: 1
  m_CorrespondingSourceObject: {fileID: 0}
  m_PrefabInternal: {fileID: 100100000}
  serializedVersion: 6
  m_Component:
  - component: {fileID: 485740}
  m_Layer: 0
  m_Name: VBOT_:Head
  m_TagString: Untagged
  m_Icon: {fileID: 0}
  m_NavMeshLayer: 0
  m_StaticEditorFlags: 0
  m_IsActive: 1
--- !u!1 &105956
GameObject:
  m_ObjectHideFlags: 1
  m_CorrespondingSourceObject: {fileID: 0}
  m_PrefabInternal: {fileID: 100100000}
  serializedVersion: 6
  m_Component:
  - component: {fileID: 415168}
  m_Layer: 0
  m_Name: VBOT_:LeftHandRing4
  m_TagString: Untagged
  m_Icon: {fileID: 0}
  m_NavMeshLayer: 0
  m_StaticEditorFlags: 0
  m_IsActive: 1
--- !u!1 &107966
GameObject:
  m_ObjectHideFlags: 1
  m_CorrespondingSourceObject: {fileID: 0}
  m_PrefabInternal: {fileID: 100100000}
  serializedVersion: 6
  m_Component:
  - component: {fileID: 420404}
  m_Layer: 0
  m_Name: VBOT_:LeftHandRing3
  m_TagString: Untagged
  m_Icon: {fileID: 0}
  m_NavMeshLayer: 0
  m_StaticEditorFlags: 0
  m_IsActive: 1
--- !u!1 &109040
GameObject:
  m_ObjectHideFlags: 1
  m_CorrespondingSourceObject: {fileID: 0}
  m_PrefabInternal: {fileID: 100100000}
  serializedVersion: 6
  m_Component:
  - component: {fileID: 441126}
  m_Layer: 0
  m_Name: VBOT_:RightHandRing4
  m_TagString: Untagged
  m_Icon: {fileID: 0}
  m_NavMeshLayer: 0
  m_StaticEditorFlags: 0
  m_IsActive: 1
--- !u!1 &109748
GameObject:
  m_ObjectHideFlags: 1
  m_CorrespondingSourceObject: {fileID: 0}
  m_PrefabInternal: {fileID: 100100000}
  serializedVersion: 6
  m_Component:
  - component: {fileID: 400286}
  m_Layer: 0
  m_Name: VBOT_:LeftHandThumb1
  m_TagString: Untagged
  m_Icon: {fileID: 0}
  m_NavMeshLayer: 0
  m_StaticEditorFlags: 0
  m_IsActive: 1
--- !u!1 &110772
GameObject:
  m_ObjectHideFlags: 1
  m_CorrespondingSourceObject: {fileID: 0}
  m_PrefabInternal: {fileID: 100100000}
  serializedVersion: 6
  m_Component:
  - component: {fileID: 472876}
  m_Layer: 0
  m_Name: VBOT_:LeftHandThumb3
  m_TagString: Untagged
  m_Icon: {fileID: 0}
  m_NavMeshLayer: 0
  m_StaticEditorFlags: 0
  m_IsActive: 1
--- !u!1 &113220
GameObject:
  m_ObjectHideFlags: 1
  m_CorrespondingSourceObject: {fileID: 0}
  m_PrefabInternal: {fileID: 100100000}
  serializedVersion: 6
  m_Component:
  - component: {fileID: 428512}
  m_Layer: 0
  m_Name: VBOT_:RightToeBase
  m_TagString: Untagged
  m_Icon: {fileID: 0}
  m_NavMeshLayer: 0
  m_StaticEditorFlags: 0
  m_IsActive: 1
--- !u!1 &113876
GameObject:
  m_ObjectHideFlags: 1
  m_CorrespondingSourceObject: {fileID: 0}
  m_PrefabInternal: {fileID: 100100000}
  serializedVersion: 6
  m_Component:
  - component: {fileID: 424576}
  m_Layer: 0
  m_Name: VBOT_:RightHandRing3
  m_TagString: Untagged
  m_Icon: {fileID: 0}
  m_NavMeshLayer: 0
  m_StaticEditorFlags: 0
  m_IsActive: 1
--- !u!1 &114466
GameObject:
  m_ObjectHideFlags: 1
  m_CorrespondingSourceObject: {fileID: 0}
  m_PrefabInternal: {fileID: 100100000}
  serializedVersion: 6
  m_Component:
  - component: {fileID: 425588}
  m_Layer: 0
  m_Name: VBOT_:RightHandPinky4
  m_TagString: Untagged
  m_Icon: {fileID: 0}
  m_NavMeshLayer: 0
  m_StaticEditorFlags: 0
  m_IsActive: 1
--- !u!1 &114676
GameObject:
  m_ObjectHideFlags: 1
  m_CorrespondingSourceObject: {fileID: 0}
  m_PrefabInternal: {fileID: 100100000}
  serializedVersion: 6
  m_Component:
  - component: {fileID: 459626}
  m_Layer: 0
  m_Name: VBOT_:LeftHandMiddle4
  m_TagString: Untagged
  m_Icon: {fileID: 0}
  m_NavMeshLayer: 0
  m_StaticEditorFlags: 0
  m_IsActive: 1
--- !u!1 &114760
GameObject:
  m_ObjectHideFlags: 1
  m_CorrespondingSourceObject: {fileID: 0}
  m_PrefabInternal: {fileID: 100100000}
  serializedVersion: 6
  m_Component:
  - component: {fileID: 489072}
  m_Layer: 0
  m_Name: VBOT_:RightHandThumb3
  m_TagString: Untagged
  m_Icon: {fileID: 0}
  m_NavMeshLayer: 0
  m_StaticEditorFlags: 0
  m_IsActive: 1
--- !u!1 &116234
GameObject:
  m_ObjectHideFlags: 1
  m_CorrespondingSourceObject: {fileID: 0}
  m_PrefabInternal: {fileID: 100100000}
  serializedVersion: 6
  m_Component:
  - component: {fileID: 406844}
  m_Layer: 0
  m_Name: VBOT_:Spine
  m_TagString: Untagged
  m_Icon: {fileID: 0}
  m_NavMeshLayer: 0
  m_StaticEditorFlags: 0
  m_IsActive: 1
--- !u!1 &118554
GameObject:
  m_ObjectHideFlags: 1
  m_CorrespondingSourceObject: {fileID: 0}
  m_PrefabInternal: {fileID: 100100000}
  serializedVersion: 6
  m_Component:
  - component: {fileID: 429102}
  m_Layer: 0
  m_Name: VBOT_:LeftArm
  m_TagString: Untagged
  m_Icon: {fileID: 0}
  m_NavMeshLayer: 0
  m_StaticEditorFlags: 0
  m_IsActive: 1
--- !u!1 &118618
GameObject:
  m_ObjectHideFlags: 1
  m_CorrespondingSourceObject: {fileID: 0}
  m_PrefabInternal: {fileID: 100100000}
  serializedVersion: 6
  m_Component:
  - component: {fileID: 433848}
  - component: {fileID: 13743300}
  m_Layer: 0
  m_Name: VBOT_:VBOT_LOD2
  m_TagString: Untagged
  m_Icon: {fileID: 0}
  m_NavMeshLayer: 0
  m_StaticEditorFlags: 0
  m_IsActive: 1
--- !u!1 &119470
GameObject:
  m_ObjectHideFlags: 1
  m_CorrespondingSourceObject: {fileID: 0}
  m_PrefabInternal: {fileID: 100100000}
  serializedVersion: 6
  m_Component:
  - component: {fileID: 468826}
  m_Layer: 0
  m_Name: VBOT_:RightHandThumb4_end
  m_TagString: Untagged
  m_Icon: {fileID: 0}
  m_NavMeshLayer: 0
  m_StaticEditorFlags: 0
  m_IsActive: 1
--- !u!1 &121928
GameObject:
  m_ObjectHideFlags: 1
  m_CorrespondingSourceObject: {fileID: 0}
  m_PrefabInternal: {fileID: 100100000}
  serializedVersion: 6
  m_Component:
  - component: {fileID: 480732}
  m_Layer: 0
  m_Name: VBOT_:LeftHandMiddle4_end
  m_TagString: Untagged
  m_Icon: {fileID: 0}
  m_NavMeshLayer: 0
  m_StaticEditorFlags: 0
  m_IsActive: 1
--- !u!1 &123458
GameObject:
  m_ObjectHideFlags: 1
  m_CorrespondingSourceObject: {fileID: 0}
  m_PrefabInternal: {fileID: 100100000}
  serializedVersion: 6
  m_Component:
  - component: {fileID: 407024}
  m_Layer: 0
  m_Name: VBOT_:HeadTop_End
  m_TagString: Untagged
  m_Icon: {fileID: 0}
  m_NavMeshLayer: 0
  m_StaticEditorFlags: 0
  m_IsActive: 1
--- !u!1 &123620
GameObject:
  m_ObjectHideFlags: 1
  m_CorrespondingSourceObject: {fileID: 0}
  m_PrefabInternal: {fileID: 100100000}
  serializedVersion: 6
  m_Component:
  - component: {fileID: 492904}
  m_Layer: 0
  m_Name: VBOT_:RightHand
  m_TagString: Untagged
  m_Icon: {fileID: 0}
  m_NavMeshLayer: 0
  m_StaticEditorFlags: 0
  m_IsActive: 1
--- !u!1 &124400
GameObject:
  m_ObjectHideFlags: 1
  m_CorrespondingSourceObject: {fileID: 0}
  m_PrefabInternal: {fileID: 100100000}
  serializedVersion: 6
  m_Component:
  - component: {fileID: 432614}
  m_Layer: 0
  m_Name: VBOT_:RightLeg
  m_TagString: Untagged
  m_Icon: {fileID: 0}
  m_NavMeshLayer: 0
  m_StaticEditorFlags: 0
  m_IsActive: 1
--- !u!1 &125650
GameObject:
  m_ObjectHideFlags: 1
  m_CorrespondingSourceObject: {fileID: 0}
  m_PrefabInternal: {fileID: 100100000}
  serializedVersion: 6
  m_Component:
  - component: {fileID: 478926}
  m_Layer: 0
  m_Name: VBOT_:RightUpLeg
  m_TagString: Untagged
  m_Icon: {fileID: 0}
  m_NavMeshLayer: 0
  m_StaticEditorFlags: 0
  m_IsActive: 1
--- !u!1 &125856
GameObject:
  m_ObjectHideFlags: 1
  m_CorrespondingSourceObject: {fileID: 0}
  m_PrefabInternal: {fileID: 100100000}
  serializedVersion: 6
  m_Component:
  - component: {fileID: 494372}
  m_Layer: 0
  m_Name: VBOT_:RightShoulder
  m_TagString: Untagged
  m_Icon: {fileID: 0}
  m_NavMeshLayer: 0
  m_StaticEditorFlags: 0
  m_IsActive: 1
--- !u!1 &126632
GameObject:
  m_ObjectHideFlags: 1
  m_CorrespondingSourceObject: {fileID: 0}
  m_PrefabInternal: {fileID: 100100000}
  serializedVersion: 6
  m_Component:
  - component: {fileID: 408704}
  m_Layer: 0
  m_Name: VBOT_:RightFoot
  m_TagString: Untagged
  m_Icon: {fileID: 0}
  m_NavMeshLayer: 0
  m_StaticEditorFlags: 0
  m_IsActive: 1
--- !u!1 &128358
GameObject:
  m_ObjectHideFlags: 1
  m_CorrespondingSourceObject: {fileID: 0}
  m_PrefabInternal: {fileID: 100100000}
  serializedVersion: 6
  m_Component:
  - component: {fileID: 452546}
  m_Layer: 0
  m_Name: VBOT_:RightHandPinky4_end
  m_TagString: Untagged
  m_Icon: {fileID: 0}
  m_NavMeshLayer: 0
  m_StaticEditorFlags: 0
  m_IsActive: 1
--- !u!1 &128380
GameObject:
  m_ObjectHideFlags: 1
  m_CorrespondingSourceObject: {fileID: 0}
  m_PrefabInternal: {fileID: 100100000}
  serializedVersion: 6
  m_Component:
  - component: {fileID: 447890}
  m_Layer: 0
  m_Name: VBOT_:LeftHandRing1
  m_TagString: Untagged
  m_Icon: {fileID: 0}
  m_NavMeshLayer: 0
  m_StaticEditorFlags: 0
  m_IsActive: 1
--- !u!1 &131256
GameObject:
  m_ObjectHideFlags: 1
  m_CorrespondingSourceObject: {fileID: 0}
  m_PrefabInternal: {fileID: 100100000}
  serializedVersion: 6
  m_Component:
  - component: {fileID: 420764}
  m_Layer: 0
  m_Name: VBOT_:RightHandMiddle3
  m_TagString: Untagged
  m_Icon: {fileID: 0}
  m_NavMeshLayer: 0
  m_StaticEditorFlags: 0
  m_IsActive: 1
--- !u!1 &134082
GameObject:
  m_ObjectHideFlags: 1
  m_CorrespondingSourceObject: {fileID: 0}
  m_PrefabInternal: {fileID: 100100000}
  serializedVersion: 6
  m_Component:
  - component: {fileID: 473744}
  m_Layer: 0
  m_Name: VBOT_:RightArm
  m_TagString: Untagged
  m_Icon: {fileID: 0}
  m_NavMeshLayer: 0
  m_StaticEditorFlags: 0
  m_IsActive: 1
--- !u!1 &135410
GameObject:
  m_ObjectHideFlags: 1
  m_CorrespondingSourceObject: {fileID: 0}
  m_PrefabInternal: {fileID: 100100000}
  serializedVersion: 6
  m_Component:
  - component: {fileID: 407070}
  m_Layer: 0
  m_Name: VBOT_:LeftUpLeg
  m_TagString: Untagged
  m_Icon: {fileID: 0}
  m_NavMeshLayer: 0
  m_StaticEditorFlags: 0
  m_IsActive: 1
--- !u!1 &136624
GameObject:
  m_ObjectHideFlags: 1
  m_CorrespondingSourceObject: {fileID: 0}
  m_PrefabInternal: {fileID: 100100000}
  serializedVersion: 6
  m_Component:
  - component: {fileID: 463696}
  m_Layer: 0
  m_Name: VBOT_:RightHandIndex4_end
  m_TagString: Untagged
  m_Icon: {fileID: 0}
  m_NavMeshLayer: 0
  m_StaticEditorFlags: 0
  m_IsActive: 1
--- !u!1 &136786
GameObject:
  m_ObjectHideFlags: 1
  m_CorrespondingSourceObject: {fileID: 0}
  m_PrefabInternal: {fileID: 100100000}
  serializedVersion: 6
  m_Component:
  - component: {fileID: 460882}
  m_Layer: 0
  m_Name: VBOT_:RightHandRing1
  m_TagString: Untagged
  m_Icon: {fileID: 0}
  m_NavMeshLayer: 0
  m_StaticEditorFlags: 0
  m_IsActive: 1
--- !u!1 &138888
GameObject:
  m_ObjectHideFlags: 1
  m_CorrespondingSourceObject: {fileID: 0}
  m_PrefabInternal: {fileID: 100100000}
  serializedVersion: 6
  m_Component:
  - component: {fileID: 490318}
  - component: {fileID: 13736980}
  m_Layer: 0
  m_Name: VBOT_:VBOT_LOD3
  m_TagString: Untagged
  m_Icon: {fileID: 0}
  m_NavMeshLayer: 0
  m_StaticEditorFlags: 0
  m_IsActive: 1
--- !u!1 &140658
GameObject:
  m_ObjectHideFlags: 1
  m_CorrespondingSourceObject: {fileID: 0}
  m_PrefabInternal: {fileID: 100100000}
  serializedVersion: 6
  m_Component:
  - component: {fileID: 435784}
  m_Layer: 0
  m_Name: VBOT_:LeftHandPinky3
  m_TagString: Untagged
  m_Icon: {fileID: 0}
  m_NavMeshLayer: 0
  m_StaticEditorFlags: 0
  m_IsActive: 1
--- !u!1 &142336
GameObject:
  m_ObjectHideFlags: 1
  m_CorrespondingSourceObject: {fileID: 0}
  m_PrefabInternal: {fileID: 100100000}
  serializedVersion: 6
  m_Component:
  - component: {fileID: 474028}
  m_Layer: 0
  m_Name: VBOT_:LeftFoot
  m_TagString: Untagged
  m_Icon: {fileID: 0}
  m_NavMeshLayer: 0
  m_StaticEditorFlags: 0
  m_IsActive: 1
--- !u!1 &145418
GameObject:
  m_ObjectHideFlags: 1
  m_CorrespondingSourceObject: {fileID: 0}
  m_PrefabInternal: {fileID: 100100000}
  serializedVersion: 6
  m_Component:
  - component: {fileID: 487808}
  m_Layer: 0
  m_Name: VBOT_:RightHandMiddle4
  m_TagString: Untagged
  m_Icon: {fileID: 0}
  m_NavMeshLayer: 0
  m_StaticEditorFlags: 0
  m_IsActive: 1
--- !u!1 &145982
GameObject:
  m_ObjectHideFlags: 1
  m_CorrespondingSourceObject: {fileID: 0}
  m_PrefabInternal: {fileID: 100100000}
  serializedVersion: 6
  m_Component:
  - component: {fileID: 499826}
  m_Layer: 0
  m_Name: VBOT_:LeftShoulder
  m_TagString: Untagged
  m_Icon: {fileID: 0}
  m_NavMeshLayer: 0
  m_StaticEditorFlags: 0
  m_IsActive: 1
--- !u!1 &147378
GameObject:
  m_ObjectHideFlags: 1
  m_CorrespondingSourceObject: {fileID: 0}
  m_PrefabInternal: {fileID: 100100000}
  serializedVersion: 6
  m_Component:
  - component: {fileID: 423536}
  m_Layer: 0
  m_Name: VBOT_:LeftHandThumb2
  m_TagString: Untagged
  m_Icon: {fileID: 0}
  m_NavMeshLayer: 0
  m_StaticEditorFlags: 0
  m_IsActive: 1
--- !u!1 &147508
GameObject:
  m_ObjectHideFlags: 1
  m_CorrespondingSourceObject: {fileID: 0}
  m_PrefabInternal: {fileID: 100100000}
  serializedVersion: 6
  m_Component:
  - component: {fileID: 401776}
  m_Layer: 0
  m_Name: VBOT_:RightToe_End_end
  m_TagString: Untagged
  m_Icon: {fileID: 0}
  m_NavMeshLayer: 0
  m_StaticEditorFlags: 0
  m_IsActive: 1
--- !u!1 &148002
GameObject:
  m_ObjectHideFlags: 1
  m_CorrespondingSourceObject: {fileID: 0}
  m_PrefabInternal: {fileID: 100100000}
  serializedVersion: 6
  m_Component:
  - component: {fileID: 428524}
  m_Layer: 0
  m_Name: VBOT_:LeftHandMiddle2
  m_TagString: Untagged
  m_Icon: {fileID: 0}
  m_NavMeshLayer: 0
  m_StaticEditorFlags: 0
  m_IsActive: 1
--- !u!1 &148208
GameObject:
  m_ObjectHideFlags: 1
  m_CorrespondingSourceObject: {fileID: 0}
  m_PrefabInternal: {fileID: 100100000}
  serializedVersion: 6
  m_Component:
  - component: {fileID: 495394}
  m_Layer: 0
  m_Name: VBOT_:Hips
  m_TagString: Untagged
  m_Icon: {fileID: 0}
  m_NavMeshLayer: 0
  m_StaticEditorFlags: 0
  m_IsActive: 1
--- !u!1 &148250
GameObject:
  m_ObjectHideFlags: 1
  m_CorrespondingSourceObject: {fileID: 0}
  m_PrefabInternal: {fileID: 100100000}
  serializedVersion: 6
  m_Component:
  - component: {fileID: 416924}
  m_Layer: 0
  m_Name: VBOT_:LeftHand
  m_TagString: Untagged
  m_Icon: {fileID: 0}
  m_NavMeshLayer: 0
  m_StaticEditorFlags: 0
  m_IsActive: 1
--- !u!1 &149322
GameObject:
  m_ObjectHideFlags: 0
  m_CorrespondingSourceObject: {fileID: 0}
  m_PrefabInternal: {fileID: 100100000}
  serializedVersion: 6
  m_Component:
  - component: {fileID: 490442}
  m_Layer: 0
  m_Name: Armature
  m_TagString: Untagged
  m_Icon: {fileID: 0}
  m_NavMeshLayer: 0
  m_StaticEditorFlags: 0
  m_IsActive: 1
--- !u!1 &150208
GameObject:
  m_ObjectHideFlags: 1
  m_CorrespondingSourceObject: {fileID: 0}
  m_PrefabInternal: {fileID: 100100000}
  serializedVersion: 6
  m_Component:
  - component: {fileID: 471662}
  m_Layer: 0
  m_Name: VBOT_:LeftHandMiddle3
  m_TagString: Untagged
  m_Icon: {fileID: 0}
  m_NavMeshLayer: 0
  m_StaticEditorFlags: 0
  m_IsActive: 1
--- !u!1 &150556
GameObject:
  m_ObjectHideFlags: 1
  m_CorrespondingSourceObject: {fileID: 0}
  m_PrefabInternal: {fileID: 100100000}
  serializedVersion: 6
  m_Component:
  - component: {fileID: 429826}
  m_Layer: 0
  m_Name: VBOT_:RightToe_End
  m_TagString: Untagged
  m_Icon: {fileID: 0}
  m_NavMeshLayer: 0
  m_StaticEditorFlags: 0
  m_IsActive: 1
--- !u!1 &151946
GameObject:
  m_ObjectHideFlags: 1
  m_CorrespondingSourceObject: {fileID: 0}
  m_PrefabInternal: {fileID: 100100000}
  serializedVersion: 6
  m_Component:
  - component: {fileID: 420800}
  m_Layer: 0
  m_Name: VBOT_:RightHandRing2
  m_TagString: Untagged
  m_Icon: {fileID: 0}
  m_NavMeshLayer: 0
  m_StaticEditorFlags: 0
  m_IsActive: 1
--- !u!1 &152918
GameObject:
  m_ObjectHideFlags: 1
  m_CorrespondingSourceObject: {fileID: 0}
  m_PrefabInternal: {fileID: 100100000}
  serializedVersion: 6
  m_Component:
  - component: {fileID: 444788}
  m_Layer: 0
  m_Name: VBOT_:Neck
  m_TagString: Untagged
  m_Icon: {fileID: 0}
  m_NavMeshLayer: 0
  m_StaticEditorFlags: 0
  m_IsActive: 1
--- !u!1 &155060
GameObject:
  m_ObjectHideFlags: 1
  m_CorrespondingSourceObject: {fileID: 0}
  m_PrefabInternal: {fileID: 100100000}
  serializedVersion: 6
  m_Component:
  - component: {fileID: 440378}
  m_Layer: 0
  m_Name: VBOT_:LeftHandPinky1
  m_TagString: Untagged
  m_Icon: {fileID: 0}
  m_NavMeshLayer: 0
  m_StaticEditorFlags: 0
  m_IsActive: 1
--- !u!1 &155488
GameObject:
  m_ObjectHideFlags: 1
  m_CorrespondingSourceObject: {fileID: 0}
  m_PrefabInternal: {fileID: 100100000}
  serializedVersion: 6
  m_Component:
  - component: {fileID: 429400}
  m_Layer: 0
  m_Name: VBOT_:RightHandIndex1
  m_TagString: Untagged
  m_Icon: {fileID: 0}
  m_NavMeshLayer: 0
  m_StaticEditorFlags: 0
  m_IsActive: 1
--- !u!1 &156294
GameObject:
  m_ObjectHideFlags: 1
  m_CorrespondingSourceObject: {fileID: 0}
  m_PrefabInternal: {fileID: 100100000}
  serializedVersion: 6
  m_Component:
  - component: {fileID: 490432}
  m_Layer: 0
  m_Name: VBOT_:LeftHandIndex4
  m_TagString: Untagged
  m_Icon: {fileID: 0}
  m_NavMeshLayer: 0
  m_StaticEditorFlags: 0
  m_IsActive: 1
--- !u!1 &157120
GameObject:
  m_ObjectHideFlags: 1
  m_CorrespondingSourceObject: {fileID: 0}
  m_PrefabInternal: {fileID: 100100000}
  serializedVersion: 6
  m_Component:
  - component: {fileID: 423878}
  m_Layer: 0
  m_Name: VBOT_:LeftHandPinky4
  m_TagString: Untagged
  m_Icon: {fileID: 0}
  m_NavMeshLayer: 0
  m_StaticEditorFlags: 0
  m_IsActive: 1
--- !u!1 &157268
GameObject:
  m_ObjectHideFlags: 1
  m_CorrespondingSourceObject: {fileID: 0}
  m_PrefabInternal: {fileID: 100100000}
  serializedVersion: 6
  m_Component:
  - component: {fileID: 471210}
  m_Layer: 0
  m_Name: VBOT_:RightHandMiddle2
  m_TagString: Untagged
  m_Icon: {fileID: 0}
  m_NavMeshLayer: 0
  m_StaticEditorFlags: 0
  m_IsActive: 1
--- !u!1 &159464
GameObject:
  m_ObjectHideFlags: 1
  m_CorrespondingSourceObject: {fileID: 0}
  m_PrefabInternal: {fileID: 100100000}
  serializedVersion: 6
  m_Component:
  - component: {fileID: 438972}
  m_Layer: 0
  m_Name: VBOT_:RightHandMiddle4_end
  m_TagString: Untagged
  m_Icon: {fileID: 0}
  m_NavMeshLayer: 0
  m_StaticEditorFlags: 0
  m_IsActive: 1
--- !u!1 &160914
GameObject:
  m_ObjectHideFlags: 1
  m_CorrespondingSourceObject: {fileID: 0}
  m_PrefabInternal: {fileID: 100100000}
  serializedVersion: 6
  m_Component:
  - component: {fileID: 471422}
  m_Layer: 0
  m_Name: VBOT_:LeftToeBase
  m_TagString: Untagged
  m_Icon: {fileID: 0}
  m_NavMeshLayer: 0
  m_StaticEditorFlags: 0
  m_IsActive: 1
--- !u!1 &160934
GameObject:
  m_ObjectHideFlags: 1
  m_CorrespondingSourceObject: {fileID: 0}
  m_PrefabInternal: {fileID: 100100000}
  serializedVersion: 6
  m_Component:
  - component: {fileID: 427584}
  m_Layer: 0
  m_Name: VBOT_:LeftForeArm
  m_TagString: Untagged
  m_Icon: {fileID: 0}
  m_NavMeshLayer: 0
  m_StaticEditorFlags: 0
  m_IsActive: 1
--- !u!1 &161318
GameObject:
  m_ObjectHideFlags: 1
  m_CorrespondingSourceObject: {fileID: 0}
  m_PrefabInternal: {fileID: 100100000}
  serializedVersion: 6
  m_Component:
  - component: {fileID: 411146}
  m_Layer: 0
  m_Name: VBOT_:LeftLeg
  m_TagString: Untagged
  m_Icon: {fileID: 0}
  m_NavMeshLayer: 0
  m_StaticEditorFlags: 0
  m_IsActive: 1
--- !u!1 &164580
GameObject:
  m_ObjectHideFlags: 1
  m_CorrespondingSourceObject: {fileID: 0}
  m_PrefabInternal: {fileID: 100100000}
  serializedVersion: 6
  m_Component:
  - component: {fileID: 410084}
  m_Layer: 0
  m_Name: VBOT_:LeftHandIndex1
  m_TagString: Untagged
  m_Icon: {fileID: 0}
  m_NavMeshLayer: 0
  m_StaticEditorFlags: 0
  m_IsActive: 1
--- !u!1 &166498
GameObject:
  m_ObjectHideFlags: 1
  m_CorrespondingSourceObject: {fileID: 0}
  m_PrefabInternal: {fileID: 100100000}
  serializedVersion: 6
  m_Component:
  - component: {fileID: 451804}
  m_Layer: 0
  m_Name: VBOT_:LeftHandPinky2
  m_TagString: Untagged
  m_Icon: {fileID: 0}
  m_NavMeshLayer: 0
  m_StaticEditorFlags: 0
  m_IsActive: 1
--- !u!1 &169992
GameObject:
  m_ObjectHideFlags: 1
  m_CorrespondingSourceObject: {fileID: 0}
  m_PrefabInternal: {fileID: 100100000}
  serializedVersion: 6
  m_Component:
  - component: {fileID: 475492}
  m_Layer: 0
  m_Name: VBOT_:RightHandPinky2
  m_TagString: Untagged
  m_Icon: {fileID: 0}
  m_NavMeshLayer: 0
  m_StaticEditorFlags: 0
  m_IsActive: 1
--- !u!1 &170298
GameObject:
  m_ObjectHideFlags: 1
  m_CorrespondingSourceObject: {fileID: 0}
  m_PrefabInternal: {fileID: 100100000}
  serializedVersion: 6
  m_Component:
  - component: {fileID: 447476}
  m_Layer: 0
  m_Name: VBOT_:RightHandThumb4
  m_TagString: Untagged
  m_Icon: {fileID: 0}
  m_NavMeshLayer: 0
  m_StaticEditorFlags: 0
  m_IsActive: 1
--- !u!1 &171172
GameObject:
  m_ObjectHideFlags: 1
  m_CorrespondingSourceObject: {fileID: 0}
  m_PrefabInternal: {fileID: 100100000}
  serializedVersion: 6
  m_Component:
  - component: {fileID: 491886}
  m_Layer: 0
  m_Name: VBOT_:LeftHandMiddle1
  m_TagString: Untagged
  m_Icon: {fileID: 0}
  m_NavMeshLayer: 0
  m_StaticEditorFlags: 0
  m_IsActive: 1
--- !u!1 &171674
GameObject:
  m_ObjectHideFlags: 1
  m_CorrespondingSourceObject: {fileID: 0}
  m_PrefabInternal: {fileID: 100100000}
  serializedVersion: 6
  m_Component:
  - component: {fileID: 453036}
  m_Layer: 0
  m_Name: VBOT_:LeftHandIndex3
  m_TagString: Untagged
  m_Icon: {fileID: 0}
  m_NavMeshLayer: 0
  m_StaticEditorFlags: 0
  m_IsActive: 1
--- !u!1 &172218
GameObject:
  m_ObjectHideFlags: 1
  m_CorrespondingSourceObject: {fileID: 0}
  m_PrefabInternal: {fileID: 100100000}
  serializedVersion: 6
  m_Component:
  - component: {fileID: 469134}
  m_Layer: 0
  m_Name: VBOT_:RightForeArm
  m_TagString: Untagged
  m_Icon: {fileID: 0}
  m_NavMeshLayer: 0
  m_StaticEditorFlags: 0
  m_IsActive: 1
--- !u!1 &173434
GameObject:
  m_ObjectHideFlags: 1
  m_CorrespondingSourceObject: {fileID: 0}
  m_PrefabInternal: {fileID: 100100000}
  serializedVersion: 6
  m_Component:
  - component: {fileID: 444194}
  m_Layer: 0
  m_Name: VBOT_:RightHandRing4_end
  m_TagString: Untagged
  m_Icon: {fileID: 0}
  m_NavMeshLayer: 0
  m_StaticEditorFlags: 0
  m_IsActive: 1
--- !u!1 &173718
GameObject:
  m_ObjectHideFlags: 1
  m_CorrespondingSourceObject: {fileID: 0}
  m_PrefabInternal: {fileID: 100100000}
  serializedVersion: 6
  m_Component:
  - component: {fileID: 480096}
  m_Layer: 0
  m_Name: VBOT_:HeadTop_End_end
  m_TagString: Untagged
  m_Icon: {fileID: 0}
  m_NavMeshLayer: 0
  m_StaticEditorFlags: 0
  m_IsActive: 1
--- !u!1 &174024
GameObject:
  m_ObjectHideFlags: 1
  m_CorrespondingSourceObject: {fileID: 0}
  m_PrefabInternal: {fileID: 100100000}
  serializedVersion: 6
  m_Component:
  - component: {fileID: 456948}
  - component: {fileID: 13754848}
  m_Layer: 0
  m_Name: VBOT_:VBOT_LOD0
  m_TagString: Untagged
  m_Icon: {fileID: 0}
  m_NavMeshLayer: 0
  m_StaticEditorFlags: 0
  m_IsActive: 1
--- !u!1 &174140
GameObject:
  m_ObjectHideFlags: 1
  m_CorrespondingSourceObject: {fileID: 0}
  m_PrefabInternal: {fileID: 100100000}
  serializedVersion: 6
  m_Component:
  - component: {fileID: 483334}
  m_Layer: 0
  m_Name: VBOT_:LeftHandIndex2
  m_TagString: Untagged
  m_Icon: {fileID: 0}
  m_NavMeshLayer: 0
  m_StaticEditorFlags: 0
  m_IsActive: 1
--- !u!1 &175548
GameObject:
  m_ObjectHideFlags: 1
  m_CorrespondingSourceObject: {fileID: 0}
  m_PrefabInternal: {fileID: 100100000}
  serializedVersion: 6
  m_Component:
  - component: {fileID: 429606}
  m_Layer: 0
  m_Name: VBOT_:RightHandIndex2
  m_TagString: Untagged
  m_Icon: {fileID: 0}
  m_NavMeshLayer: 0
  m_StaticEditorFlags: 0
  m_IsActive: 1
--- !u!1 &175618
GameObject:
  m_ObjectHideFlags: 1
  m_CorrespondingSourceObject: {fileID: 0}
  m_PrefabInternal: {fileID: 100100000}
  serializedVersion: 6
  m_Component:
  - component: {fileID: 408936}
  m_Layer: 0
  m_Name: VBOT_:RightHandPinky3
  m_TagString: Untagged
  m_Icon: {fileID: 0}
  m_NavMeshLayer: 0
  m_StaticEditorFlags: 0
  m_IsActive: 1
--- !u!1 &176932
GameObject:
  m_ObjectHideFlags: 1
  m_CorrespondingSourceObject: {fileID: 0}
  m_PrefabInternal: {fileID: 100100000}
  serializedVersion: 6
  m_Component:
  - component: {fileID: 472062}
  m_Layer: 0
  m_Name: VBOT_:LeftHandPinky4_end
  m_TagString: Untagged
  m_Icon: {fileID: 0}
  m_NavMeshLayer: 0
  m_StaticEditorFlags: 0
  m_IsActive: 1
--- !u!1 &176950
GameObject:
  m_ObjectHideFlags: 1
  m_CorrespondingSourceObject: {fileID: 0}
  m_PrefabInternal: {fileID: 100100000}
  serializedVersion: 6
  m_Component:
  - component: {fileID: 483740}
  m_Layer: 0
  m_Name: VBOT_:Spine1
  m_TagString: Untagged
  m_Icon: {fileID: 0}
  m_NavMeshLayer: 0
  m_StaticEditorFlags: 0
  m_IsActive: 1
--- !u!1 &177032
GameObject:
  m_ObjectHideFlags: 1
  m_CorrespondingSourceObject: {fileID: 0}
  m_PrefabInternal: {fileID: 100100000}
  serializedVersion: 6
  m_Component:
  - component: {fileID: 480162}
  - component: {fileID: 13702304}
  m_Layer: 0
  m_Name: VBOT_:VBOT_LOD1
  m_TagString: Untagged
  m_Icon: {fileID: 0}
  m_NavMeshLayer: 0
  m_StaticEditorFlags: 0
  m_IsActive: 1
--- !u!1 &177234
GameObject:
  m_ObjectHideFlags: 1
  m_CorrespondingSourceObject: {fileID: 0}
  m_PrefabInternal: {fileID: 100100000}
  serializedVersion: 6
  m_Component:
  - component: {fileID: 425518}
  m_Layer: 0
  m_Name: VBOT_:RightHandIndex4
  m_TagString: Untagged
  m_Icon: {fileID: 0}
  m_NavMeshLayer: 0
  m_StaticEditorFlags: 0
  m_IsActive: 1
--- !u!1 &177874
GameObject:
  m_ObjectHideFlags: 1
  m_CorrespondingSourceObject: {fileID: 0}
  m_PrefabInternal: {fileID: 100100000}
  serializedVersion: 6
  m_Component:
  - component: {fileID: 479264}
  m_Layer: 0
  m_Name: VBOT_:LeftHandThumb4_end
  m_TagString: Untagged
  m_Icon: {fileID: 0}
  m_NavMeshLayer: 0
  m_StaticEditorFlags: 0
  m_IsActive: 1
--- !u!1 &181480
GameObject:
  m_ObjectHideFlags: 1
  m_CorrespondingSourceObject: {fileID: 0}
  m_PrefabInternal: {fileID: 100100000}
  serializedVersion: 6
  m_Component:
  - component: {fileID: 408066}
  m_Layer: 0
  m_Name: VBOT_:RightHandThumb2
  m_TagString: Untagged
  m_Icon: {fileID: 0}
  m_NavMeshLayer: 0
  m_StaticEditorFlags: 0
  m_IsActive: 1
--- !u!1 &187210
GameObject:
  m_ObjectHideFlags: 1
  m_CorrespondingSourceObject: {fileID: 0}
  m_PrefabInternal: {fileID: 100100000}
  serializedVersion: 6
  m_Component:
  - component: {fileID: 466952}
  m_Layer: 0
  m_Name: VBOT_:LeftHandIndex4_end
  m_TagString: Untagged
  m_Icon: {fileID: 0}
  m_NavMeshLayer: 0
  m_StaticEditorFlags: 0
  m_IsActive: 1
--- !u!1 &187290
GameObject:
  m_ObjectHideFlags: 1
  m_CorrespondingSourceObject: {fileID: 0}
  m_PrefabInternal: {fileID: 100100000}
  serializedVersion: 6
  m_Component:
  - component: {fileID: 417366}
  m_Layer: 0
  m_Name: VBOT_:RightHandThumb1
  m_TagString: Untagged
  m_Icon: {fileID: 0}
  m_NavMeshLayer: 0
  m_StaticEditorFlags: 0
  m_IsActive: 1
--- !u!1 &187514
GameObject:
  m_ObjectHideFlags: 1
  m_CorrespondingSourceObject: {fileID: 0}
  m_PrefabInternal: {fileID: 100100000}
  serializedVersion: 6
  m_Component:
  - component: {fileID: 472374}
  m_Layer: 0
  m_Name: VBOT_:RightHandIndex3
  m_TagString: Untagged
  m_Icon: {fileID: 0}
  m_NavMeshLayer: 0
  m_StaticEditorFlags: 0
  m_IsActive: 1
--- !u!1 &189822
GameObject:
  m_ObjectHideFlags: 1
  m_CorrespondingSourceObject: {fileID: 0}
  m_PrefabInternal: {fileID: 100100000}
  serializedVersion: 6
  m_Component:
  - component: {fileID: 440576}
  m_Layer: 0
  m_Name: VBOT_:LeftHandRing2
  m_TagString: Untagged
  m_Icon: {fileID: 0}
  m_NavMeshLayer: 0
  m_StaticEditorFlags: 0
  m_IsActive: 1
--- !u!1 &195390
GameObject:
  m_ObjectHideFlags: 1
  m_CorrespondingSourceObject: {fileID: 0}
  m_PrefabInternal: {fileID: 100100000}
  serializedVersion: 6
  m_Component:
  - component: {fileID: 470186}
  m_Layer: 0
  m_Name: VBOT_:LeftHandThumb4
  m_TagString: Untagged
  m_Icon: {fileID: 0}
  m_NavMeshLayer: 0
  m_StaticEditorFlags: 0
  m_IsActive: 1
--- !u!1 &195806
GameObject:
  m_ObjectHideFlags: 0
  m_CorrespondingSourceObject: {fileID: 0}
  m_PrefabInternal: {fileID: 100100000}
  serializedVersion: 6
  m_Component:
  - component: {fileID: 476752}
  - component: {fileID: 20503356}
  m_Layer: 0
  m_Name: Mesh_LOD
  m_TagString: Untagged
  m_Icon: {fileID: 0}
  m_NavMeshLayer: 0
  m_StaticEditorFlags: 0
  m_IsActive: 1
--- !u!1 &197372
GameObject:
  m_ObjectHideFlags: 1
  m_CorrespondingSourceObject: {fileID: 0}
  m_PrefabInternal: {fileID: 100100000}
  serializedVersion: 6
  m_Component:
  - component: {fileID: 484926}
  m_Layer: 0
  m_Name: VBOT_:LeftHandRing4_end
  m_TagString: Untagged
  m_Icon: {fileID: 0}
  m_NavMeshLayer: 0
  m_StaticEditorFlags: 0
  m_IsActive: 1
--- !u!1 &198202
GameObject:
  m_ObjectHideFlags: 1
  m_CorrespondingSourceObject: {fileID: 0}
  m_PrefabInternal: {fileID: 100100000}
  serializedVersion: 6
  m_Component:
  - component: {fileID: 489298}
  m_Layer: 0
  m_Name: VBOT_:RightHandPinky1
  m_TagString: Untagged
  m_Icon: {fileID: 0}
  m_NavMeshLayer: 0
  m_StaticEditorFlags: 0
  m_IsActive: 1
--- !u!1 &198290
GameObject:
  m_ObjectHideFlags: 1
  m_CorrespondingSourceObject: {fileID: 0}
  m_PrefabInternal: {fileID: 100100000}
  serializedVersion: 6
  m_Component:
  - component: {fileID: 401700}
  m_Layer: 0
  m_Name: VBOT_:Spine2
  m_TagString: Untagged
  m_Icon: {fileID: 0}
  m_NavMeshLayer: 0
  m_StaticEditorFlags: 0
  m_IsActive: 1
--- !u!1 &198774
GameObject:
  m_ObjectHideFlags: 1
  m_CorrespondingSourceObject: {fileID: 0}
  m_PrefabInternal: {fileID: 100100000}
  serializedVersion: 6
  m_Component:
  - component: {fileID: 403294}
  m_Layer: 0
  m_Name: VBOT_:LeftToe_End
  m_TagString: Untagged
  m_Icon: {fileID: 0}
  m_NavMeshLayer: 0
  m_StaticEditorFlags: 0
  m_IsActive: 1
--- !u!1 &199462
GameObject:
  m_ObjectHideFlags: 1
  m_CorrespondingSourceObject: {fileID: 0}
  m_PrefabInternal: {fileID: 100100000}
  serializedVersion: 6
  m_Component:
  - component: {fileID: 480490}
  m_Layer: 0
  m_Name: VBOT_:RightHandMiddle1
  m_TagString: Untagged
  m_Icon: {fileID: 0}
  m_NavMeshLayer: 0
  m_StaticEditorFlags: 0
  m_IsActive: 1
--- !u!1 &199726
GameObject:
  m_ObjectHideFlags: 0
  m_CorrespondingSourceObject: {fileID: 0}
  m_PrefabInternal: {fileID: 100100000}
  serializedVersion: 6
  m_Component:
  - component: {fileID: 472092}
  - component: {fileID: 9578032}
  m_Layer: 0
  m_Name: VBOT2.0_Custom
  m_TagString: Untagged
  m_Icon: {fileID: 0}
  m_NavMeshLayer: 0
  m_StaticEditorFlags: 0
  m_IsActive: 1
--- !u!4 &400286
Transform:
  m_ObjectHideFlags: 1
  m_CorrespondingSourceObject: {fileID: 0}
  m_PrefabInternal: {fileID: 100100000}
  m_GameObject: {fileID: 109748}
  m_LocalRotation: {x: 0.21708518, y: -0.08679054, z: -0.38361028, w: 0.89341176}
  m_LocalPosition: {x: 2.207032, y: 2.8915968, z: 1.3849902}
  m_LocalScale: {x: 1, y: 1.0000002, z: 0.99999964}
  m_Children:
  - {fileID: 423536}
  m_Father: {fileID: 416924}
  m_RootOrder: 4
  m_LocalEulerAnglesHint: {x: 18.7419, y: -19.855, z: -49.784}
--- !u!4 &401700
Transform:
  m_ObjectHideFlags: 1
  m_CorrespondingSourceObject: {fileID: 0}
  m_PrefabInternal: {fileID: 100100000}
  m_GameObject: {fileID: 198290}
  m_LocalRotation: {x: -0.000000011175873, y: 1.3353475e-18, z: -8.1315156e-20, w: 1}
  m_LocalPosition: {x: -4.7400968e-12, y: 12.938553, z: 0.00000017881393}
  m_LocalScale: {x: 1, y: 0.99999994, z: 0.99999994}
  m_Children:
  - {fileID: 499826}
  - {fileID: 444788}
  - {fileID: 494372}
  m_Father: {fileID: 483740}
  m_RootOrder: 0
  m_LocalEulerAnglesHint: {x: 0, y: 0, z: 0}
--- !u!4 &401776
Transform:
  m_ObjectHideFlags: 1
  m_CorrespondingSourceObject: {fileID: 0}
  m_PrefabInternal: {fileID: 100100000}
  m_GameObject: {fileID: 147508}
  m_LocalRotation: {x: 0, y: 0, z: 0, w: 1}
  m_LocalPosition: {x: -0, y: 6.2414274, z: 0}
  m_LocalScale: {x: 1, y: 1, z: 1}
  m_Children: []
  m_Father: {fileID: 429826}
  m_RootOrder: 0
  m_LocalEulerAnglesHint: {x: 0, y: 0, z: 0}
--- !u!4 &403294
Transform:
  m_ObjectHideFlags: 1
  m_CorrespondingSourceObject: {fileID: 0}
  m_PrefabInternal: {fileID: 100100000}
  m_GameObject: {fileID: 198774}
  m_LocalRotation: {x: -0.000000012223608, y: -0.000004991947, z: 0.00000046117927,
    w: 1}
  m_LocalPosition: {x: -0.000001521781, y: 6.2084913, z: 0.00000005960464}
  m_LocalScale: {x: 1, y: 1.0000001, z: 1}
  m_Children:
  - {fileID: 432244}
  m_Father: {fileID: 471422}
  m_RootOrder: 0
  m_LocalEulerAnglesHint: {x: 0, y: 0, z: 0}
--- !u!4 &406844
Transform:
  m_ObjectHideFlags: 1
  m_CorrespondingSourceObject: {fileID: 0}
  m_PrefabInternal: {fileID: 100100000}
  m_GameObject: {fileID: 116234}
  m_LocalRotation: {x: -0.007850627, y: -0.0000005901344, z: 0.000014438815, w: 0.9999692}
  m_LocalPosition: {x: -1.6871125e-10, y: 9.702705, z: -0.15236208}
  m_LocalScale: {x: 1, y: 1.0000002, z: 1.0000002}
  m_Children:
  - {fileID: 483740}
  m_Father: {fileID: 495394}
  m_RootOrder: 2
  m_LocalEulerAnglesHint: {x: -0.8997, y: -0.0001, z: 0.0016}
--- !u!4 &407024
Transform:
  m_ObjectHideFlags: 1
  m_CorrespondingSourceObject: {fileID: 0}
  m_PrefabInternal: {fileID: 100100000}
  m_GameObject: {fileID: 123458}
  m_LocalRotation: {x: 1.6653348e-16, y: 4.387005e-19, z: 9.1814114e-20, w: 1}
  m_LocalPosition: {x: -1.5957928e-11, y: 20.432783, z: 8.657652}
  m_LocalScale: {x: 1, y: 1, z: 1}
  m_Children:
  - {fileID: 480096}
  m_Father: {fileID: 485740}
  m_RootOrder: 0
  m_LocalEulerAnglesHint: {x: 0, y: 0, z: 0}
--- !u!4 &407070
Transform:
  m_ObjectHideFlags: 1
  m_CorrespondingSourceObject: {fileID: 0}
  m_PrefabInternal: {fileID: 100100000}
  m_GameObject: {fileID: 135410}
  m_LocalRotation: {x: -0.000032394124, y: 0.0055751884, z: 0.99996626, w: 0.0060344283}
  m_LocalPosition: {x: -10.920647, y: -5.3976464, z: 1.9481007}
  m_LocalScale: {x: 1.0000803, y: 1.0000002, z: 1.0000001}
  m_Children:
  - {fileID: 411146}
  m_Father: {fileID: 495394}
  m_RootOrder: 0
  m_LocalEulerAnglesHint: {x: -0.6389, y: 0.0001, z: 179.3085}
--- !u!4 &408066
Transform:
  m_ObjectHideFlags: 1
  m_CorrespondingSourceObject: {fileID: 0}
  m_PrefabInternal: {fileID: 100100000}
  m_GameObject: {fileID: 181480}
  m_LocalRotation: {x: 0.00010331243, y: 0.003032002, z: -0.10960612, w: 0.9939705}
  m_LocalPosition: {x: 0.4479191, y: 3.0840445, z: 0.0000027716158}
  m_LocalScale: {x: 1, y: 1, z: 1}
  m_Children:
  - {fileID: 489072}
  m_Father: {fileID: 417366}
  m_RootOrder: 0
  m_LocalEulerAnglesHint: {x: 0.0499, y: 0.3441, z: -12.585099}
--- !u!4 &408704
Transform:
  m_ObjectHideFlags: 1
  m_CorrespondingSourceObject: {fileID: 0}
  m_PrefabInternal: {fileID: 100100000}
  m_GameObject: {fileID: 126632}
  m_LocalRotation: {x: 0.48199156, y: 0.0065317303, z: 0.004921196, w: 0.8761377}
  m_LocalPosition: {x: 0.0000007188318, y: 42.515278, z: -0.0000045327465}
  m_LocalScale: {x: 1.0000006, y: 1.0000002, z: 0.9999993}
  m_Children:
  - {fileID: 428512}
  m_Father: {fileID: 432614}
  m_RootOrder: 0
  m_LocalEulerAnglesHint: {x: 57.6203, y: 1.7322999, z: 1.5964999}
--- !u!4 &408936
Transform:
  m_ObjectHideFlags: 1
  m_CorrespondingSourceObject: {fileID: 0}
  m_PrefabInternal: {fileID: 100100000}
  m_GameObject: {fileID: 175618}
  m_LocalRotation: {x: 0.0000013946006, y: 0.00000016396328, z: -0.000073763025, w: 1}
  m_LocalPosition: {x: 0.00017850239, y: 2.8926263, z: -0.0000014435499}
  m_LocalScale: {x: 1.0000001, y: 1.0000004, z: 1.0000002}
  m_Children:
  - {fileID: 425588}
  m_Father: {fileID: 475492}
  m_RootOrder: 0
  m_LocalEulerAnglesHint: {x: 0.0002, y: 0, z: -0.0084}
--- !u!4 &410084
Transform:
  m_ObjectHideFlags: 1
  m_CorrespondingSourceObject: {fileID: 0}
  m_PrefabInternal: {fileID: 100100000}
  m_GameObject: {fileID: 164580}
  m_LocalRotation: {x: -0.00057633274, y: -0.00008826893, z: -0.057947285, w: 0.9983195}
  m_LocalPosition: {x: 3.306355, y: 10.214577, z: 0.16185996}
  m_LocalScale: {x: 0.9999994, y: 1.0000005, z: 0.99999946}
  m_Children:
  - {fileID: 483334}
  m_Father: {fileID: 416924}
  m_RootOrder: 0
  m_LocalEulerAnglesHint: {x: -0.0665, y: -0.0063, z: -6.644}
--- !u!4 &411146
Transform:
  m_ObjectHideFlags: 1
  m_CorrespondingSourceObject: {fileID: 0}
  m_PrefabInternal: {fileID: 100100000}
  m_GameObject: {fileID: 161318}
  m_LocalRotation: {x: -0.045484938, y: -0.0005017409, z: 0.01265651, w: 0.99888474}
  m_LocalPosition: {x: 0.0000013736861, y: 46.4423, z: -0.00000012147937}
  m_LocalScale: {x: 0.9999995, y: 0.9999993, z: 0.99999976}
  m_Children:
  - {fileID: 474028}
  m_Father: {fileID: 407070}
  m_RootOrder: 0
  m_LocalEulerAnglesHint: {x: -5.2128, y: -0.1239, z: 1.4575}
--- !u!4 &415168
Transform:
  m_ObjectHideFlags: 1
  m_CorrespondingSourceObject: {fileID: 0}
  m_PrefabInternal: {fileID: 100100000}
  m_GameObject: {fileID: 105956}
  m_LocalRotation: {x: 0.00000003154195, y: 0.0000000055908194, z: 0.0000000044438986,
    w: 1}
  m_LocalPosition: {x: -0.00041358636, y: 2.9665046, z: 0.000024707986}
  m_LocalScale: {x: 1, y: 1, z: 1}
  m_Children:
  - {fileID: 484926}
  m_Father: {fileID: 420404}
  m_RootOrder: 0
  m_LocalEulerAnglesHint: {x: 0, y: 0, z: 0}
--- !u!4 &416924
Transform:
  m_ObjectHideFlags: 1
  m_CorrespondingSourceObject: {fileID: 0}
  m_PrefabInternal: {fileID: 100100000}
  m_GameObject: {fileID: 148250}
  m_LocalRotation: {x: -0.000122516, y: -0.012010347, z: 0.057643548, w: 0.99826497}
  m_LocalPosition: {x: -0.00000031946908, y: 29.885254, z: -0.0000056620333}
  m_LocalScale: {x: 1.0000005, y: 1, z: 1.0000001}
  m_Children:
  - {fileID: 410084}
  - {fileID: 491886}
  - {fileID: 440378}
  - {fileID: 447890}
  - {fileID: 400286}
  m_Father: {fileID: 427584}
  m_RootOrder: 0
  m_LocalEulerAnglesHint: {x: 0.065299995, y: -1.3749, z: 6.6088}
--- !u!4 &417366
Transform:
  m_ObjectHideFlags: 1
  m_CorrespondingSourceObject: {fileID: 0}
  m_PrefabInternal: {fileID: 100100000}
  m_GameObject: {fileID: 187290}
  m_LocalRotation: {x: 0.20649847, y: 0.08570003, z: 0.37565327, w: 0.89938784}
  m_LocalPosition: {x: -2.1773484, y: 2.860778, z: 1.5000123}
  m_LocalScale: {x: 1.0000001, y: 0.9999995, z: 0.9999996}
  m_Children:
  - {fileID: 408066}
  m_Father: {fileID: 492904}
  m_RootOrder: 4
  m_LocalEulerAnglesHint: {x: 17.882, y: 18.9655, z: 48.349}
--- !u!4 &420404
Transform:
  m_ObjectHideFlags: 1
  m_CorrespondingSourceObject: {fileID: 0}
  m_PrefabInternal: {fileID: 100100000}
  m_GameObject: {fileID: 107966}
  m_LocalRotation: {x: 0.0000019568083, y: -0.000005436704, z: -0.00003674567, w: 1}
  m_LocalPosition: {x: -0.00015043419, y: 3.256652, z: 0.000012098185}
  m_LocalScale: {x: 1.0000001, y: 0.99999994, z: 0.9999996}
  m_Children:
  - {fileID: 415168}
  m_Father: {fileID: 440576}
  m_RootOrder: 0
  m_LocalEulerAnglesHint: {x: 0.0002, y: -0.00059999997, z: -0.0042}
--- !u!4 &420764
Transform:
  m_ObjectHideFlags: 1
  m_CorrespondingSourceObject: {fileID: 0}
  m_PrefabInternal: {fileID: 100100000}
  m_GameObject: {fileID: 131256}
  m_LocalRotation: {x: -0.0000004923334, y: 0.000086348875, z: -0.001940938, w: 0.99999815}
  m_LocalPosition: {x: 0.0041791643, y: 3.861288, z: -0.000013139098}
  m_LocalScale: {x: 1, y: 1.0000007, z: 0.99999994}
  m_Children:
  - {fileID: 487808}
  m_Father: {fileID: 471210}
  m_RootOrder: 0
  m_LocalEulerAnglesHint: {x: 0, y: 0.0099, z: -0.2224}
--- !u!4 &420800
Transform:
  m_ObjectHideFlags: 1
  m_CorrespondingSourceObject: {fileID: 0}
  m_PrefabInternal: {fileID: 100100000}
  m_GameObject: {fileID: 151946}
  m_LocalRotation: {x: -0.0000007118655, y: -0.00000040345734, z: -0.00024250762,
    w: 1}
  m_LocalPosition: {x: 0.000864461, y: 3.5615304, z: -0.000015171244}
  m_LocalScale: {x: 1, y: 0.99999994, z: 1}
  m_Children:
  - {fileID: 424576}
  m_Father: {fileID: 460882}
  m_RootOrder: 0
  m_LocalEulerAnglesHint: {x: -0.0001, y: 0, z: -0.0278}
--- !u!4 &423536
Transform:
  m_ObjectHideFlags: 1
  m_CorrespondingSourceObject: {fileID: 0}
  m_PrefabInternal: {fileID: 100100000}
  m_GameObject: {fileID: 147378}
  m_LocalRotation: {x: 0.00008349873, y: -0.003154348, z: 0.13292927, w: 0.9911205}
  m_LocalPosition: {x: -0.4968084, y: 3.0740163, z: 0.000013850628}
  m_LocalScale: {x: 1, y: 1, z: 1.0000001}
  m_Children:
  - {fileID: 472876}
  m_Father: {fileID: 400286}
  m_RootOrder: 0
  m_LocalEulerAnglesHint: {x: 0.057499997, y: -0.357, z: 15.277699}
--- !u!4 &423878
Transform:
  m_ObjectHideFlags: 1
  m_CorrespondingSourceObject: {fileID: 0}
  m_PrefabInternal: {fileID: 100100000}
  m_GameObject: {fileID: 157120}
  m_LocalRotation: {x: 0.0000000027521878, y: -9.31788e-10, z: -0.000000019734088,
    w: 1}
  m_LocalPosition: {x: 0.004042044, y: 2.2874355, z: 0.0000013776297}
  m_LocalScale: {x: 1, y: 1, z: 1}
  m_Children:
  - {fileID: 472062}
  m_Father: {fileID: 435784}
  m_RootOrder: 0
  m_LocalEulerAnglesHint: {x: 0, y: 0, z: 0}
--- !u!4 &424576
Transform:
  m_ObjectHideFlags: 1
  m_CorrespondingSourceObject: {fileID: 0}
  m_PrefabInternal: {fileID: 100100000}
  m_GameObject: {fileID: 113876}
  m_LocalRotation: {x: 0.0000003853574, y: -0.0000024102292, z: 0.000116190175, w: 1}
  m_LocalPosition: {x: -0.00084478216, y: 3.4413192, z: 0.000004537403}
  m_LocalScale: {x: 0.99999994, y: 1, z: 0.9999997}
  m_Children:
  - {fileID: 441126}
  m_Father: {fileID: 420800}
  m_RootOrder: 0
  m_LocalEulerAnglesHint: {x: 0, y: -0.00029999999, z: 0.0133}
--- !u!4 &425518
Transform:
  m_ObjectHideFlags: 1
  m_CorrespondingSourceObject: {fileID: 0}
  m_PrefabInternal: {fileID: 100100000}
  m_GameObject: {fileID: 177234}
  m_LocalRotation: {x: 0.00000000842556, y: 0.000000092695934, z: 0.00000008829295,
    w: 1}
  m_LocalPosition: {x: 0.008346348, y: 2.918003, z: -0.0000014519318}
  m_LocalScale: {x: 1, y: 0.99999994, z: 0.99999994}
  m_Children:
  - {fileID: 463696}
  m_Father: {fileID: 472374}
  m_RootOrder: 0
  m_LocalEulerAnglesHint: {x: 0, y: 0, z: 0}
--- !u!4 &425588
Transform:
  m_ObjectHideFlags: 1
  m_CorrespondingSourceObject: {fileID: 0}
  m_PrefabInternal: {fileID: 100100000}
  m_GameObject: {fileID: 114466}
  m_LocalRotation: {x: 0.00000000583043, y: -0.0000000037147578, z: 0.000000024821702,
    w: 1}
  m_LocalPosition: {x: -0.00018684844, y: 2.5621476, z: 0.0000047087665}
  m_LocalScale: {x: 1, y: 1, z: 0.99999994}
  m_Children:
  - {fileID: 452546}
  m_Father: {fileID: 408936}
  m_RootOrder: 0
  m_LocalEulerAnglesHint: {x: 0, y: 0, z: 0}
--- !u!4 &427584
Transform:
  m_ObjectHideFlags: 1
  m_CorrespondingSourceObject: {fileID: 0}
  m_PrefabInternal: {fileID: 100100000}
  m_GameObject: {fileID: 160934}
  m_LocalRotation: {x: 0.0000014798451, y: 0.00010023918, z: 0.00000030412875, w: 1}
  m_LocalPosition: {x: -0.00000024976904, y: 28.782936, z: 0.000004796884}
  m_LocalScale: {x: 1.0000001, y: 0.99999964, z: 0.9999999}
  m_Children:
  - {fileID: 416924}
  m_Father: {fileID: 429102}
  m_RootOrder: 0
  m_LocalEulerAnglesHint: {x: 0.0002, y: 0.0115, z: 0}
--- !u!4 &428512
Transform:
  m_ObjectHideFlags: 1
  m_CorrespondingSourceObject: {fileID: 0}
  m_PrefabInternal: {fileID: 100100000}
  m_GameObject: {fileID: 113220}
  m_LocalRotation: {x: 0.30412865, y: -0.055317834, z: 0.017672166, w: 0.9508593}
  m_LocalPosition: {x: 0.000000012107193, y: 17.102888, z: 0.0000004842877}
  m_LocalScale: {x: 0.9999993, y: 1.0000002, z: 0.9999997}
  m_Children:
  - {fileID: 429826}
  m_Father: {fileID: 408704}
  m_RootOrder: 0
  m_LocalEulerAnglesHint: {x: 35.473198, y: -6.66, z: -0.0028}
--- !u!4 &428524
Transform:
  m_ObjectHideFlags: 1
  m_CorrespondingSourceObject: {fileID: 0}
  m_PrefabInternal: {fileID: 100100000}
  m_GameObject: {fileID: 148002}
  m_LocalRotation: {x: 0.00000047429356, y: -0.0000044267067, z: -0.00016212398, w: 1}
  m_LocalPosition: {x: -0.00060562877, y: 4.0604153, z: 0.000001076325}
  m_LocalScale: {x: 1, y: 0.9999993, z: 1.0000004}
  m_Children:
  - {fileID: 471662}
  m_Father: {fileID: 491886}
  m_RootOrder: 0
  m_LocalEulerAnglesHint: {x: 0.0001, y: -0.00049999997, z: -0.0186}
--- !u!4 &429102
Transform:
  m_ObjectHideFlags: 1
  m_CorrespondingSourceObject: {fileID: 0}
  m_PrefabInternal: {fileID: 100100000}
  m_GameObject: {fileID: 118554}
  m_LocalRotation: {x: -0.1476417, y: 0.007941283, z: -0.00621769, w: 0.9889895}
  m_LocalPosition: {x: -0.00000041723249, y: 12.885075, z: 0.000009480863}
  m_LocalScale: {x: 0.9999999, y: 1.0000001, z: 1.0000001}
  m_Children:
  - {fileID: 427584}
  m_Father: {fileID: 499826}
  m_RootOrder: 0
  m_LocalEulerAnglesHint: {x: -16.973799, y: 1.051, z: -0.87729996}
--- !u!4 &429400
Transform:
  m_ObjectHideFlags: 1
  m_CorrespondingSourceObject: {fileID: 0}
  m_PrefabInternal: {fileID: 100100000}
  m_GameObject: {fileID: 155488}
  m_LocalRotation: {x: -0.006308148, y: 0.000009262221, z: 0.052337017, w: 0.9986096}
  m_LocalPosition: {x: -3.2609918, y: 10.302796, z: 0.20424767}
  m_LocalScale: {x: 1, y: 0.9999997, z: 0.99999976}
  m_Children:
  - {fileID: 429606}
  m_Father: {fileID: 492904}
  m_RootOrder: 0
  m_LocalEulerAnglesHint: {x: -0.7219, y: -0.0367, z: 6.0004997}
--- !u!4 &429606
Transform:
  m_ObjectHideFlags: 1
  m_CorrespondingSourceObject: {fileID: 0}
  m_PrefabInternal: {fileID: 100100000}
  m_GameObject: {fileID: 175548}
  m_LocalRotation: {x: -0.00000036630905, y: 0.00003379532, z: -0.00061720755, w: 0.9999998}
  m_LocalPosition: {x: -0.002191752, y: 3.5275145, z: -0.0000073621045}
  m_LocalScale: {x: 0.99999994, y: 0.99999964, z: 1.0000005}
  m_Children:
  - {fileID: 472374}
  m_Father: {fileID: 429400}
  m_RootOrder: 0
  m_LocalEulerAnglesHint: {x: 0, y: 0.0039, z: -0.0707}
--- !u!4 &429826
Transform:
  m_ObjectHideFlags: 1
  m_CorrespondingSourceObject: {fileID: 0}
  m_PrefabInternal: {fileID: 100100000}
  m_GameObject: {fileID: 150556}
  m_LocalRotation: {x: -0.000000027357602, y: 0.000034474506, z: -0.0000000888831,
    w: 1}
  m_LocalPosition: {x: 0.000000996515, y: 6.241361, z: -0.00000017881392}
  m_LocalScale: {x: 1, y: 1, z: 0.99999994}
  m_Children:
  - {fileID: 401776}
  m_Father: {fileID: 428512}
  m_RootOrder: 0
  m_LocalEulerAnglesHint: {x: 0, y: 0.0039999997, z: 0}
--- !u!4 &432244
Transform:
  m_ObjectHideFlags: 1
  m_CorrespondingSourceObject: {fileID: 0}
  m_PrefabInternal: {fileID: 100100000}
  m_GameObject: {fileID: 103946}
  m_LocalRotation: {x: 0, y: 0, z: 0, w: 1}
  m_LocalPosition: {x: -0, y: 6.20849, z: 0}
  m_LocalScale: {x: 1, y: 1, z: 1}
  m_Children: []
  m_Father: {fileID: 403294}
  m_RootOrder: 0
  m_LocalEulerAnglesHint: {x: 0, y: 0, z: 0}
--- !u!4 &432614
Transform:
  m_ObjectHideFlags: 1
  m_CorrespondingSourceObject: {fileID: 0}
  m_PrefabInternal: {fileID: 100100000}
  m_GameObject: {fileID: 124400}
  m_LocalRotation: {x: -0.045270246, y: 0.00038048133, z: -0.012654801, w: 0.9988946}
  m_LocalPosition: {x: 0.00000036699382, y: 46.442978, z: 0.00000006676418}
  m_LocalScale: {x: 0.99999946, y: 1.0000006, z: 0.99999976}
  m_Children:
  - {fileID: 408704}
  m_Father: {fileID: 478926}
  m_RootOrder: 0
  m_LocalEulerAnglesHint: {x: -5.1884, y: 0.1096, z: -1.4567}
--- !u!4 &433848
Transform:
  m_ObjectHideFlags: 1
  m_CorrespondingSourceObject: {fileID: 0}
  m_PrefabInternal: {fileID: 100100000}
  m_GameObject: {fileID: 118618}
  m_LocalRotation: {x: 0.00000008122751, y: -0.0000000018335409, z: 1.1508664e-24,
    w: 1}
  m_LocalPosition: {x: 0, y: 0, z: 0}
  m_LocalScale: {x: 0.01, y: 0.009999999, z: 0.01}
  m_Children: []
  m_Father: {fileID: 476752}
  m_RootOrder: 2
  m_LocalEulerAnglesHint: {x: 0, y: 0, z: 0}
--- !u!4 &435784
Transform:
  m_ObjectHideFlags: 1
  m_CorrespondingSourceObject: {fileID: 0}
  m_PrefabInternal: {fileID: 100100000}
  m_GameObject: {fileID: 140658}
  m_LocalRotation: {x: -0.00000036671616, y: 0.00006196149, z: 0.00089296716, w: 0.99999964}
  m_LocalPosition: {x: -0.00007703411, y: 2.6718638, z: 0.000018784818}
  m_LocalScale: {x: 0.9999999, y: 1.0000007, z: 1.0000002}
  m_Children:
  - {fileID: 423878}
  m_Father: {fileID: 451804}
  m_RootOrder: 0
  m_LocalEulerAnglesHint: {x: 0, y: 0.0071, z: 0.102299996}
--- !u!4 &438972
Transform:
  m_ObjectHideFlags: 1
  m_CorrespondingSourceObject: {fileID: 0}
  m_PrefabInternal: {fileID: 100100000}
  m_GameObject: {fileID: 159464}
  m_LocalRotation: {x: 0, y: 0, z: 0, w: 1}
  m_LocalPosition: {x: -0, y: 3.6506531, z: 0}
  m_LocalScale: {x: 1, y: 1, z: 1}
  m_Children: []
  m_Father: {fileID: 487808}
  m_RootOrder: 0
  m_LocalEulerAnglesHint: {x: 0, y: 0, z: 0}
--- !u!4 &440378
Transform:
  m_ObjectHideFlags: 1
  m_CorrespondingSourceObject: {fileID: 0}
  m_PrefabInternal: {fileID: 100100000}
  m_GameObject: {fileID: 155060}
  m_LocalRotation: {x: -0.0004632812, y: 0.0018745903, z: -0.05825882, w: 0.99829966}
  m_LocalPosition: {x: -3.1376708, y: 9.433374, z: 0.09271452}
  m_LocalScale: {x: 0.99999994, y: 0.9999999, z: 0.99999994}
  m_Children:
  - {fileID: 451804}
  m_Father: {fileID: 416924}
  m_RootOrder: 2
  m_LocalEulerAnglesHint: {x: -0.0405, y: 0.2175, z: -6.6798}
--- !u!4 &440576
Transform:
  m_ObjectHideFlags: 1
  m_CorrespondingSourceObject: {fileID: 0}
  m_PrefabInternal: {fileID: 100100000}
  m_GameObject: {fileID: 189822}
  m_LocalRotation: {x: -0.0000003780744, y: -0.0000008826013, z: -0.00012194871, w: 1}
  m_LocalPosition: {x: 0.00056505756, y: 3.2887826, z: -0.00001606815}
  m_LocalScale: {x: 1, y: 0.9999999, z: 1.0000002}
  m_Children:
  - {fileID: 420404}
  m_Father: {fileID: 447890}
  m_RootOrder: 0
  m_LocalEulerAnglesHint: {x: 0, y: -0.0001, z: -0.0139999995}
--- !u!4 &441126
Transform:
  m_ObjectHideFlags: 1
  m_CorrespondingSourceObject: {fileID: 0}
  m_PrefabInternal: {fileID: 100100000}
  m_GameObject: {fileID: 109040}
  m_LocalRotation: {x: -0.000000040627246, y: -0.000000007421774, z: 0.0000000014611032,
    w: 1}
  m_LocalPosition: {x: -0.000018931923, y: 3.1309967, z: -0.000009484588}
  m_LocalScale: {x: 1, y: 1, z: 0.99999994}
  m_Children:
  - {fileID: 444194}
  m_Father: {fileID: 424576}
  m_RootOrder: 0
  m_LocalEulerAnglesHint: {x: 0, y: 0, z: 0}
--- !u!4 &444194
Transform:
  m_ObjectHideFlags: 1
  m_CorrespondingSourceObject: {fileID: 0}
  m_PrefabInternal: {fileID: 100100000}
  m_GameObject: {fileID: 173434}
  m_LocalRotation: {x: 0, y: 0, z: 0, w: 1}
  m_LocalPosition: {x: -0, y: 3.1309974, z: 0}
  m_LocalScale: {x: 1, y: 1, z: 1}
  m_Children: []
  m_Father: {fileID: 441126}
  m_RootOrder: 0
  m_LocalEulerAnglesHint: {x: 0, y: 0, z: 0}
--- !u!4 &444788
Transform:
  m_ObjectHideFlags: 1
  m_CorrespondingSourceObject: {fileID: 0}
  m_PrefabInternal: {fileID: 100100000}
  m_GameObject: {fileID: 152918}
  m_LocalRotation: {x: 0.00785081, y: 4.084771e-14, z: 2.2770148e-13, w: 0.9999692}
  m_LocalPosition: {x: -1.8170866e-11, y: 14.5558195, z: -0.0000001788139}
  m_LocalScale: {x: 1, y: 0.9999996, z: 0.99999964}
  m_Children:
  - {fileID: 485740}
  m_Father: {fileID: 401700}
  m_RootOrder: 1
  m_LocalEulerAnglesHint: {x: 0.89959997, y: 0, z: 0}
--- !u!4 &447476
Transform:
  m_ObjectHideFlags: 1
  m_CorrespondingSourceObject: {fileID: 0}
  m_PrefabInternal: {fileID: 100100000}
  m_GameObject: {fileID: 170298}
  m_LocalRotation: {x: -0.000000001862645, y: -0.0000000037252899, z: 0.000000028870998,
    w: 1}
  m_LocalPosition: {x: -0.18034028, y: 3.4578032, z: -0.00000989437}
  m_LocalScale: {x: 1.0000001, y: 1, z: 1}
  m_Children:
  - {fileID: 468826}
  m_Father: {fileID: 489072}
  m_RootOrder: 0
  m_LocalEulerAnglesHint: {x: 0, y: 0, z: 0}
--- !u!4 &447890
Transform:
  m_ObjectHideFlags: 1
  m_CorrespondingSourceObject: {fileID: 0}
  m_PrefabInternal: {fileID: 100100000}
  m_GameObject: {fileID: 128380}
  m_LocalRotation: {x: -0.0007830648, y: -0.003655989, z: -0.05754699, w: 0.99833584}
  m_LocalPosition: {x: -1.3299953, y: 10.050946, z: -0.0104290685}
  m_LocalScale: {x: 0.9999994, y: 1.0000001, z: 0.99999976}
  m_Children:
  - {fileID: 440576}
  m_Father: {fileID: 416924}
  m_RootOrder: 3
  m_LocalEulerAnglesHint: {x: -0.1136, y: -0.4131, z: -6.5976996}
--- !u!4 &451804
Transform:
  m_ObjectHideFlags: 1
  m_CorrespondingSourceObject: {fileID: 0}
  m_PrefabInternal: {fileID: 100100000}
  m_GameObject: {fileID: 166498}
  m_LocalRotation: {x: -0.0000011046868, y: 0.000015655518, z: 0.0005995122, w: 0.9999998}
  m_LocalPosition: {x: -0.0039647813, y: 3.2343886, z: -0.000012723379}
  m_LocalScale: {x: 1.0000001, y: 0.9999998, z: 0.9999997}
  m_Children:
  - {fileID: 435784}
  m_Father: {fileID: 440378}
  m_RootOrder: 0
  m_LocalEulerAnglesHint: {x: -0.0001, y: 0.0018, z: 0.0687}
--- !u!4 &452546
Transform:
  m_ObjectHideFlags: 1
  m_CorrespondingSourceObject: {fileID: 0}
  m_PrefabInternal: {fileID: 100100000}
  m_GameObject: {fileID: 128358}
  m_LocalRotation: {x: 0, y: 0, z: 0, w: 1}
  m_LocalPosition: {x: -0, y: 2.562149, z: 0}
  m_LocalScale: {x: 1, y: 1, z: 1}
  m_Children: []
  m_Father: {fileID: 425588}
  m_RootOrder: 0
  m_LocalEulerAnglesHint: {x: 0, y: 0, z: 0}
--- !u!4 &453036
Transform:
  m_ObjectHideFlags: 1
  m_CorrespondingSourceObject: {fileID: 0}
  m_PrefabInternal: {fileID: 100100000}
  m_GameObject: {fileID: 171674}
  m_LocalRotation: {x: 0.00000029828897, y: -0.0000003028567, z: 0.00006260211, w: 1}
  m_LocalPosition: {x: 0.0010102539, y: 3.357671, z: 0.0000006369955}
  m_LocalScale: {x: 1, y: 0.99999976, z: 1}
  m_Children:
  - {fileID: 490432}
  m_Father: {fileID: 483334}
  m_RootOrder: 0
  m_LocalEulerAnglesHint: {x: 0, y: 0, z: 0.0072}
--- !u!4 &456948
Transform:
  m_ObjectHideFlags: 1
  m_CorrespondingSourceObject: {fileID: 0}
  m_PrefabInternal: {fileID: 100100000}
  m_GameObject: {fileID: 174024}
  m_LocalRotation: {x: 0.00000008122751, y: -0.0000000018335409, z: 1.1508664e-24,
    w: 1}
  m_LocalPosition: {x: 0, y: 0, z: 0}
  m_LocalScale: {x: 0.01, y: 0.009999999, z: 0.01}
  m_Children: []
  m_Father: {fileID: 476752}
  m_RootOrder: 0
  m_LocalEulerAnglesHint: {x: 0, y: 0, z: 0}
--- !u!4 &459626
Transform:
  m_ObjectHideFlags: 1
  m_CorrespondingSourceObject: {fileID: 0}
  m_PrefabInternal: {fileID: 100100000}
  m_GameObject: {fileID: 114676}
  m_LocalRotation: {x: 0.00000005096203, y: -1.3542201e-10, z: -0.0000000016708129,
    w: 1}
  m_LocalPosition: {x: 0.0024477316, y: 3.6274889, z: -0.0000036316922}
  m_LocalScale: {x: 1, y: 1.0000001, z: 1}
  m_Children:
  - {fileID: 480732}
  m_Father: {fileID: 471662}
  m_RootOrder: 0
  m_LocalEulerAnglesHint: {x: 0, y: 0, z: 0}
--- !u!4 &460882
Transform:
  m_ObjectHideFlags: 1
  m_CorrespondingSourceObject: {fileID: 0}
  m_PrefabInternal: {fileID: 100100000}
  m_GameObject: {fileID: 136786}
  m_LocalRotation: {x: -0.0064634937, y: 0.0029677008, z: 0.052755825, w: 0.9985821}
  m_LocalPosition: {x: 1.0770532, y: 9.615877, z: -0.04499008}
  m_LocalScale: {x: 0.9999992, y: 0.99999964, z: 1}
  m_Children:
  - {fileID: 420800}
  m_Father: {fileID: 492904}
  m_RootOrder: 3
  m_LocalEulerAnglesHint: {x: -0.7576, y: 0.3005, z: 6.0463}
--- !u!4 &463696
Transform:
  m_ObjectHideFlags: 1
  m_CorrespondingSourceObject: {fileID: 0}
  m_PrefabInternal: {fileID: 100100000}
  m_GameObject: {fileID: 136624}
  m_LocalRotation: {x: 0, y: 0, z: 0, w: 1}
  m_LocalPosition: {x: -0, y: 2.9180162, z: 0}
  m_LocalScale: {x: 1, y: 1, z: 1}
  m_Children: []
  m_Father: {fileID: 425518}
  m_RootOrder: 0
  m_LocalEulerAnglesHint: {x: 0, y: 0, z: 0}
--- !u!4 &466952
Transform:
  m_ObjectHideFlags: 1
  m_CorrespondingSourceObject: {fileID: 0}
  m_PrefabInternal: {fileID: 100100000}
  m_GameObject: {fileID: 187210}
  m_LocalRotation: {x: 0, y: 0, z: 0, w: 1}
  m_LocalPosition: {x: -0, y: 3.07454, z: 0}
  m_LocalScale: {x: 1, y: 1, z: 1}
  m_Children: []
  m_Father: {fileID: 490432}
  m_RootOrder: 0
  m_LocalEulerAnglesHint: {x: 0, y: 0, z: 0}
--- !u!4 &468826
Transform:
  m_ObjectHideFlags: 1
  m_CorrespondingSourceObject: {fileID: 0}
  m_PrefabInternal: {fileID: 100100000}
  m_GameObject: {fileID: 119470}
  m_LocalRotation: {x: 0, y: 0, z: 0, w: 1}
  m_LocalPosition: {x: -0, y: 3.4625075, z: 0}
  m_LocalScale: {x: 1, y: 1, z: 1}
  m_Children: []
  m_Father: {fileID: 447476}
  m_RootOrder: 0
  m_LocalEulerAnglesHint: {x: 0, y: 0, z: 0}
--- !u!4 &469134
Transform:
  m_ObjectHideFlags: 1
  m_CorrespondingSourceObject: {fileID: 0}
  m_PrefabInternal: {fileID: 100100000}
  m_GameObject: {fileID: 172218}
  m_LocalRotation: {x: 0.00000016583917, y: -0.0000813696, z: -0.0000003511705, w: 1}
  m_LocalPosition: {x: 0.0000005218607, y: 28.777094, z: -0.00000024959442}
  m_LocalScale: {x: 0.9999995, y: 1.0000006, z: 1.0000001}
  m_Children:
  - {fileID: 492904}
  m_Father: {fileID: 473744}
  m_RootOrder: 0
  m_LocalEulerAnglesHint: {x: 0, y: -0.0093, z: 0}
--- !u!4 &470186
Transform:
  m_ObjectHideFlags: 1
  m_CorrespondingSourceObject: {fileID: 0}
  m_PrefabInternal: {fileID: 100100000}
  m_GameObject: {fileID: 195390}
  m_LocalRotation: {x: 0.000000011175872, y: 0.000000011175872, z: 0.000000056810677,
    w: 1}
  m_LocalPosition: {x: 0.12360834, y: 3.4833553, z: -0.0000096559515}
  m_LocalScale: {x: 1, y: 1, z: 0.99999994}
  m_Children:
  - {fileID: 479264}
  m_Father: {fileID: 472876}
  m_RootOrder: 0
  m_LocalEulerAnglesHint: {x: 0, y: 0, z: 0}
--- !u!4 &471210
Transform:
  m_ObjectHideFlags: 1
  m_CorrespondingSourceObject: {fileID: 0}
  m_PrefabInternal: {fileID: 100100000}
  m_GameObject: {fileID: 157268}
  m_LocalRotation: {x: -0.0000010921335, y: -0.000014545862, z: -0.00018764834, w: 1}
  m_LocalPosition: {x: 0.006039291, y: 4.100815, z: 0.000013880431}
  m_LocalScale: {x: 1, y: 0.9999995, z: 0.9999998}
  m_Children:
  - {fileID: 420764}
  m_Father: {fileID: 480490}
  m_RootOrder: 0
  m_LocalEulerAnglesHint: {x: -0.0001, y: -0.0016999999, z: -0.021499999}
--- !u!4 &471422
Transform:
  m_ObjectHideFlags: 1
  m_CorrespondingSourceObject: {fileID: 0}
  m_PrefabInternal: {fileID: 100100000}
  m_GameObject: {fileID: 160914}
  m_LocalRotation: {x: 0.30737466, y: 0.05506234, z: -0.01781606, w: 0.94982713}
  m_LocalPosition: {x: -0.00000046880447, y: 16.945314, z: -0.00000080466265}
  m_LocalScale: {x: 0.99999976, y: 0.9999996, z: 0.9999995}
  m_Children:
  - {fileID: 403294}
  m_Father: {fileID: 474028}
  m_RootOrder: 0
  m_LocalEulerAnglesHint: {x: 35.8643, y: 6.6356997, z: 0.0004}
--- !u!4 &471662
Transform:
  m_ObjectHideFlags: 1
  m_CorrespondingSourceObject: {fileID: 0}
  m_PrefabInternal: {fileID: 100100000}
  m_GameObject: {fileID: 150208}
  m_LocalRotation: {x: 0.0000016969184, y: -0.000004723498, z: 0.0005666729, w: 0.9999999}
  m_LocalPosition: {x: -0.0018412619, y: 3.8137584, z: 0.0000071693207}
  m_LocalScale: {x: 0.99999994, y: 1.0000006, z: 0.99999976}
  m_Children:
  - {fileID: 459626}
  m_Father: {fileID: 428524}
  m_RootOrder: 0
  m_LocalEulerAnglesHint: {x: 0.0002, y: -0.00049999997, z: 0.064899996}
--- !u!4 &472062
Transform:
  m_ObjectHideFlags: 1
  m_CorrespondingSourceObject: {fileID: 0}
  m_PrefabInternal: {fileID: 100100000}
  m_GameObject: {fileID: 176932}
  m_LocalRotation: {x: 0, y: 0, z: 0, w: 1}
  m_LocalPosition: {x: -0, y: 2.2874296, z: 0}
  m_LocalScale: {x: 1, y: 1, z: 1}
  m_Children: []
  m_Father: {fileID: 423878}
  m_RootOrder: 0
  m_LocalEulerAnglesHint: {x: 0, y: 0, z: 0}
--- !u!4 &472092
Transform:
  m_ObjectHideFlags: 1
  m_CorrespondingSourceObject: {fileID: 0}
  m_PrefabInternal: {fileID: 100100000}
  m_GameObject: {fileID: 199726}
  m_LocalRotation: {x: 0, y: 0, z: 0, w: 1}
  m_LocalPosition: {x: -5.1628757, y: -5.168567, z: -4.8970394}
  m_LocalScale: {x: 1, y: 1, z: 1}
  m_Children:
  - {fileID: 490442}
  - {fileID: 476752}
  m_Father: {fileID: 0}
  m_RootOrder: 0
  m_LocalEulerAnglesHint: {x: 0, y: 0, z: 0}
--- !u!4 &472374
Transform:
  m_ObjectHideFlags: 1
  m_CorrespondingSourceObject: {fileID: 0}
  m_PrefabInternal: {fileID: 100100000}
  m_GameObject: {fileID: 187514}
  m_LocalRotation: {x: -0.00000062817367, y: 0.000036295332, z: 0.002351098, w: 0.99999726}
  m_LocalPosition: {x: -0.006155073, y: 3.336971, z: 0.0000052740793}
  m_LocalScale: {x: 0.99999994, y: 1.0000004, z: 1}
  m_Children:
  - {fileID: 425518}
  m_Father: {fileID: 429606}
  m_RootOrder: 0
  m_LocalEulerAnglesHint: {x: -0.0001, y: 0.0042, z: 0.2694}
--- !u!4 &472876
Transform:
  m_ObjectHideFlags: 1
  m_CorrespondingSourceObject: {fileID: 0}
  m_PrefabInternal: {fileID: 100100000}
  m_GameObject: {fileID: 110772}
  m_LocalRotation: {x: -0.00010924415, y: -0.0015527824, z: -0.035468064, w: 0.9993696}
  m_LocalPosition: {x: 0.37320492, y: 3.4936538, z: 0.00000017881392}
  m_LocalScale: {x: 1, y: 0.9999999, z: 0.99999946}
  m_Children:
  - {fileID: 470186}
  m_Father: {fileID: 423536}
  m_RootOrder: 0
  m_LocalEulerAnglesHint: {x: -0.0188, y: -0.1774, z: -4.0652}
--- !u!4 &473744
Transform:
  m_ObjectHideFlags: 1
  m_CorrespondingSourceObject: {fileID: 0}
  m_PrefabInternal: {fileID: 100100000}
  m_GameObject: {fileID: 134082}
  m_LocalRotation: {x: -0.14777023, y: -0.0063015977, z: 0.00074138155, w: 0.9890014}
  m_LocalPosition: {x: -0.0000004218891, y: 12.885061, z: -0.0000033304093}
  m_LocalScale: {x: 0.99999994, y: 0.99999934, z: 0.9999998}
  m_Children:
  - {fileID: 469134}
  m_Father: {fileID: 494372}
  m_RootOrder: 0
  m_LocalEulerAnglesHint: {x: -16.9946, y: -0.7599, z: 0.1994}
--- !u!4 &474028
Transform:
  m_ObjectHideFlags: 1
  m_CorrespondingSourceObject: {fileID: 0}
  m_PrefabInternal: {fileID: 100100000}
  m_GameObject: {fileID: 142336}
  m_LocalRotation: {x: 0.48034218, y: -0.0065366975, z: -0.0049221627, w: 0.877043}
  m_LocalPosition: {x: 0.00000043968427, y: 42.52575, z: 0.0000009657814}
  m_LocalScale: {x: 1.0000001, y: 1, z: 1.0000004}
  m_Children:
  - {fileID: 471422}
  m_Father: {fileID: 411146}
  m_RootOrder: 0
  m_LocalEulerAnglesHint: {x: 57.4048, y: -1.7227, z: -1.5863999}
--- !u!4 &475492
Transform:
  m_ObjectHideFlags: 1
  m_CorrespondingSourceObject: {fileID: 0}
  m_PrefabInternal: {fileID: 100100000}
  m_GameObject: {fileID: 169992}
  m_LocalRotation: {x: -0.00000052158674, y: 0.0000013498303, z: 0.000034841643, w: 1}
  m_LocalPosition: {x: 0.000006397138, y: 3.5136409, z: 0.0000012964009}
  m_LocalScale: {x: 1, y: 0.9999999, z: 0.999999}
  m_Children:
  - {fileID: 408936}
  m_Father: {fileID: 489298}
  m_RootOrder: 0
  m_LocalEulerAnglesHint: {x: -0.0001, y: 0.0002, z: 0.0039999997}
--- !u!4 &476752
Transform:
  m_ObjectHideFlags: 1
  m_CorrespondingSourceObject: {fileID: 0}
  m_PrefabInternal: {fileID: 100100000}
  m_GameObject: {fileID: 195806}
  m_LocalRotation: {x: 0, y: 0, z: 0, w: 1}
  m_LocalPosition: {x: 0, y: 0, z: 0}
  m_LocalScale: {x: 1, y: 1, z: 1}
  m_Children:
  - {fileID: 456948}
  - {fileID: 480162}
  - {fileID: 433848}
  - {fileID: 490318}
  m_Father: {fileID: 472092}
  m_RootOrder: 1
  m_LocalEulerAnglesHint: {x: 0, y: 0, z: 0}
--- !u!4 &478926
Transform:
  m_ObjectHideFlags: 1
  m_CorrespondingSourceObject: {fileID: 0}
  m_PrefabInternal: {fileID: 100100000}
  m_GameObject: {fileID: 125650}
  m_LocalRotation: {x: 0.00000074489566, y: 0.006958819, z: 0.99995744, w: -0.006058274}
  m_LocalPosition: {x: 10.920648, y: -5.3976483, z: 1.6830438}
  m_LocalScale: {x: 1.0005851, y: 0.99999964, z: 1.0000213}
  m_Children:
  - {fileID: 432614}
  m_Father: {fileID: 495394}
  m_RootOrder: 1
  m_LocalEulerAnglesHint: {x: -0.7974, y: -0.0047, z: -179.3057}
--- !u!4 &479264
Transform:
  m_ObjectHideFlags: 1
  m_CorrespondingSourceObject: {fileID: 0}
  m_PrefabInternal: {fileID: 100100000}
  m_GameObject: {fileID: 177874}
  m_LocalRotation: {x: 0, y: 0, z: 0, w: 1}
  m_LocalPosition: {x: -0, y: 3.4855406, z: 0}
  m_LocalScale: {x: 1, y: 1, z: 1}
  m_Children: []
  m_Father: {fileID: 470186}
  m_RootOrder: 0
  m_LocalEulerAnglesHint: {x: 0, y: 0, z: 0}
--- !u!4 &480096
Transform:
  m_ObjectHideFlags: 1
  m_CorrespondingSourceObject: {fileID: 0}
  m_PrefabInternal: {fileID: 100100000}
  m_GameObject: {fileID: 173718}
  m_LocalRotation: {x: 0, y: 0, z: 0, w: 1}
  m_LocalPosition: {x: -0, y: 22.191282, z: 0}
  m_LocalScale: {x: 1, y: 1, z: 1}
  m_Children: []
  m_Father: {fileID: 407024}
  m_RootOrder: 0
  m_LocalEulerAnglesHint: {x: 0, y: 0, z: 0}
--- !u!4 &480162
Transform:
  m_ObjectHideFlags: 1
  m_CorrespondingSourceObject: {fileID: 0}
  m_PrefabInternal: {fileID: 100100000}
  m_GameObject: {fileID: 177032}
  m_LocalRotation: {x: 0.00000008122751, y: -0.0000000018335409, z: 1.1508664e-24,
    w: 1}
  m_LocalPosition: {x: 0, y: 0, z: 0}
  m_LocalScale: {x: 0.01, y: 0.009999999, z: 0.01}
  m_Children: []
  m_Father: {fileID: 476752}
  m_RootOrder: 1
  m_LocalEulerAnglesHint: {x: 0, y: 0, z: 0}
--- !u!4 &480490
Transform:
  m_ObjectHideFlags: 1
  m_CorrespondingSourceObject: {fileID: 0}
  m_PrefabInternal: {fileID: 100100000}
  m_GameObject: {fileID: 199462}
  m_LocalRotation: {x: -0.006425467, y: 0.002276494, z: 0.053364556, w: 0.99855185}
  m_LocalPosition: {x: -1.0459455, y: 9.890944, z: -0.12528582}
  m_LocalScale: {x: 0.99999934, y: 0.9999995, z: 0.9999997}
  m_Children:
  - {fileID: 471210}
  m_Father: {fileID: 492904}
  m_RootOrder: 1
  m_LocalEulerAnglesHint: {x: -0.7492, y: 0.22119999, z: 6.1166997}
--- !u!4 &480732
Transform:
  m_ObjectHideFlags: 1
  m_CorrespondingSourceObject: {fileID: 0}
  m_PrefabInternal: {fileID: 100100000}
  m_GameObject: {fileID: 121928}
  m_LocalRotation: {x: 0, y: 0, z: 0, w: 1}
  m_LocalPosition: {x: -0, y: 3.6274853, z: 0}
  m_LocalScale: {x: 1, y: 1, z: 1}
  m_Children: []
  m_Father: {fileID: 459626}
  m_RootOrder: 0
  m_LocalEulerAnglesHint: {x: 0, y: 0, z: 0}
--- !u!4 &483334
Transform:
  m_ObjectHideFlags: 1
  m_CorrespondingSourceObject: {fileID: 0}
  m_PrefabInternal: {fileID: 100100000}
  m_GameObject: {fileID: 174140}
  m_LocalRotation: {x: 0.00000022857085, y: 0.000003505723, z: 0.0004560625, w: 0.99999994}
  m_LocalPosition: {x: -0.0022915674, y: 3.742948, z: -0.0000026019695}
  m_LocalScale: {x: 0.99999994, y: 0.99999964, z: 1.0000001}
  m_Children:
  - {fileID: 453036}
  m_Father: {fileID: 410084}
  m_RootOrder: 0
  m_LocalEulerAnglesHint: {x: 0, y: 0.0004, z: 0.0523}
--- !u!4 &483740
Transform:
  m_ObjectHideFlags: 1
  m_CorrespondingSourceObject: {fileID: 0}
  m_PrefabInternal: {fileID: 100100000}
  m_GameObject: {fileID: 176950}
  m_LocalRotation: {x: 0.0000000046566133, y: -5.333572e-14, z: 6.8136756e-13, w: 1}
  m_LocalPosition: {x: 1.02090515e-11, y: 11.321213, z: -0.0000001788139}
  m_LocalScale: {x: 1, y: 0.99999994, z: 0.99999994}
  m_Children:
  - {fileID: 401700}
  m_Father: {fileID: 406844}
  m_RootOrder: 0
  m_LocalEulerAnglesHint: {x: 0, y: 0, z: 0}
--- !u!4 &484926
Transform:
  m_ObjectHideFlags: 1
  m_CorrespondingSourceObject: {fileID: 0}
  m_PrefabInternal: {fileID: 100100000}
  m_GameObject: {fileID: 197372}
  m_LocalRotation: {x: 0, y: 0, z: 0, w: 1}
  m_LocalPosition: {x: -0, y: 2.966476, z: 0}
  m_LocalScale: {x: 1, y: 1, z: 1}
  m_Children: []
  m_Father: {fileID: 415168}
  m_RootOrder: 0
  m_LocalEulerAnglesHint: {x: 0, y: 0, z: 0}
--- !u!4 &485740
Transform:
  m_ObjectHideFlags: 1
  m_CorrespondingSourceObject: {fileID: 0}
  m_PrefabInternal: {fileID: 100100000}
  m_GameObject: {fileID: 104366}
  m_LocalRotation: {x: 1.6653348e-16, y: 4.387005e-19, z: 9.1814114e-20, w: 1}
  m_LocalPosition: {x: -7.3683655e-12, y: 5.6972804, z: 2.4140098}
  m_LocalScale: {x: 1, y: 1, z: 1}
  m_Children:
  - {fileID: 407024}
  m_Father: {fileID: 444788}
  m_RootOrder: 0
  m_LocalEulerAnglesHint: {x: 0, y: 0, z: 0}
--- !u!4 &487808
Transform:
  m_ObjectHideFlags: 1
  m_CorrespondingSourceObject: {fileID: 0}
  m_PrefabInternal: {fileID: 100100000}
  m_GameObject: {fileID: 145418}
  m_LocalRotation: {x: -0.00000003355308, y: -7.557048e-10, z: -0.000000006678988,
    w: 1}
  m_LocalPosition: {x: -0.010218023, y: 3.6506317, z: -0.000012870877}
  m_LocalScale: {x: 1, y: 1, z: 1}
  m_Children:
  - {fileID: 438972}
  m_Father: {fileID: 420764}
  m_RootOrder: 0
  m_LocalEulerAnglesHint: {x: 0, y: 0, z: 0}
--- !u!4 &489072
Transform:
  m_ObjectHideFlags: 1
  m_CorrespondingSourceObject: {fileID: 0}
  m_PrefabInternal: {fileID: 100100000}
  m_GameObject: {fileID: 114760}
  m_LocalRotation: {x: 0.000032287433, y: -0.00049903296, z: 0.011669388, w: 0.9999318}
  m_LocalPosition: {x: -0.26757833, y: 3.5406926, z: 0.000021934507}
  m_LocalScale: {x: 1, y: 0.9999996, z: 1.0000001}
  m_Children:
  - {fileID: 447476}
  m_Father: {fileID: 408066}
  m_RootOrder: 0
  m_LocalEulerAnglesHint: {x: 0.0044, y: -0.057099998, z: 1.3371999}
--- !u!4 &489298
Transform:
  m_ObjectHideFlags: 1
  m_CorrespondingSourceObject: {fileID: 0}
  m_PrefabInternal: {fileID: 100100000}
  m_GameObject: {fileID: 198202}
  m_LocalRotation: {x: -0.0067263856, y: 0.007935547, z: 0.052596204, w: 0.9985617}
  m_LocalPosition: {x: 3.229885, y: 8.635466, z: 0.26456282}
  m_LocalScale: {x: 0.999999, y: 0.99999946, z: 1.0000002}
  m_Children:
  - {fileID: 475492}
  m_Father: {fileID: 492904}
  m_RootOrder: 2
  m_LocalEulerAnglesHint: {x: -0.81759995, y: 0.86759996, z: 6.0239997}
--- !u!4 &490318
Transform:
  m_ObjectHideFlags: 1
  m_CorrespondingSourceObject: {fileID: 0}
  m_PrefabInternal: {fileID: 100100000}
  m_GameObject: {fileID: 138888}
  m_LocalRotation: {x: 0.00000008122751, y: -0.0000000018335409, z: 1.1508664e-24,
    w: 1}
  m_LocalPosition: {x: 0, y: 0, z: 0}
  m_LocalScale: {x: 0.01, y: 0.009999999, z: 0.01}
  m_Children: []
  m_Father: {fileID: 476752}
  m_RootOrder: 3
  m_LocalEulerAnglesHint: {x: 0, y: 0, z: 0}
--- !u!4 &490432
Transform:
  m_ObjectHideFlags: 1
  m_CorrespondingSourceObject: {fileID: 0}
  m_PrefabInternal: {fileID: 100100000}
  m_GameObject: {fileID: 156294}
  m_LocalRotation: {x: -0.00000008045498, y: 2.508182e-10, z: -5.8730437e-10, w: 1}
  m_LocalPosition: {x: 0.0012805796, y: 3.0745363, z: -0.000006300746}
  m_LocalScale: {x: 1, y: 1, z: 1}
  m_Children:
  - {fileID: 466952}
  m_Father: {fileID: 453036}
  m_RootOrder: 0
  m_LocalEulerAnglesHint: {x: 0, y: 0, z: 0}
--- !u!4 &490442
Transform:
  m_ObjectHideFlags: 1
  m_CorrespondingSourceObject: {fileID: 0}
  m_PrefabInternal: {fileID: 100100000}
  m_GameObject: {fileID: 149322}
  m_LocalRotation: {x: 0.000000081460335, y: -0, z: 0, w: 1}
  m_LocalPosition: {x: 0, y: 0, z: 0}
  m_LocalScale: {x: 0.01, y: 0.01, z: 0.01}
  m_Children:
  - {fileID: 495394}
  m_Father: {fileID: 472092}
  m_RootOrder: 0
  m_LocalEulerAnglesHint: {x: 0, y: 0, z: 0}
--- !u!4 &491886
Transform:
  m_ObjectHideFlags: 1
  m_CorrespondingSourceObject: {fileID: 0}
  m_PrefabInternal: {fileID: 100100000}
  m_GameObject: {fileID: 171172}
  m_LocalRotation: {x: -0.0007780783, y: -0.0035744617, z: -0.057712052, w: 0.9983266}
  m_LocalPosition: {x: 1.1613122, y: 10.023253, z: -0.011463714}
  m_LocalScale: {x: 1, y: 1.0000005, z: 0.9999997}
  m_Children:
  - {fileID: 428524}
  m_Father: {fileID: 416924}
  m_RootOrder: 1
  m_LocalEulerAnglesHint: {x: -0.1127, y: -0.40379998, z: -6.6166997}
--- !u!4 &492904
Transform:
  m_ObjectHideFlags: 1
  m_CorrespondingSourceObject: {fileID: 0}
  m_PrefabInternal: {fileID: 100100000}
  m_GameObject: {fileID: 123620}
  m_LocalRotation: {x: 0.0051883897, y: 0.021200966, z: -0.052770805, w: 0.9983681}
  m_LocalPosition: {x: 0.00000020841252, y: 29.88406, z: 0.000014346092}
  m_LocalScale: {x: 1.0000007, y: 1, z: 1}
  m_Children:
  - {fileID: 429400}
  - {fileID: 480490}
  - {fileID: 489298}
  - {fileID: 460882}
  - {fileID: 417366}
  m_Father: {fileID: 469134}
  m_RootOrder: 0
  m_LocalEulerAnglesHint: {x: 0.72179997, y: 2.395, z: -6.0362997}
--- !u!4 &494372
Transform:
  m_ObjectHideFlags: 1
  m_CorrespondingSourceObject: {fileID: 0}
  m_PrefabInternal: {fileID: 100100000}
  m_GameObject: {fileID: 125856}
  m_LocalRotation: {x: 0.56846106, y: 0.42061523, z: -0.5682299, w: 0.42077276}
  m_LocalPosition: {x: 6.2330184, y: 12.722447, z: 0.0031886697}
  m_LocalScale: {x: 0.9999998, y: 1.0000004, z: 0.9999994}
  m_Children:
  - {fileID: 473744}
  m_Father: {fileID: 401700}
  m_RootOrder: 2
  m_LocalEulerAnglesHint: {x: 73.018295, y: -90.0255, z: 179.997}
--- !u!4 &495394
Transform:
  m_ObjectHideFlags: 1
  m_CorrespondingSourceObject: {fileID: 0}
  m_PrefabInternal: {fileID: 100100000}
  m_GameObject: {fileID: 148208}
  m_LocalRotation: {x: -0.00000017530357, y: 0.00000047677122, z: -0.000014443002,
    w: 1}
  m_LocalPosition: {x: 0.00019899552, y: 104.913734, z: -1.9585699}
  m_LocalScale: {x: 1, y: 1, z: 1}
  m_Children:
  - {fileID: 407070}
  - {fileID: 478926}
  - {fileID: 406844}
  m_Father: {fileID: 490442}
  m_RootOrder: 0
  m_LocalEulerAnglesHint: {x: 0, y: 0.0001, z: -0.0016}
--- !u!4 &499826
Transform:
  m_ObjectHideFlags: 1
  m_CorrespondingSourceObject: {fileID: 0}
  m_PrefabInternal: {fileID: 100100000}
  m_GameObject: {fileID: 145982}
  m_LocalRotation: {x: 0.56555074, y: -0.42279127, z: 0.5711599, w: 0.41854063}
  m_LocalPosition: {x: -6.233017, y: 12.723451, z: -0.060752567}
  m_LocalScale: {x: 0.99999946, y: 0.9999997, z: 0.9999995}
  m_Children:
  - {fileID: 429102}
  m_Father: {fileID: 401700}
  m_RootOrder: 0
  m_LocalEulerAnglesHint: {x: 73.013695, y: 89.4509, z: -179.97789}
--- !u!95 &9578032
Animator:
  serializedVersion: 3
  m_ObjectHideFlags: 1
  m_CorrespondingSourceObject: {fileID: 0}
  m_PrefabInternal: {fileID: 100100000}
  m_GameObject: {fileID: 199726}
  m_Enabled: 1
  m_Avatar: {fileID: 9000000, guid: 340f99b8334a14c4a8a01dce6e1e5348, type: 3}
  m_Controller: {fileID: 0}
  m_CullingMode: 1
  m_UpdateMode: 0
  m_ApplyRootMotion: 1
  m_LinearVelocityBlending: 0
  m_WarningMessage: 
  m_HasTransformHierarchy: 1
  m_AllowConstantClipSamplingOptimization: 1
  m_KeepAnimatorControllerStateOnDisable: 0
--- !u!137 &13702304
SkinnedMeshRenderer:
  m_ObjectHideFlags: 1
  m_CorrespondingSourceObject: {fileID: 0}
  m_PrefabInternal: {fileID: 100100000}
  m_GameObject: {fileID: 177032}
  m_Enabled: 1
  m_CastShadows: 1
  m_ReceiveShadows: 1
  m_DynamicOccludee: 1
  m_MotionVectors: 1
  m_LightProbeUsage: 1
  m_ReflectionProbeUsage: 1
  m_RenderingLayerMask: 4294967295
  m_Materials:
  - {fileID: 2100000, guid: 2fccb76f588d4d749928713d38489484, type: 2}
  - {fileID: 2100000, guid: df6e3b8b89f6ab04086bb67157f8e06e, type: 2}
  - {fileID: 2100000, guid: 33c350b6cd6102647be9afdfaec5b563, type: 2}
  - {fileID: 2100000, guid: 4a9aabb04c2af0e42a67b624135c49e7, type: 2}
  - {fileID: 2100000, guid: c90f59755f1461b4483f9f225b77813c, type: 2}
  - {fileID: 2100000, guid: f51c03443b297bb4a85e94d7738c2bb9, type: 2}
  - {fileID: 2100000, guid: a5e11a5a8f5eb46449d5ace6a06e4d54, type: 2}
  m_StaticBatchInfo:
    firstSubMesh: 0
    subMeshCount: 0
  m_StaticBatchRoot: {fileID: 0}
  m_ProbeAnchor: {fileID: 0}
  m_LightProbeVolumeOverride: {fileID: 0}
  m_ScaleInLightmap: 1
  m_PreserveUVs: 0
  m_IgnoreNormalsForChartDetection: 0
  m_ImportantGI: 0
  m_StitchLightmapSeams: 0
  m_SelectedEditorRenderState: 3
  m_MinimumChartSize: 4
  m_AutoUVMaxDistance: 0.5
  m_AutoUVMaxAngle: 89
  m_LightmapParameters: {fileID: 0}
  m_SortingLayerID: 0
  m_SortingLayer: 0
  m_SortingOrder: 0
  serializedVersion: 2
  m_Quality: 0
  m_UpdateWhenOffscreen: 0
  m_SkinnedMotionVectors: 1
  m_Mesh: {fileID: 4300004, guid: 340f99b8334a14c4a8a01dce6e1e5348, type: 3}
  m_Bones:
  - {fileID: 495394}
  - {fileID: 406844}
  - {fileID: 483740}
  - {fileID: 401700}
  - {fileID: 444788}
  - {fileID: 485740}
  - {fileID: 407024}
  - {fileID: 499826}
  - {fileID: 429102}
  - {fileID: 427584}
  - {fileID: 416924}
  - {fileID: 400286}
  - {fileID: 423536}
  - {fileID: 472876}
  - {fileID: 470186}
  - {fileID: 410084}
  - {fileID: 483334}
  - {fileID: 453036}
  - {fileID: 490432}
  - {fileID: 491886}
  - {fileID: 428524}
  - {fileID: 471662}
  - {fileID: 459626}
  - {fileID: 447890}
  - {fileID: 440576}
  - {fileID: 420404}
  - {fileID: 415168}
  - {fileID: 440378}
  - {fileID: 451804}
  - {fileID: 435784}
  - {fileID: 423878}
  - {fileID: 494372}
  - {fileID: 473744}
  - {fileID: 469134}
  - {fileID: 492904}
  - {fileID: 417366}
  - {fileID: 408066}
  - {fileID: 489072}
  - {fileID: 447476}
  - {fileID: 429400}
  - {fileID: 429606}
  - {fileID: 472374}
  - {fileID: 425518}
  - {fileID: 480490}
  - {fileID: 471210}
  - {fileID: 420764}
  - {fileID: 487808}
  - {fileID: 460882}
  - {fileID: 420800}
  - {fileID: 424576}
  - {fileID: 441126}
  - {fileID: 489298}
  - {fileID: 475492}
  - {fileID: 408936}
  - {fileID: 425588}
  - {fileID: 407070}
  - {fileID: 411146}
  - {fileID: 474028}
  - {fileID: 471422}
  - {fileID: 403294}
  - {fileID: 478926}
  - {fileID: 432614}
  - {fileID: 408704}
  - {fileID: 428512}
  - {fileID: 429826}
  m_BlendShapeWeights: []
  m_RootBone: {fileID: 495394}
  m_AABB:
    m_Center: {x: 0.0058937073, y: -20.591595, z: 4.5108624}
    m_Extent: {x: 98.883606, y: 96.17589, z: 26.979374}
  m_DirtyAABB: 0
--- !u!137 &13736980
SkinnedMeshRenderer:
  m_ObjectHideFlags: 1
  m_CorrespondingSourceObject: {fileID: 0}
  m_PrefabInternal: {fileID: 100100000}
  m_GameObject: {fileID: 138888}
  m_Enabled: 1
  m_CastShadows: 1
  m_ReceiveShadows: 1
  m_DynamicOccludee: 1
  m_MotionVectors: 1
  m_LightProbeUsage: 1
  m_ReflectionProbeUsage: 1
  m_RenderingLayerMask: 4294967295
  m_Materials:
  - {fileID: 2100000, guid: 2fccb76f588d4d749928713d38489484, type: 2}
  - {fileID: 2100000, guid: df6e3b8b89f6ab04086bb67157f8e06e, type: 2}
  - {fileID: 2100000, guid: c90f59755f1461b4483f9f225b77813c, type: 2}
  - {fileID: 2100000, guid: 4a9aabb04c2af0e42a67b624135c49e7, type: 2}
  - {fileID: 2100000, guid: f51c03443b297bb4a85e94d7738c2bb9, type: 2}
  - {fileID: 2100000, guid: a5e11a5a8f5eb46449d5ace6a06e4d54, type: 2}
  - {fileID: 2100000, guid: 33c350b6cd6102647be9afdfaec5b563, type: 2}
  m_StaticBatchInfo:
    firstSubMesh: 0
    subMeshCount: 0
  m_StaticBatchRoot: {fileID: 0}
  m_ProbeAnchor: {fileID: 0}
  m_LightProbeVolumeOverride: {fileID: 0}
  m_ScaleInLightmap: 1
  m_PreserveUVs: 0
  m_IgnoreNormalsForChartDetection: 0
  m_ImportantGI: 0
  m_StitchLightmapSeams: 0
  m_SelectedEditorRenderState: 3
  m_MinimumChartSize: 4
  m_AutoUVMaxDistance: 0.5
  m_AutoUVMaxAngle: 89
  m_LightmapParameters: {fileID: 0}
  m_SortingLayerID: 0
  m_SortingLayer: 0
  m_SortingOrder: 0
  serializedVersion: 2
  m_Quality: 0
  m_UpdateWhenOffscreen: 0
  m_SkinnedMotionVectors: 1
  m_Mesh: {fileID: 4300000, guid: 340f99b8334a14c4a8a01dce6e1e5348, type: 3}
  m_Bones:
  - {fileID: 495394}
  - {fileID: 406844}
  - {fileID: 483740}
  - {fileID: 401700}
  - {fileID: 444788}
  - {fileID: 485740}
  - {fileID: 407024}
  - {fileID: 499826}
  - {fileID: 429102}
  - {fileID: 427584}
  - {fileID: 416924}
  - {fileID: 400286}
  - {fileID: 423536}
  - {fileID: 472876}
  - {fileID: 470186}
  - {fileID: 410084}
  - {fileID: 483334}
  - {fileID: 453036}
  - {fileID: 490432}
  - {fileID: 491886}
  - {fileID: 428524}
  - {fileID: 471662}
  - {fileID: 459626}
  - {fileID: 447890}
  - {fileID: 440576}
  - {fileID: 420404}
  - {fileID: 415168}
  - {fileID: 440378}
  - {fileID: 451804}
  - {fileID: 435784}
  - {fileID: 423878}
  - {fileID: 494372}
  - {fileID: 473744}
  - {fileID: 469134}
  - {fileID: 492904}
  - {fileID: 417366}
  - {fileID: 408066}
  - {fileID: 489072}
  - {fileID: 447476}
  - {fileID: 429400}
  - {fileID: 429606}
  - {fileID: 472374}
  - {fileID: 425518}
  - {fileID: 480490}
  - {fileID: 471210}
  - {fileID: 420764}
  - {fileID: 487808}
  - {fileID: 460882}
  - {fileID: 420800}
  - {fileID: 424576}
  - {fileID: 441126}
  - {fileID: 489298}
  - {fileID: 475492}
  - {fileID: 408936}
  - {fileID: 425588}
  - {fileID: 407070}
  - {fileID: 411146}
  - {fileID: 474028}
  - {fileID: 471422}
  - {fileID: 403294}
  - {fileID: 478926}
  - {fileID: 432614}
  - {fileID: 408704}
  - {fileID: 428512}
  - {fileID: 429826}
  m_BlendShapeWeights: []
  m_RootBone: {fileID: 495394}
  m_AABB:
    m_Center: {x: 0.008682251, y: -20.565422, z: 5.931921}
    m_Extent: {x: 98.9809, y: 96.17707, z: 28.504267}
  m_DirtyAABB: 0
--- !u!137 &13743300
SkinnedMeshRenderer:
  m_ObjectHideFlags: 1
  m_CorrespondingSourceObject: {fileID: 0}
  m_PrefabInternal: {fileID: 100100000}
  m_GameObject: {fileID: 118618}
  m_Enabled: 1
  m_CastShadows: 1
  m_ReceiveShadows: 1
  m_DynamicOccludee: 1
  m_MotionVectors: 1
  m_LightProbeUsage: 1
  m_ReflectionProbeUsage: 1
  m_RenderingLayerMask: 4294967295
  m_Materials:
  - {fileID: 2100000, guid: 2fccb76f588d4d749928713d38489484, type: 2}
  - {fileID: 2100000, guid: df6e3b8b89f6ab04086bb67157f8e06e, type: 2}
  - {fileID: 2100000, guid: 33c350b6cd6102647be9afdfaec5b563, type: 2}
  - {fileID: 2100000, guid: 4a9aabb04c2af0e42a67b624135c49e7, type: 2}
  - {fileID: 2100000, guid: c90f59755f1461b4483f9f225b77813c, type: 2}
  - {fileID: 2100000, guid: f51c03443b297bb4a85e94d7738c2bb9, type: 2}
  - {fileID: 2100000, guid: a5e11a5a8f5eb46449d5ace6a06e4d54, type: 2}
  m_StaticBatchInfo:
    firstSubMesh: 0
    subMeshCount: 0
  m_StaticBatchRoot: {fileID: 0}
  m_ProbeAnchor: {fileID: 0}
  m_LightProbeVolumeOverride: {fileID: 0}
  m_ScaleInLightmap: 1
  m_PreserveUVs: 0
  m_IgnoreNormalsForChartDetection: 0
  m_ImportantGI: 0
  m_StitchLightmapSeams: 0
  m_SelectedEditorRenderState: 3
  m_MinimumChartSize: 4
  m_AutoUVMaxDistance: 0.5
  m_AutoUVMaxAngle: 89
  m_LightmapParameters: {fileID: 0}
  m_SortingLayerID: 0
  m_SortingLayer: 0
  m_SortingOrder: 0
  serializedVersion: 2
  m_Quality: 0
  m_UpdateWhenOffscreen: 0
  m_SkinnedMotionVectors: 1
  m_Mesh: {fileID: 4300002, guid: 340f99b8334a14c4a8a01dce6e1e5348, type: 3}
  m_Bones:
  - {fileID: 495394}
  - {fileID: 406844}
  - {fileID: 483740}
  - {fileID: 401700}
  - {fileID: 444788}
  - {fileID: 485740}
  - {fileID: 407024}
  - {fileID: 499826}
  - {fileID: 429102}
  - {fileID: 427584}
  - {fileID: 416924}
  - {fileID: 400286}
  - {fileID: 423536}
  - {fileID: 472876}
  - {fileID: 470186}
  - {fileID: 410084}
  - {fileID: 483334}
  - {fileID: 453036}
  - {fileID: 490432}
  - {fileID: 491886}
  - {fileID: 428524}
  - {fileID: 471662}
  - {fileID: 459626}
  - {fileID: 447890}
  - {fileID: 440576}
  - {fileID: 420404}
  - {fileID: 415168}
  - {fileID: 440378}
  - {fileID: 451804}
  - {fileID: 435784}
  - {fileID: 423878}
  - {fileID: 494372}
  - {fileID: 473744}
  - {fileID: 469134}
  - {fileID: 492904}
  - {fileID: 417366}
  - {fileID: 408066}
  - {fileID: 489072}
  - {fileID: 447476}
  - {fileID: 429400}
  - {fileID: 429606}
  - {fileID: 472374}
  - {fileID: 425518}
  - {fileID: 480490}
  - {fileID: 471210}
  - {fileID: 420764}
  - {fileID: 487808}
  - {fileID: 460882}
  - {fileID: 420800}
  - {fileID: 424576}
  - {fileID: 441126}
  - {fileID: 489298}
  - {fileID: 475492}
  - {fileID: 408936}
  - {fileID: 425588}
  - {fileID: 407070}
  - {fileID: 411146}
  - {fileID: 474028}
  - {fileID: 471422}
  - {fileID: 403294}
  - {fileID: 478926}
  - {fileID: 432614}
  - {fileID: 408704}
  - {fileID: 428512}
  - {fileID: 429826}
  m_BlendShapeWeights: []
  m_RootBone: {fileID: 495394}
  m_AABB:
    m_Center: {x: 0.0052452087, y: -20.604187, z: 4.9330816}
    m_Extent: {x: 98.921906, y: 96.18498, z: 27.401543}
  m_DirtyAABB: 0
--- !u!137 &13754848
SkinnedMeshRenderer:
  m_ObjectHideFlags: 1
  m_CorrespondingSourceObject: {fileID: 0}
  m_PrefabInternal: {fileID: 100100000}
  m_GameObject: {fileID: 174024}
  m_Enabled: 1
  m_CastShadows: 1
  m_ReceiveShadows: 1
  m_DynamicOccludee: 1
  m_MotionVectors: 1
  m_LightProbeUsage: 1
  m_ReflectionProbeUsage: 1
  m_RenderingLayerMask: 4294967295
  m_Materials:
  - {fileID: 2100000, guid: 2fccb76f588d4d749928713d38489484, type: 2}
  - {fileID: 2100000, guid: df6e3b8b89f6ab04086bb67157f8e06e, type: 2}
  - {fileID: 2100000, guid: 33c350b6cd6102647be9afdfaec5b563, type: 2}
  - {fileID: 2100000, guid: 4a9aabb04c2af0e42a67b624135c49e7, type: 2}
  - {fileID: 2100000, guid: c90f59755f1461b4483f9f225b77813c, type: 2}
  - {fileID: 2100000, guid: f51c03443b297bb4a85e94d7738c2bb9, type: 2}
  - {fileID: 2100000, guid: a5e11a5a8f5eb46449d5ace6a06e4d54, type: 2}
  m_StaticBatchInfo:
    firstSubMesh: 0
    subMeshCount: 0
  m_StaticBatchRoot: {fileID: 0}
  m_ProbeAnchor: {fileID: 0}
  m_LightProbeVolumeOverride: {fileID: 0}
  m_ScaleInLightmap: 1
  m_PreserveUVs: 0
  m_IgnoreNormalsForChartDetection: 0
  m_ImportantGI: 0
  m_StitchLightmapSeams: 0
  m_SelectedEditorRenderState: 3
  m_MinimumChartSize: 4
  m_AutoUVMaxDistance: 0.5
  m_AutoUVMaxAngle: 89
  m_LightmapParameters: {fileID: 0}
  m_SortingLayerID: 0
  m_SortingLayer: 0
  m_SortingOrder: 0
  serializedVersion: 2
  m_Quality: 0
  m_UpdateWhenOffscreen: 0
  m_SkinnedMotionVectors: 1
  m_Mesh: {fileID: 4300006, guid: 340f99b8334a14c4a8a01dce6e1e5348, type: 3}
  m_Bones:
  - {fileID: 495394}
  - {fileID: 406844}
  - {fileID: 483740}
  - {fileID: 401700}
  - {fileID: 444788}
  - {fileID: 485740}
  - {fileID: 407024}
  - {fileID: 499826}
  - {fileID: 429102}
  - {fileID: 427584}
  - {fileID: 416924}
  - {fileID: 400286}
  - {fileID: 423536}
  - {fileID: 472876}
  - {fileID: 470186}
  - {fileID: 410084}
  - {fileID: 483334}
  - {fileID: 453036}
  - {fileID: 490432}
  - {fileID: 491886}
  - {fileID: 428524}
  - {fileID: 471662}
  - {fileID: 459626}
  - {fileID: 447890}
  - {fileID: 440576}
  - {fileID: 420404}
  - {fileID: 415168}
  - {fileID: 440378}
  - {fileID: 451804}
  - {fileID: 435784}
  - {fileID: 423878}
  - {fileID: 494372}
  - {fileID: 473744}
  - {fileID: 469134}
  - {fileID: 492904}
  - {fileID: 417366}
  - {fileID: 408066}
  - {fileID: 489072}
  - {fileID: 447476}
  - {fileID: 429400}
  - {fileID: 429606}
  - {fileID: 472374}
  - {fileID: 425518}
  - {fileID: 480490}
  - {fileID: 471210}
  - {fileID: 420764}
  - {fileID: 487808}
  - {fileID: 460882}
  - {fileID: 420800}
  - {fileID: 424576}
  - {fileID: 441126}
  - {fileID: 489298}
  - {fileID: 475492}
  - {fileID: 408936}
  - {fileID: 425588}
  - {fileID: 407070}
  - {fileID: 411146}
  - {fileID: 474028}
  - {fileID: 471422}
  - {fileID: 403294}
  - {fileID: 478926}
  - {fileID: 432614}
  - {fileID: 408704}
  - {fileID: 428512}
  - {fileID: 429826}
  m_BlendShapeWeights: []
  m_RootBone: {fileID: 495394}
  m_AABB:
    m_Center: {x: 0.004688263, y: -20.591595, z: 4.8472834}
    m_Extent: {x: 98.8893, y: 96.17589, z: 27.315811}
  m_DirtyAABB: 0
--- !u!205 &20503356
LODGroup:
  m_ObjectHideFlags: 1
  m_CorrespondingSourceObject: {fileID: 0}
  m_PrefabInternal: {fileID: 100100000}
  m_GameObject: {fileID: 195806}
  serializedVersion: 2
  m_LocalReferencePoint: {x: 0.000082969666, y: 0.8432497, z: 0.039733708}
  m_Size: 1.9796741
  m_FadeMode: 0
  m_AnimateCrossFading: 0
  m_LODs:
  - screenRelativeHeight: 0.69752145
    fadeTransitionWidth: 0
    renderers:
    - renderer: {fileID: 13754848}
  - screenRelativeHeight: 0.39740333
    fadeTransitionWidth: 0
    renderers:
    - renderer: {fileID: 13702304}
  - screenRelativeHeight: 0.1990043
    fadeTransitionWidth: 0
    renderers:
    - renderer: {fileID: 13743300}
  - screenRelativeHeight: 0.050290737
    fadeTransitionWidth: 0
    renderers:
    - renderer: {fileID: 13736980}
  m_Enabled: 1
--- !u!1001 &100100000
Prefab:
  m_ObjectHideFlags: 1
  serializedVersion: 2
  m_Modification:
    m_TransformParent: {fileID: 0}
    m_Modifications: []
    m_RemovedComponents: []
  m_SourcePrefab: {fileID: 0}
  m_RootGameObject: {fileID: 199726}
  m_IsPrefabAsset: 1
