%YAML 1.1
%TAG !u! tag:unity3d.com,2011:
--- !u!21 &2100000
Material:
  serializedVersion: 6
  m_ObjectHideFlags: 0
  m_CorrespondingSourceObject: {fileID: 0}
  m_PrefabInternal: {fileID: 0}
  m_Name: virtualShield-03
  m_Shader: {fileID: 203, guid: 0000000000000000f000000000000000, type: 0}
  m_ShaderKeywords: 
  m_LightmapFlags: 5
  m_EnableInstancingVariants: 0
  m_DoubleSidedGI: 0
  m_CustomRenderQueue: -1
  stringTagMap: {}
  disabledShaderPasses: []
  m_SavedProperties:
    serializedVersion: 3
    m_TexEnvs:
    - _MainTex:
        m_Texture: {fileID: 2800000, guid: c3c0c59f9953f8e4f928646fbafc1c83, type: 3}
        m_Scale: {x: 2.5, y: 2}
        m_Offset: {x: 0, y: 0}
    m_Floats:
    - _InvFade: 0.16
    m_Colors:
    - _TintColor: {r: 0.16176468, g: 0.16176468, b: 0.16176468, a: 0.128}
