%YAML 1.1
%TAG !u! tag:unity3d.com,2011:
--- !u!114 &11400000
MonoBehaviour:
  m_ObjectHideFlags: 0
  m_CorrespondingSourceObject: {fileID: 0}
  m_PrefabInternal: {fileID: 0}
  m_GameObject: {fileID: 0}
  m_Enabled: 1
  m_EditorHideFlags: 0
  m_Script: {fileID: 11500000, guid: 7592ac57a97621844bb7d05b6822c040, type: 3}
  m_Name: vMeleeCombat@CameraState
  m_EditorClassIdentifier: 
  Name: 
  tpCameraStates:
  - Name: Default
    forward: -1
    right: 0
    defaultDistance: 2.5
    maxDistance: 8
    minDistance: 0.6
    height: 1.8
    smoothFollow: 10
    xMouseSensitivity: 3
    yMouseSensitivity: 3
    yMinLimit: -40
    yMaxLimit: 80
    xMinLimit: -360
    xMaxLimit: 360
    rotationOffSet: {x: 8, y: 0, z: 0}
    cullingHeight: 1.8
    cullingMinDist: 0.01
    fov: 60
    useZoom: 0
    fixedAngle: {x: 360, y: 78}
    lookPoints:
    - pointName: point_01
      positionPoint: {x: 0, y: 1, z: -10}
      eulerAngle: {x: -0, y: 0, z: 0}
      freeRotation: 0
    cameraMode: 0
  - Name: Crouch
    forward: -1
    right: 0.4
    defaultDistance: 1.5
    maxDistance: 6.55
    minDistance: 0.5
    height: 1.3
    smoothFollow: 10
    xMouseSensitivity: 3
    yMouseSensitivity: 3
    yMinLimit: -40
    yMaxLimit: 70
    xMinLimit: -360
    xMaxLimit: 360
    rotationOffSet: {x: 0, y: 0, z: 0}
    cullingHeight: 0.7
    cullingMinDist: 0.1
    fov: 40
    useZoom: 0
    fixedAngle: {x: 0, y: 0}
    lookPoints: []
    cameraMode: 0
  - Name: Strafing
    forward: -1
    right: 0.5
    defaultDistance: 3
    maxDistance: 1.5
    minDistance: 0.25
    height: 1.3
    smoothFollow: 20
    xMouseSensitivity: 1
    yMouseSensitivity: 1
    yMinLimit: -40
    yMaxLimit: 80
    xMinLimit: -360
    xMaxLimit: 360
    rotationOffSet: {x: 0, y: 0, z: 0}
    cullingHeight: 1.5
    cullingMinDist: 0.1
    fov: 50
    useZoom: 0
    fixedAngle: {x: 0, y: 0}
    lookPoints: []
    cameraMode: 0
  - Name: Pendulum
    forward: -1
    right: 0.28
    defaultDistance: 12
    maxDistance: 3
    minDistance: 0.5
    height: 1.8
    smoothFollow: 10
    xMouseSensitivity: 0
    yMouseSensitivity: 0
    yMinLimit: -40
    yMaxLimit: 80
    xMinLimit: -360
    xMaxLimit: 360
    rotationOffSet: {x: 0, y: 0, z: 0}
    cullingHeight: 1
    cullingMinDist: 0.1
    fov: 35
    useZoom: 0
    fixedAngle: {x: 0, y: 0}
    lookPoints:
    - pointName: point_01
      positionPoint: {x: 27.36, y: 7.46, z: -18.86}
      eulerAngle: {x: 358.52017, y: 0.6535969, z: 0.0000026122177}
      freeRotation: 1
    cameraMode: 2
