%YAML 1.1
%TAG !u! tag:unity3d.com,2011:
--- !u!114 &11400000
MonoBehaviour:
  m_ObjectHideFlags: 0
  m_CorrespondingSourceObject: {fileID: 0}
  m_PrefabInternal: {fileID: 0}
  m_GameObject: {fileID: 0}
  m_Enabled: 1
  m_EditorHideFlags: 0
  m_Script: {fileID: 11500000, guid: b286ad5b80a17a44dba5b9529e418d14, type: 3}
  m_Name: ShooterAI_AmmoListData
  m_EditorClassIdentifier: 
  ammos:
  - weaponName: Assault Rifle
    ammoID: 13
    count: 0
  - weaponName: Handgun
    ammoID: 14
    count: 0
  - weaponName: Shotgun
    ammoID: 17
    count: 0
  - weaponName: Sniper
    ammoID: 19
    count: 0
  - weaponName: RPG
    ammoID: 18
    count: 0
