%YAML 1.1
%TAG !u! tag:unity3d.com,2011:
--- !u!78 &1
TagManager:
  serializedVersion: 2
  tags:
  - Action
  - AutoCrouch
  - Ragdoll
  - Ignore Ragdoll
  - Boss
  - Enemy
  - CompanionAI
  - Weapon
  - PlayerUI
  - Collectable
  - Interactable
  - LookAt
  layers:
  - Default
  - TransparentFX
  - Ignore Raycast
  - 
  - Water
  - UI
  - 
  - 
  - PostProcessing
  - Terrain
  - Obstacle
  - Player
  - Enemy
  - CompanionAI
  - Triggers
  - StopMove
  - HeadTrack
  - 
  - 
  - 
  - 
  - 
  - 
  - 
  - 
  - 
  - 
  - 
  - 
  - 
  - 
  - 
  m_SortingLayers:
  - name: Default
    uniqueID: 0
    locked: 0
